#262 - Krakow

owner = A89
controller = A89
add_core = A89
culture = crownsman
religion = regent_court

hre = yes

base_tax = 5
base_production = 4
base_manpower = 3

trade_goods = grain

capital = ""

is_city = yes







