#332 - Marash

owner = A34
controller = A34
add_core = A34
culture = wexonard
religion = regent_court

hre = yes

base_tax = 5
base_production = 4
base_manpower = 3

trade_goods = cloth
capital = ""

is_city = yes









add_permanent_province_modifier = {
	name = halfling_minority_coexisting_small
	duration = -1
}