#400 - Muscat

owner = F07
controller = F07
add_core = F07
add_core = F57
culture = khasani
religion = mother_akan

hre = no

base_tax = 7
base_production = 5
base_manpower = 4

trade_goods = paper
center_of_trade = 1

capital = ""

is_city = yes

add_permanent_province_modifier = {
	name = gnollish_minority_integrated_small
	duration = -1
}

add_institution_embracement = {
    which = feudalism
    value = 100
}





