#494 - St. Kitts	

owner = F05
controller = F05
add_core = F05
culture = sun_elf
religion = bulwari_sun_cult

hre = no

base_tax = 4
base_production = 4
base_manpower = 4

trade_goods = cloth

capital = ""

is_city = yes










