# No previous file for Sikhottabong
owner = F41
controller = F41
add_core = F41
culture = zanite
religion = bulwari_sun_cult

hre = no

base_tax = 1
base_production = 2
base_manpower = 1

trade_goods = grain

capital = ""

is_city = yes









