# No previous file for Lingyun
owner = F26
controller = F26
add_core = F26
culture = gelkar
religion = bulwari_sun_cult


base_tax = 5
base_production = 5
base_manpower = 3

trade_goods = wool

capital = ""

is_city = yes









