# No previous file for Bayvic
owner = Z28
controller = Z28
add_core = Z28
culture = blue_reachman
religion = regent_court

hre = no

base_tax = 8
base_production = 8
base_manpower = 5

trade_goods = paper
center_of_trade = 2

capital = ""

is_city = yes
fort_15th = yes 





