
nimscodd_1 = {
	slot = 1
	generic = no
	ai = yes
	has_country_shield = yes
	potential = {
		OR = {
			tag = A06
			tag = A79
		}
	}
	
	
	nimscodd_prepare_reclamation_fleet = {
		icon = mission_galleys_in_port
		required_missions = { }
		position = 1
		
		trigger = {
			num_of_light_ship = 12
		}	
		effect = {
			add_country_modifier = {
				name = nimscodd_reclamation_fleet_modifier
				duration = 3650
			}
			if = {
				limit = { 
					197 = {
						NOT = { is_core = ROOT }
						NOT = { owned_by = ROOT }
					}
				}
				197 = {
					add_permanent_claim = ROOT
				}
			}
			if = {
				limit = { 
					200 = {
						NOT = { is_core = ROOT }
						NOT = { owned_by = ROOT }
					}
				}
				200 = {
					add_permanent_claim = ROOT
				}
			}
			if = {
				limit = { 
					694 = {
						NOT = { is_core = ROOT }
						NOT = { owned_by = ROOT }
					}
				}
				694 = {
					add_permanent_claim = ROOT
				}
			}
		}
	}
	
	nimscodd_conquer_codderran = {
		icon = mission_establish_high_seas_navy
		required_missions = { nimscodd_prepare_reclamation_fleet }
		position = 3
		trigger = {
			197 = {
				owned_by = ROOT
			}
			200 = {
				owned_by = ROOT
			}
			694 = {
				owned_by = ROOT
			}
		}
		provinces_to_highlight = {
			OR = {
				province_id = 197
				province_id = 200
				province_id = 694
			}
			NOT = {
				country_or_non_sovereign_subject_holds = ROOT
			}
		}
		effect = {
			add_country_modifier = {
				name = nimscodd_conquer_codderran_modifier
				duration = 7300
			}
		}
	}
	
	nimscodd_resettle_codderran = {
		icon = mission_settlers_north_america
		required_missions = { 
			nimscodd_conquer_codderran
			nimscodd_resettle_capital
		}
		position = 5
		
		trigger = {
			if = {
				limit = {
					has_country_modifier = racial_pop_kobold_expulsion
					has_country_modifier = racial_pop_kobold_purge
				}
				197 = {
					culture_group = gnomish
					owned_by = ROOT
				}
				200 = {
					culture_group = gnomish
					owned_by = ROOT
				}
				694 = {
					culture_group = gnomish
					owned_by = ROOT
				}
			}
			else = {
				dip_power = 100
			}
		}
		provinces_to_highlight = {
			OR = {
				province_id = 197
				province_id = 200
				province_id = 694
			}
		}
		effect = {
			197 = {
				add_base_production = 1
				add_base_tax = 1
				add_base_manpower = 1
			}
			200 = {
				add_base_production = 1
				add_base_tax = 1
				add_base_manpower = 1
			}
			694 = {
				add_base_production = 1
				add_base_tax = 1
				add_base_manpower = 1
			}
			if = {
				limit = {
					NOT = {
						has_country_modifier = racial_pop_kobold_expulsion
						has_country_modifier = racial_pop_kobold_purge
					}
				}
				197 = {
					change_culture = ROOT
					change_religion = ROOT
				}
				694 = {
					add_gnomish_minority_size_effect = yes
					add_gnomish_minority_size_effect = yes
				}
				200 = {
					add_gnomish_minority_size_effect = yes
					add_gnomish_minority_size_effect = yes
				}
				add_dip_power = -100
			}
		}
	}
}

hierarchy_1 = {
	slot = 1
	generic = no
	ai = yes
	has_country_shield = yes
	potential = {
		tag = A79
	}
	
	hierarchy_restore_codderran = {
		icon = mission_high_income
		required_missions = { 
			nimscodd_resettle_codderran
		}
		position = 6
		
		provinces_to_highlight = {
			OR = {
				province_id = 197
			}
		}
		
		trigger = {
			197 = {
				has_production_building_trigger = yes
			}
			treasury = 200
		}
		
		effect = {
			add_treasury = -200
			define_advisor = {
				type = trader
				skill = 2
				discount = yes
				culture = ROOT
				religion = ROOT
			}
			197 = {
				change_trade_goods = iron
				add_building = weapons
			}
		}
	}
	
	hierarchy_storm_isle_traders = {
		icon = mission_galleys_in_port
		position = 7
		required_missions = {
			hierarchy_restore_codderran
			hierarchy_rebuild_oddansbay
		}
		provinces_to_highlight = {
			OR = {
				province_id = 190
			}
		}
		trigger = {
			190 = {
				development = 12
			}
			treasury = 200
		}
		effect = {
			add_treasury = -200
			190 = {
				center_of_trade = 1
			}
		}
	}
	
	hierarchy_prepare_exploratory_fleet = {
		icon = mission_establish_high_seas_navy
		position = 8
		required_missions = {
			hierarchy_storm_isle_traders
		}
		trigger = {
			has_idea_group = exploration_ideas
			has_idea = quest_for_the_new_world
		}
		effect = {
			define_explorer = {
				name = "Elbin Fastsprocket"
				fire = 3
				shock = 1
				manuever = 5
				siege = 0
			}
		}
	}
	
	hierarchy_discover_aelentir = {
		icon = mission_sea_battles
		position = 10
		required_missions = {
			hierarchy_prepare_exploratory_fleet
		}
		provinces_to_highlight = {
			OR = {
				province_id = 1204
			}
		}
		trigger = {
			if = {
				limit = { ai = no }
				has_discovered = 1204
			}
			else = {
				has_discovered = 1001
			}
		}
		effect = {
			add_country_modifier = {
				name = hierarchy_discover_aelentir_modifier
				duration = 3650
			}
		}
	}
	
	hierarchy_colonial_investments = {
		icon = mission_corsairs_of_the_north_sea
		position = 11
		required_missions = {
			hierarchy_discover_aelentir
		}
		trigger = {
			treasury = 400
			dip_power = 200
		}
		effect = {
			add_treasury = -400
			add_dip_power = -200
			add_country_modifier = {
				name = hierarchy_lots_of_colonists
				duration = 36500
			}
		}
	}
	
	hierarchy_establish_presence = {
		icon = mission_colonize_the_west
		position = 12
		required_missions = {
			hierarchy_colonial_investments
		}
		trigger = {
			any_owned_province = {
				OR = {
					continent = north_america
					continent = south_america
				}
			}
		}
		effect = {
			add_country_modifier = {
				name = hierarchy_presence_modifier
				duration = 7300
			}
		}
	}
	
	hierarchy_found_noo_oddansbay = {
		icon = mission_rb_colonise_canada
		position = 14
		required_missions = {
			hierarchy_establish_presence
		}
		provinces_to_highlight = {
			OR = {
				colonial_region = colonial_dalaire
			}
			NOT = {
				country_or_non_sovereign_subject_holds = ROOT
			}
		}
		trigger = {
			any_subject_country = {
				is_colonial_nation_of = ROOT
				capital_scope = { colonial_region = colonial_dalaire }
				num_of_cities = 10
			}
		}
		effect = {
			add_dip_power = 100
		}
	}
	
	hierarchy_establish_noo_widdechand = {
		icon = mission_early_game_buildings
		position = 15
		required_missions = {
			hierarchy_found_noo_oddansbay
		}
		provinces_to_highlight = {
			OR = {
				colonial_region = colonial_noruin
			}
			NOT = {
				country_or_non_sovereign_subject_holds = ROOT
			}
		}
		trigger = {
			any_subject_country = {
				is_colonial_nation_of = ROOT
				capital_scope = { colonial_region = colonial_noruin }
				num_of_cities = 10
			}
		}
		effect = {
			add_country_modifier = {
				name = hierarchy_noo_widdechand_establish_modifier
				duration = 7300
			}
		}
	}
	
	hierarchy_expand_noo_widdechand = {
		icon = mission_settlers_north_america
		position = 17
		required_missions = {
			hierarchy_establish_noo_widdechand
		}
		provinces_to_highlight = {
			OR = {
				colonial_region = colonial_noruin
			}
			NOT = {
				country_or_non_sovereign_subject_holds = ROOT
			}
		}
		trigger = {
			any_subject_country = {
				is_colonial_nation_of = ROOT
				capital_scope = { colonial_region = colonial_noruin }
				num_of_cities = 20
			}
		}
		effect = {
			add_adm_power = 100
		}
	}
	
	hierarchy_secure_noo_widdechand = {
		icon = mission_develop_nevas_port
		position = 19
		required_missions = {
			hierarchy_expand_noo_widdechand
		}
		provinces_to_highlight = {
			OR = {
				colonial_region = colonial_noruin
			}
			NOT = {
				country_or_non_sovereign_subject_holds = ROOT
			}
		}
		trigger = {
			any_subject_country = {
				is_colonial_nation_of = ROOT
				capital_scope = { colonial_region = colonial_noruin }
				num_of_cities = 40
			}
		}
		effect = {
			add_country_modifier = {
				name = hierarchy_loyal_colonies
				duration = -1
			}
		}
	}
}

nimscodd_2 = {
	slot = 2
	generic = no
	ai = yes
	has_country_shield = yes
	potential = {
		OR = {
			tag = A06
			tag = A79
		}
	}
	
	nimscodd_deal_with_kobolds = {
		icon = mission_noble_council
		required_missions = { }
		position = 2
		trigger = {
			OR = {
				OR = {
					has_country_modifier = racial_pop_kobold_expulsion
					has_country_modifier = racial_pop_kobold_purge
				}
				dip_power = 150
			}
		}
		effect = {
			add_country_modifier = {
				name = nimscodd_kobold_cores
				duration = 3650
			}
			if = {
				limit = {
					NOT = {
						has_country_modifier = racial_pop_kobold_expulsion
						has_country_modifier = racial_pop_kobold_purge
					}
				}
				add_dip_power = -150
			}
			custom_tooltip = nimscodd_kobold_choice_tt
		}
	}
	
	nimscodd_resettle_dragondowns = {
		icon = mission_settlers_north_america
		required_missions = {
			nimscodd_deal_with_kobolds
			nimscodd_begin_reconquest
		}
		position = 3
		provinces_to_highlight = {
			OR = {
				province_id = 170
				area = dragondowns_area
			}
		}
		trigger = {
			if = {
				limit = {
					OR = {
						has_country_modifier = racial_pop_kobold_expulsion
						has_country_modifier = racial_pop_kobold_purge
					}
				}
				170 = {
					culture_group = gnomish
					owned_by = ROOT
				}
				dragondowns_area = {
					type = all
					culture_group = gnomish
					owned_by = ROOT
				}
			}
			else = {
				dip_power = 100
			}
		}
		effect = {
			170 = {
				add_base_production = 1
				add_base_tax = 1
				add_base_manpower = 1
			}
			dragondowns_area = {
				add_base_production = 1
				add_base_tax = 1
				add_base_manpower = 1
			}
			172 = {
				add_base_production = 3
				add_base_tax = 3
				add_base_manpower = 3
			}
			169 = {
				add_base_production = -3
				add_base_tax = -3
				add_base_manpower = -3
			}
			if = {
				limit = {
					NOT = {
						has_country_modifier = racial_pop_kobold_expulsion
						has_country_modifier = racial_pop_kobold_purge
					}
				}
				170 = {
					change_culture = ROOT
					change_religion = ROOT
				}
				dragondowns_area = {
					change_culture = ROOT
					change_religion = ROOT
				}
				add_dip_power = -100
			}
		}
	}
	nimscodd_resettle_capital = {
		icon = mission_settlers_north_america
		required_missions = {
			nimscodd_resettle_dragondowns
			nimscodd_reclaim_capital
		}
		position = 4
		provinces_to_highlight = {
			OR = {
				area = dragonpoint_area
			}
		}
		trigger = {
			if = {
				limit = {
					OR = {
						has_country_modifier = racial_pop_kobold_expulsion
						has_country_modifier = racial_pop_kobold_purge
					}
				}
				dragonpoint_area = {
					type = all
					culture_group = gnomish
					owned_by = root
				}
			}
			else = {
				dip_power = 100
			}
		}
		effect = {
			dragonpoint_area = {
				add_base_production = 1
				add_base_tax = 1
				add_base_manpower = 1
			}
			177 = {
				add_base_production = 4
				add_base_manpower = 4
				add_base_tax = 4
			}
			169 = {
				add_base_production = -4
				add_base_manpower = -4
				add_base_tax = -4
			}
			if = {
				limit = {
					NOT = {
						has_country_modifier = racial_pop_kobold_expulsion
						has_country_modifier = racial_pop_kobold_purge
					}
				}
				dragonpoint_area = {
					change_culture = ROOT
					change_religion = ROOT
				}
				add_dip_power = -100
			}
		}
	}
}

hierarchy_2 = {
	slot = 2
	generic = no
	ai = yes
	has_country_shield = yes
	potential = {
		tag = A79
	}
	
	hierarchy_rebuild_oddansbay = {
		icon = mission_hanseatic_city
		required_missions = {
			nimscodd_resettle_capital
		}
		position = 6
		provinces_to_highlight = {
			OR = {
				province_id = 177
			}
		}
		trigger = {
			177 = {
				owned_by = ROOT
				development = 25
			}
		}
		effect = {
			add_country_modifier = {
				name = hierarchy_rebuild_oddansbay_modifier
				duration = -1
			}
			177 = {
				change_trade_goods = gems
			}
			custom_tooltip = nimscodd_reconstruction_tt
		}
	}
	
	hierarchy_sildnamm_foundries = {
		icon = mission_have_manufactories
		required_missions = {
			hierarchy_rebuild_oddansbay
		}
		position = 7
		provinces_to_highlight = {
			OR = {
				province_id = 173
			}
		}
		trigger = {
			173 = {
				owned_by = ROOT
				development = 12
			}
		}
		effect = {
			173 = {
				add_base_production = 2
				change_trade_goods = iron
			}	
		}
	}
	
	hierarchy_rebuild_widdechand = {
		icon = mission_early_game_buildings
		required_missions = {
			hierarchy_sildnamm_foundries
		}
		position = 8
		provinces_to_highlight = {
			OR = {
				province_id = 172
			}
		}
		trigger = {
			172 = {
				owned_by = ROOT
				development = 20
			}
		}
		effect = {
			172 = {
				add_base_production = 2
				add_base_tax = 2
				change_trade_goods = cloth
			}
		}
	}
	
	hierarchy_restore_breadbasket = {
		icon = mission_rb_import_potatoes
		required_missions = {
			hierarchy_rebuild_widdechand
		}
		position = 9
		provinces_to_highlight = {
			OR = {
				province_id = 176
				province_id = 175
				province_id = 171
				province_id = 181
			}
		}
		trigger = {
			176 = {
				owned_by = ROOT
				development = 12
			}
			175 = {
				owned_by = ROOT
				development = 12
			}
			181 = {
				owned_by = ROOT
				development = 12
			}
			171 = {
				owned_by = ROOT
				development = 12
			}
		}
		effect = {
			176 = {
				add_base_production = 1
				add_base_tax = 1
				add_base_manpower = 1
				change_trade_goods = grain
			}
			175 = {
				add_base_production = 1
				add_base_tax = 1
				add_base_manpower = 1
				change_trade_goods = grain
			}
			181 = {
				add_base_production = 1
				add_base_tax = 1
				add_base_manpower = 1
				change_trade_goods = livestock
			}
			171 = {
				add_base_production = 1
				add_base_tax = 1
				add_base_manpower = 1
				change_trade_goods = grain
			}
		}
	}
	
	hierarchy_finish_reconstruction = {
		icon = mission_rice_field
		required_missions = {
			hierarchy_restore_breadbasket
			hierarchy_norbit_gold
		}
		position = 10
		trigger = {
			adm_power = 150
		}
		effect = {
			add_adm_power = -150
			remove_country_modifier = hierarchy_rebuild_oddansbay_modifier
		}
	}
	
	hierarchy_establish_gommo = {
		icon = mission_early_modern_university
		required_missions = {
			hierarchy_finish_reconstruction
		}
		position = 12
		provinces_to_highlight = {
			OR = {
				province_id = 126
			}
		}
		trigger = {
			126 = {
				base_production = 15
			}
			estate_influence = {
				estate = estate_artificers
				influence = 40
			}
		}
		effect = {
			126 = {
				add_building = university
			}
		}
	}
	
	hierarchy_design_hierarch = {
		icon = mission_artificier_experience
		required_missions = {
			hierarchy_establish_gommo
			hierarchy_protect_rubyhold
		}
		position = 14
		trigger = {
			treasury = 500
		}
		effect = {
			add_treasury = -500
			add_country_modifier = {
				name = "nimscodd_the_hierarch_designed"
				duration = -1
			}
			custom_tooltip = nimscodd_design_the_heirarch_tt
		}
	}
	
	hierarchy_found_noo_nimscodd = {
		icon = mission_claim_the_canaries
		required_missions = {
			hierarchy_establish_noo_widdechand
		}
		position = 16
		provinces_to_highlight = {
			OR = {
				colonial_region = colonial_isles
			}
			NOT = {
				country_or_non_sovereign_subject_holds = ROOT
			}
		}
		trigger = {
			any_subject_country = {
				is_colonial_nation_of = ROOT
				capital_scope = { colonial_region = colonial_isles }
				num_of_cities = 10
			}
		}
		effect = {
			add_country_modifier = {
				name = hierarchy_noo_nimscodd_modifier
				duration = 7300
			}
		}
	}
	
	hierarchy_colonise_noo_portnamm = {
		icon = mission_colonize_the_west
		required_missions = {
			hierarchy_found_noo_nimscodd
		}
		position = 18
		provinces_to_highlight = {
			OR = {
				colonial_region = colonial_soruin
			}
			NOT = {
				country_or_non_sovereign_subject_holds = ROOT
			}
		}
		trigger = {
			any_subject_country = {
				is_colonial_nation_of = ROOT
				capital_scope = { colonial_region = colonial_soruin }
				num_of_cities = 10
			}
		}
		effect = {
			add_country_modifier = {
				name = hierarchy_colonise_portnamm_modifier
				duration = 7300
			}
		}
	}
	
	hierarchy_new_home = {
		icon = mission_rb_hanseatic_east
		required_missions = {
			hierarchy_secure_noo_widdechand
			hierarchy_colonise_noo_portnamm
			hierarchy_viceroyalty_middanbit
		}
		position = 20
		trigger = {
			colony = 8
		}
		effect = {
			add_country_modifier = {
				name = hierarchy_new_home_modifier
				duration = -1
			}
		}
	}
}

nimscodd_3 = {
	slot = 3
	generic = no
	ai = yes
	has_country_shield = yes
	potential = {
		OR = {
			tag = A06
			tag = A79
		}
	}
	
	nimscodd_prepare_reclamation_army = {
		icon = mission_build_up_to_force_limit
		required_missions = { }
		position = 1
		trigger = {
			army_size_percentage = 1
		}
		effect = {
			add_country_modifier = {
				name = thriving_arms_industry
				duration = 3650
			}
			if = {
				limit = { 
					170 = {
						NOT = { is_core = ROOT }
						NOT = { owned_by = ROOT }
					}
				}
				170 = {
					add_permanent_claim = ROOT
				}
			}
			dragondowns_area = {
				limit = {
					NOT = { is_core = ROOT }
					NOT = { is_permanent_claim = ROOT }
				}
				add_permanent_claim = ROOT
			}
		}
	}
	
	nimscodd_begin_reconquest = {
		icon = mission_build_up_to_force_limit
		required_missions = {nimscodd_prepare_reclamation_army}
		position = 2
		provinces_to_highlight = {
			OR = {
				province_id = 170
				area = dragondowns_area
			}
			NOT = {
				country_or_non_sovereign_subject_holds = ROOT
			}
		}
		trigger = {
			170 = {
				owned_by = ROOT
			}
			dragondowns_area = {
				type = all
				owned_by = ROOT
			}
		}
		effect = {
			dragonpoint_area = {
				limit = {
					NOT = { is_core = ROOT }
					NOT = { is_permanent_claim = ROOT }
				}
				add_permanent_claim = ROOT
			}
		}
	}
	
	nimscodd_reclaim_capital = {
		icon = mission_unite_home_region
		required_missions = {nimscodd_begin_reconquest}
		position = 3
		provinces_to_highlight = {
			OR = {
				area = dragonpoint_area
			}
			NOT = {
				country_or_non_sovereign_subject_holds = ROOT
			}
		}
		trigger = {
			dragonpoint_area = {
				type = all
				owned_by = ROOT
			}
		}
		effect = {
			dragonspine_area = {
				limit = {
					NOT = { is_core = ROOT }
					NOT = { is_permanent_claim = ROOT }
				}
				add_permanent_claim = ROOT
			}
		}
	}
	nimscodd_conquer_dragonspine = {
		icon = mission_unite_home_region
		required_missions = {nimscodd_reclaim_capital}
		position = 4
		provinces_to_highlight = {
			OR = {
				area = dragonspine_area
			}
		}
		trigger = {
			dragonspine_area = {
				type = all
				owned_by = root
			}
		}
		effect = {
			dragonheights_area = {
				limit = {
					NOT = { is_core = ROOT }
					NOT = { is_permanent_claim = ROOT }
				}
				add_permanent_claim = ROOT
			}
			dragondepth_area = {
				limit = {
					NOT = { is_core = ROOT }
					NOT = { is_permanent_claim = ROOT }
				}
				add_permanent_claim = ROOT
			}
		}
	}
	nimscodd_resettle_dragonspine = {
		icon = mission_settlers_north_america
		required_missions = {
			nimscodd_conquer_dragonspine
			nimscodd_resettle_capital
		}
		position = 5
		provinces_to_highlight = {
			OR = {
				area = dragonspine_area
			}
		}
		trigger = {
			if = {
				limit = {
					OR = {
						has_country_modifier = racial_pop_kobold_expulsion
						has_country_modifier =racial_pop_kobold_purge
					}
				}
				dragonspine_area = {
					type = all
					culture_group = gnomish
					owned_by = ROOT
				}
			}
			else = {
				dip_power = 100
			}
		}
		effect = {
			dragonspine_area = {
				add_base_production = 1
				add_base_tax = 1
				add_base_manpower = 1
			}
			if = {
				limit = {
					NOT = {
						has_country_modifier = racial_pop_kobold_expulsion
						has_country_modifier = racial_pop_kobold_purge
					}
				}
				dragonspine_area = {
					add_gnomish_minority_size_effect = yes
					add_gnomish_minority_size_effect = yes
				}
				add_dip_power = -100
			}
		}
	}
}

hierarchy_3 = {
	slot = 3
	generic = no
	ai = yes
	has_country_shield = yes
	potential = {
		tag = A79
	}
	
	hierarchy_restore_government = {
		icon = mission_scholar_officials
		required_missions = {
			nimscodd_resettle_dragonspine
		}
		position = 6
		trigger = {
			adm_power = 100
			government = republic
		}
		effect = {
			add_adm_power = -100
			# Get reform progress if already technocracy
			if = {
				limit = { NOT = { has_reform = technocracy_republic_reform } }
				hidden_effect = { change_government = republic }
				add_government_reform = technocracy_republic_reform
			}
			else = {
				change_government_reform_progress = 50
			}
		}
	}
	
	hierarchy_reopen_foddimadd = {
		icon = mission_have_manufactories
		required_missions = {
			hierarchy_rebuild_oddansbay
		}
		position = 7
		provinces_to_highlight = {
			OR = {
				province_id = 183
			}
		}
		trigger = {
			183 = {
				owned_by = ROOT
				development = 12
			}
		}
		effect = {
			183 = {
				add_base_production = 2
				change_trade_goods = glass
			}
		}
	}
	
	hierarchy_build_baycodds = {
		icon = mission_have_manufactories
		required_missions = {
			hierarchy_reopen_foddimadd
		}
		position = 8
		provinces_to_highlight = {
			OR = {
				province_id = 146
			}
		}
		trigger = {
			146 = {
				owned_by = ROOT
				development = 15
			}
		}
		effect = {
			146 = {
				add_base_production = 1
				add_base_manpower = 1
				add_base_tax = 1
			}
		}
	}
	
	hierarchy_norbit_gold = {
		icon = mission_have_manufactories
		required_missions = {
			hierarchy_build_baycodds
			hierarchy_mine_dragonspine
		}
		position = 9
		provinces_to_highlight = {
			OR = {
				province_id = 179
			}
		}
		trigger = {
			179 = {
				owned_by = ROOT
				development = 15
			}
		}
		effect = {
			179 = {
				change_trade_goods = gold
			}
		}
	}
	
	hierarchy_conquer_lorenans_reach = {
		icon = mission_cannons_firing
		required_missions = {
			hierarchy_liberate_redfoots
		}
		position = 12
		provinces_to_highlight = {
			OR = {
				area = lorenans_reach_area
			}
			NOT = {
				country_or_non_sovereign_subject_holds = ROOT
			}
		}
		trigger = {
			lorenans_reach_area = {
				type = all
				country_or_non_sovereign_subject_holds = ROOT
			}
		}
		effect = {
			ruby_mountains_area = {
				limit = {
					NOT = { is_core = ROOT }
					NOT = { is_permanent_claim = ROOT }
				}
				add_permanent_claim = ROOT
			}
			add_casus_belli = {
				target = A20
				type = cb_vassalize_mission
			}
		}
	}
	
	hierarchy_protect_rubyhold = {
		icon = mission_have_two_subjects
		required_missions = {
			hierarchy_conquer_lorenans_reach
		}
		position = 13
		provinces_to_highlight = {
			OR = {
				area = ruby_mountains_area
			}
			NOT = {
				country_or_non_sovereign_subject_holds = ROOT
			}
		}
		trigger = {
			ruby_mountains_area = {
				type = all
				country_or_non_sovereign_subject_holds =ROOT
			}
		}
		effect = {
			add_country_modifier = {
				name = hierarchy_dwarven_cannons
				duration = -1
			}
		}
	}
	
	hierarchy_establish_noo_coddorran = {
		icon = mission_rb_settle_the_north
		required_missions = {
			hierarchy_found_noo_oddansbay
		}
		position = 15
		provinces_to_highlight = {
			OR = {
				colonial_region = colonial_broken_sea
			}
			NOT = {
				country_or_non_sovereign_subject_holds = ROOT
			}
		}
		trigger = {
			any_subject_country = {
				is_colonial_nation_of = ROOT
				capital_scope = { colonial_region = colonial_broken_sea }
				num_of_cities = 10
			}
		}
		effect = {
			rzenta_region = {
				limit = {
					NOT = { is_core = ROOT }
					NOT = { is_permanent_claim = ROOT }
				}
				add_permanent_claim = ROOT
			}
			forest_of_the_cursed_ones_region = {
				limit = {
					NOT = { is_core = ROOT }
					NOT = { is_permanent_claim = ROOT }
				}
				add_permanent_claim = ROOT
			}
		}
	}
	
	hierarchy_ynnic_expedition = {
		icon = mission_iberian_conquistador
		required_missions = {
			hierarchy_establish_noo_coddorran
		}
		position = 16
		provinces_to_highlight = {
			OR = {
				region = rzenta_region
				region = forest_of_the_cursed_ones_region
			}
			NOT = {
				country_or_non_sovereign_subject_holds = ROOT
			}
		}
		trigger = {
			rzenta_region = {
				type = all
				country_or_non_sovereign_subject_holds = ROOT
			}
			forest_of_the_cursed_ones_region = {
				type = all
				country_or_non_sovereign_subject_holds = ROOT
			}
		}
		effect = {
			dolindha_region = {
				limit = {
					NOT = { is_core = ROOT }
					NOT = { is_permanent_claim = ROOT }
				}
				add_permanent_claim = ROOT
			}
			epednan_expanse_region = {
				limit = {
					NOT = { is_core = ROOT }
					NOT = { is_permanent_claim = ROOT }
				}
				add_permanent_claim = ROOT
			}
			veykoda_region = {
				limit = {
					NOT = { is_core = ROOT }
					NOT = { is_permanent_claim = ROOT }
				}
				add_permanent_claim = ROOT
			}
		}
	}
	
	hierarchy_secure_the_tributaries = {
		icon = mission_novgorod_the_great
		required_missions = {
			hierarchy_ynnic_expedition
		}
		position = 17
		provinces_to_highlight = {
			OR = {
				region = epednan_expanse_region
				region = veykoda_region
			}
			NOT = {
				country_or_non_sovereign_subject_holds = ROOT
			}
		}
		trigger = {
			epednan_expanse_region = {
				type = all
				country_or_non_sovereign_subject_holds = ROOT
			}
			veykoda_region = {
				type = all
				country_or_non_sovereign_subject_holds = ROOT
			}
		}
		effect = {
			add_dip_power = 100
		}
	}
	
	hierarchy_viceroyalty_middanbit = {
		icon = mission_reconquer_vologda
		required_missions = {
			hierarchy_secure_the_tributaries
			hierarchy_sarda_conquests
		}
		provinces_to_highlight = {
			OR = {
				superregion = ynn_superregion
			}
			NOT = {
				country_or_non_sovereign_subject_holds = ROOT
			}
		}
		position = 19
		trigger = {
			ynn_superregion  = {
				type = all
				country_or_non_sovereign_subject_holds = ROOT
			}
		}
		effect = {
			add_country_modifier = {
				name = hierarchy_viceroyalty_modifier
				duration = 36500
			}
		}
	}
}

nimscodd_4a = {
	slot = 4
	generic = no
	ai = yes
	has_country_shield = yes
	potential = {
		OR = {
			tag = A06
			tag = A79
		}
	}
	nimscodd_reach_out = {
		icon = mission_kowtow
		required_missions = { }
		position = 1
		trigger = {
			OR = {
				A01 = {
					has_opinion = {
						who = ROOT
						value = 100
					}
				}
				A13 = {
					has_opinion = {
						who = ROOT
						value = 100
					}
				}
				emperor = {
					has_opinion = {
						who = ROOT
						value = 100
					}
				}
			}
		}
		effect = {
			add_country_modifier = {
				name = nimscodd_gnomish_diplomacy
				duration = 3650
			}
		}
	}
}
	
hierarchy_4a = {
	slot = 4
	generic = no
	ai = yes
	has_country_shield = yes
	potential = {
		tag = A79
	}
	
	hierarchy_conquer_dragonhills = {
		icon = mission_unite_home_region
		required_missions = {
			hierarchy_unite_portnamm
		}
		position = 3
		provinces_to_highlight = {
			OR = {
				area = dragonhills_area
			}
			NOT = {
				country_or_non_sovereign_subject_holds = ROOT
			}
		}
		trigger = {
			dragonhills_area = {
				type = all
				owned_by = ROOT
			}
		}
		effect = {
			add_country_modifier = {
				name = hierarchy_manpower_modfier
				duration = 3650
			}
		}
	}
}
	
nimscodd_4b = {
	slot = 4
	generic = no
	ai = yes
	has_country_shield = yes
	potential = {
		OR = {
			tag = A06
			tag = A79
		}
	}
	
	nimscodd_conquer_caves = {
		icon = mission_unite_home_region
		required_missions = {
			nimscodd_conquer_dragonspine
		}
		position = 5
		provinces_to_highlight = {
			OR = {
				area = dragonheights_area
				area = dragondepth_area
			}
			NOT = {
				country_or_non_sovereign_subject_holds = ROOT
			}
		}
		trigger = {
			dragonheights_area = {
				type = all
				owned_by = ROOT
			}
			dragondepth_area = {
				type = all
				owned_by = ROOT
			}
		}
		effect = {
			add_mil_power = 100
		}
	}
	
	nimscodd_finish_kobolds = {
		icon = mission_settlers_north_america
		required_missions = {
			nimscodd_conquer_caves
			nimscodd_resettle_dragonspine
		}
		position = 6
		provinces_to_highlight = {
			OR = {
				area = dragonheights_area
				area = dragondepth_area
			}
		}
		trigger = {
			if = {
				limit = {
					OR = {
						has_country_modifier = racial_pop_kobold_expulsion
						has_country_modifier = racial_pop_kobold_purge
					}
				}
				dragonheights_area = {
					type = all
					culture_group = gnomish
					owned_by = ROOT
				}
				dragondepth_area = {
					type = all
					culture_group = gnomish
					owned_by = ROOT
				}
			}
			else = {
				dip_power = 100
			}
		}
		effect = {
			dragonheights_area = {
				add_base_production = 1
				add_base_tax = 1
				add_base_manpower = 1
			}
			dragondepth_area = {
				add_base_production = 1
				add_base_tax = 1
				add_base_manpower = 1
			}
			if = {
				limit = {
					NOT = {
						has_country_modifier = racial_pop_kobold_expulsion
						has_country_modifier = racial_pop_kobold_purge
					}
				}
				dragonheights_area = {
					add_gnomish_minority_size_effect = yes
				}
				dragondepth_area = {
					add_gnomish_minority_size_effect = yes
				}
				add_dip_power = -100
			}
		}
	}
}

hierarchy_4b = {
	slot = 4
	generic = no
	ai = yes
	has_country_shield = yes
	potential = {
		tag = A79
	}
	
	hierarchy_fortify_peninsula = {
		icon = mission_eastern_european_city
		required_missions = {
			nimscodd_finish_kobolds
		}
		position = 7
		provinces_to_highlight = {
			OR = {
				province_id = 184
				province_id = 167
			}
		}
		trigger = {
			184 = {
				fort_level = 2
			}
			167 = {
				fort_level = 2
			}
		}
		effect = {
			184 = {
				add_permanent_province_modifier = {
					name = hierarchy_citadel
					duration = 18250
				}
			}
			167 = {
				add_permanent_province_modifier = {
					name = hierarchy_citadel
					duration = 18250
				}
			}
		}
	}
	
	hierarchy_mine_dragonspine = {
		icon = mission_asian_trader
		required_missions = {
			hierarchy_reopen_foddimadd
		}
		position = 8
		provinces_to_highlight = {
			area = dragonspine_area
			OR = {
				NOT = { base_production = 5 }
				NOT = { owned_by = ROOT }
			}
		}
		trigger = {
			dragonspine_area = {
				type = all
				owned_by = ROOT
				base_production = 5
			}
		}
		effect = {
			180 = {
				add_base_tax = 1
				add_base_manpower = 1
				add_base_production = 1
			}
			182 = {
				change_trade_goods = copper
			}
			184 = {
				change_trade_goods = iron
			}
		}
	}
	
	hierarchy_industrialize = {
		icon = mission_rb_build_furnaces
		required_missions = {
			hierarchy_mine_dragonspine
		}
		position = 9
		trigger = {
			furnace = 2
		}
		effect = {
			add_country_modifier = {
				name = hierarchy_industrial_revolution
				duration = -1
			}
		}
	}
	
	hierarchy_push_south = {
		icon = mission_cannons_firing
		required_missions = {
			hierarchy_prepare_small_expedition
		}
		position = 10
		provinces_to_highlight = {
			OR = {
				area = applefields_area
				area = roysfort_area
			}
			NOT = {
				country_or_non_sovereign_subject_holds = ROOT
			}
		}
		trigger = {
			applefields_area = {
				type = all
				country_or_non_sovereign_subject_holds = ROOT
			}
			roysfort_area = {
				type = all
				country_or_non_sovereign_subject_holds = ROOT
			}
			NOT = {
				country_or_non_sovereign_subject_holds = ROOT
			}
		}
		effect = {
			the_borders_area = {
				limit = {
					NOT = { is_core = ROOT }
					NOT = { is_permanent_claim = ROOT }
				}
				add_permanent_claim = ROOT
			}
			thomsbridge_area = {
				limit = {
					NOT = { is_core = ROOT }
					NOT = { is_permanent_claim = ROOT }
				}
				add_permanent_claim = ROOT
			}
		}
	}
	
	hierarchy_liberate_redfoots = {
		icon = mission_rb_unite_the_clans
		required_missions = {
			hierarchy_push_south
		}
		position = 11
		provinces_to_highlight = {
			OR = {
				area = the_borders_area
				area = thomsbridge_area
			}
		}
		trigger = {
			the_borders_area = {
				type = all
				country_or_non_sovereign_subject_holds = ROOT
			}
			thomsbridge_area = {
				type = all
				country_or_non_sovereign_subject_holds = ROOT
			}
			NOT = {
				country_or_non_sovereign_subject_holds = ROOT
			}
		}
		effect = {
			viswall_area = {
				limit = {
					NOT = { is_core = ROOT }
					NOT = { is_permanent_claim = ROOT }
				}
				add_permanent_claim = ROOT
			}
			lorenans_reach_area = {
				limit = {
					NOT = { is_core = ROOT }
					NOT = { is_permanent_claim = ROOT }
				}
				add_permanent_claim = ROOT
			}
		}
	}
	
	hierarchy_unite_viswall = {
		icon = mission_hanseatic_city
		required_missions = {
			hierarchy_liberate_bluefoots
			hierarchy_liberate_redfoots
		}
		position = 12
		provinces_to_highlight = {
			OR = {
				area = viswall_area
			}
			NOT = {
				country_or_non_sovereign_subject_holds = ROOT
			}
		}
		trigger = {
			viswall_area = {
				type = all
				country_or_non_sovereign_subject_holds = ROOT
			}
		}
		effect = {
			63 = {
				add_center_of_trade_level = 1
			}
			66 = {
				add_center_of_trade_level = 1
			}
		}
	}
	
	hierarchy_integrate_halflings = {
		icon = mission_rb_rein_in_the_highland_clans
		required_missions = {
			hierarchy_unite_viswall
		}
		position = 13
		trigger = {
			dip_power = 300
		}
		effect = {
			add_dip_power = -300
			add_country_modifier = {
				name = hierarchy_halfling_integration_modifier
				duration = -1
			}
		}
	}
	
	hierarchy_contact_nortiochand = {
		icon = mission_alliances
		required_missions = {
			hierarchy_establish_noo_coddorran
		}
		position = 16
	}
	
	hierarchy_dolindha_conquests = {
		icon = mission_iroquois_warriors
		required_missions = {
			hierarchy_ynnic_expedition
		}
		position = 17
		provinces_to_highlight = {
			OR = {
				region = dolindha_region
			}
			NOT = {
				country_or_non_sovereign_subject_holds = ROOT
			}
		}
		trigger = {
			dolindha_region = {
				type = all
				country_or_non_sovereign_subject_holds = ROOT
			}
		}
		effect = {
			sarda_region = {
				limit = {
					NOT = { is_core = ROOT }
					NOT = { is_permanent_claim = ROOT }
				}
				add_permanent_claim = ROOT
			}
		}
	}
	
	hierarchy_sarda_conquests = {
		icon = mission_mayan_conquest
		required_missions = {
			hierarchy_dolindha_conquests
		}
		position = 18
		provinces_to_highlight = {
			OR = {
				region = sarda_region
			}
			NOT = {
				country_or_non_sovereign_subject_holds = ROOT
			}
		}
		trigger = {
			sarda_region = {
				type = all
				country_or_non_sovereign_subject_holds = ROOT
			}
		}
		effect = {
			add_mil_power = 100
		}
	}
}

nimscodd_5 = {
	slot = 5
	generic = no
	ai = yes
	has_country_shield = yes
	potential = {
		OR = {
			tag = A06
			tag = A79
		}
	}
	
	nimscodd_allies_south = {
		icon = mission_hanseatic_city
		required_missions = { }
		position = 1
		trigger = {
			OR = {
				A19 = {
					has_opinion = {
						who = ROOT
						value = 100
					}
				}
				126 = {
					country_or_non_sovereign_subject_holds = ROOT
				}
			}
		}
		effect = {
			add_dip_power = 50
		}
	}
}

hierarchy_5 = {
	slot = 5
	generic = no
	ai = yes
	has_country_shield = yes
	potential = {
		tag = A79
	}
	
	hierarchy_unite_portnamm = {
		icon = mission_establish_jesuit_missions
		required_missions = {
			nimscodd_allies_south
		}
		position = 2
		trigger = {
			dip_power = 150
			OR = {
				A19 = {
					has_opinion = {
							who = ROOT
							value = 150
					}
				}
				126 = {
					country_or_non_sovereign_subject_holds = ROOT
				}
			}
		}
		effect = {
			if = {
				limit = {
					A19 = {
						exists = yes
						NOT = { is_subject_of = ROOT }
					}
				}
				add_dip_power = -150
				A19 = {
					country_event = { id = gnomish.1 days = 60 random = 30 }
				}
			}
		}
	}
	
	hierarchy_route_south = {
		icon = mission_unite_home_region
		position = 4
		required_missions = {
			hierarchy_unite_portnamm
		}
		provinces_to_highlight = {
			OR = {
				area = reaver_coast_area
				area = iochand_area
			}
			NOT = {
				country_or_non_sovereign_subject_holds = ROOT
			}
		}
		trigger = {
			reaver_coast_area = {
				type = all
				country_or_non_sovereign_subject_holds = ROOT
			}
			iochand_area = {
				type = all
				country_or_non_sovereign_subject_holds = ROOT
			}
		}
		effect = {
			add_dip_power = 100
		}
	}
	
	hierarchy_secure_south = {
		icon = mission_eastern_european_city
		required_missions = {
			hierarchy_fortify_peninsula
			hierarchy_route_south
		}
		position = 8
		provinces_to_highlight = {
			OR = {
				province_id = 142
				province_id = 144
			}
		}
		trigger = {
			142 = {
				fort_level = 2
			}
			144 = {
				fort_level = 2
			}
		}
		effect = {
			142 = {
				add_permanent_province_modifier = {
					name = hierarchy_citadel
					duration = 18250
				}
			}
			144 = {
				add_permanent_province_modifier = {
					name = hierarchy_citadel
					duration = 18250
				}
			}
		}
	}
	
	hierarchy_prepare_small_expedition = {
		icon = mission_assemble_an_army
		required_missions = {
			hierarchy_secure_south
		}
		position = 9
		trigger = {
			army_size = 50
		}
		effect = {
			roysfort_area = {
				limit = {
					NOT = { is_core = ROOT }
					NOT = { is_permanent_claim = ROOT }
				}
				add_permanent_claim = ROOT
			}
			applefields_area = {
				limit = {
					NOT = { is_core = ROOT }
					NOT = { is_permanent_claim = ROOT }
				}
				add_permanent_claim = ROOT
			}
			pearpoint_area = {
				limit = {
					NOT = { is_core = ROOT }
					NOT = { is_permanent_claim = ROOT }
				}
				add_permanent_claim = ROOT
			}
			norley_area = {
				limit = {
					NOT = { is_core = ROOT }
					NOT = { is_permanent_claim = ROOT }
				}
				add_permanent_claim = ROOT
			}
		}
	}
	
	hierarchy_push_east = {
		icon = mission_cannons_firing
		required_missions = {
			hierarchy_prepare_small_expedition
		}
		position = 10
		provinces_to_highlight = {
			OR = {
				area = pearpoint_area
				area = norley_area
			}
			NOT = {
				country_or_non_sovereign_subject_holds = ROOT
			}
		}
		trigger = {
			pearpoint_area = {
				type = all
				country_or_non_sovereign_subject_holds = ROOT
			}
			norley_area = {
				type = all
				country_or_non_sovereign_subject_holds = ROOT
			}
		}
		effect = {
			lorentish_approach_area = {
				limit = {
					NOT = { is_core = ROOT }
					NOT = { is_permanent_claim = ROOT }
				}
				add_permanent_claim = ROOT
			}
		}
	}
	
	hierarchy_liberate_bluefoots = {
		icon = mission_rb_unite_the_clans
		required_missions = {
			hierarchy_push_east
		}
		position = 11
		provinces_to_highlight = {
			OR = {
				area = lorentish_approach_area
			}
			NOT = {
				country_or_non_sovereign_subject_holds = ROOT
			}
		}
		trigger = {
			lorentish_approach_area = {
				type = all
				country_or_non_sovereign_subject_holds = ROOT
			}
		}
		effect = {
			viswall_area = {
				limit = {
					NOT = { is_core = ROOT }
					NOT = { is_permanent_claim = ROOT }
				}
				add_permanent_claim = ROOT
			}
		}
	}
	
	hierarchy_prepare_imperial_incursion = {
		icon = mission_cannons_firing
		required_missions = {
			hierarchy_liberate_bluefoots
		}
		position = 12
		trigger = {
			army_size = 70
		}
		effect = {
			beepeck_area = {
				limit = {
					NOT = { is_core = ROOT }
					NOT = { is_permanent_claim = ROOT }
				}
				add_permanent_claim = ROOT
			}
			if = {
				limit = { 
					157 = {
						NOT = { is_core = ROOT }
						NOT = { owned_by = ROOT }
					}
				}
				157 = {
					add_permanent_claim = ROOT
				}
			}
			if = {
				limit = { 
					208 = {
						NOT = { is_core = ROOT }
						NOT = { owned_by = ROOT }
					}
				}
				208 = {
					add_permanent_claim = ROOT
				}
			}
		}
	}
	
	hierarchy_liberate_imperials = {
		icon = mission_rb_unite_the_clans
		required_missions = {
			hierarchy_prepare_imperial_incursion
		}
		position = 13
		provinces_to_highlight = {
			OR = {
				area = beepeck_area
				province_id = 157
				province_id = 208
			}
			NOT = {
				country_or_non_sovereign_subject_holds = ROOT
			}
		}
		trigger = {
			beepeck_area = {
				type = all
				country_or_non_sovereign_subject_holds = ROOT
			}
			157 = {
				country_or_non_sovereign_subject_holds = ROOT
			}
			208 = {
				country_or_non_sovereign_subject_holds = ROOT
			}
		}
		effect = {
			151 = {
				add_center_of_trade_level = 1
			}
		}
	}
	
	hierarchy_halflings_liberated = {
		icon = mission_dominate_home_trade_node
		required_missions = {
			hierarchy_liberate_imperials
			hierarchy_integrate_halflings
		}
		position = 14
		provinces_to_highlight = {
			OR = {
				region = small_country_region
			}
			NOT = {
				country_or_non_sovereign_subject_holds = ROOT
			}
		}
		trigger = {
			small_country_region = {
				type = all
				country_or_non_sovereign_subject_holds = ROOT
			}
		}
		effect = {
			add_country_modifier = {
				name = hierarchy_small_country_modifier
				duration = 7300
			}
		}
	}
}


