namespace = colonial_nation

# Tariffs Too High
country_event = {
	id = colonial_nation.1
	title = "colonial_nation.EVTNAME1"
	desc = "colonial_nation.EVTDESC1"
	picture = HARBOUR_eventPicture
	
	is_triggered_only = yes
	
	trigger = {
		any_subject_country = {
			is_colonial_nation_of = ROOT
			tariff_value = 0.25
			OR = {
				NOT = { has_country_flag = increased_tariffs }
				had_country_flag = { flag = increased_tariffs days = 3650 }
			}
			OR = {
				NOT = { has_country_flag = reduced_tariffs }
				had_country_flag = { flag = reduced_tariffs days = 3650 }
			}
		}
	}

	mean_time_to_happen = {
		days = 1
		modifier = {
			factor = 1.25
			any_subject_country = {
				is_colonial_nation_of = ROOT
				tariff_value = 0.5
			}
			OR = {
				NOT = { has_country_flag = increased_tariffs }
				had_country_flag = { flag = increased_tariffs days = 3650 }
			}
			OR = {
				NOT = { has_country_flag = reduced_tariffs }
				had_country_flag = { flag = reduced_tariffs days = 3650 }
			}
		}
		modifier = {
			factor = 1.25
			any_subject_country = {
				is_colonial_nation_of = ROOT
				tariff_value = 0.75
			}
			OR = {
				NOT = { has_country_flag = increased_tariffs }
				had_country_flag = { flag = increased_tariffs days = 3650 }
			}
			OR = {
				NOT = { has_country_flag = reduced_tariffs }
				had_country_flag = { flag = reduced_tariffs days = 3650 }
			}
		}
		modifier = {
			factor = 1.1
			is_year = 1650
		}
		modifier = {
			factor = 1.1
			is_year = 1700
		}
		modifier = {
			factor = 1.1
			is_year = 1750
		}
		modifier = {
			factor = 1.1
			is_year = 1800
		}
	}
	
	option = {
		name = "colonial_nation.EVTOPTA1"	# Better show them who rule the colonies
		ai_chance = { factor = 50 }
		random_country = {
			limit = {
				is_colonial_nation_of = ROOT
			}
			tooltip = {
				add_liberty_desire = 10
				add_tariff_value = 0.10
			}
			hidden_effect = {
				set_country_flag = increased_tariffs
				country_event = { id = colonial_nation.2 days = 1 }
			}
		}
	}
	option = {
		name = "colonial_nation.EVTOPTB1"	# Accept to lower the tariffs
		ai_chance = { factor = 50 }
		random_country = {
			limit = {
				is_colonial_nation_of = ROOT
			}
			tooltip = {
				add_liberty_desire = -10
				add_tariff_value = -0.10
			}
			hidden_effect = {
				set_country_flag = reduced_tariffs
				country_event = { id = colonial_nation.3 days = 1 }
			}
		}
	}
}

# Increased Tariffs
country_event = {
	id = colonial_nation.2
	title = "colonial_nation.EVTNAME2"
	desc = "colonial_nation.EVTDESC2"
	picture = HARBOUR_eventPicture
	
	is_triggered_only = yes
	
	option = {
		name = "colonial_nation.EVTOPTA2"	# Push us far enough...
		add_liberty_desire = 10
		add_tariff_value = 0.1
	}
}

# Decreased Tariffs
country_event = {
	id = colonial_nation.3
	title = "colonial_nation.EVTNAME3"
	desc = "colonial_nation.EVTDESC3"
	picture = HARBOUR_eventPicture
	
	is_triggered_only = yes
	
	option = {
		name = "colonial_nation.EVTOPTA3"	# Good news!
		add_liberty_desire = -10
		add_tariff_value = -0.1
	}
}

# Freedom Fighter or Rebel?
country_event = {
	id = colonial_nation.4
	title = "colonial_nation.EVTNAME4"
	desc = "colonial_nation.EVTDESC4"
	picture = CONQUEST_eventPicture

	is_triggered_only = yes
	
	trigger = {
		is_colonial_nation = yes
		liberty_desire = 50
		NOT = { has_country_flag = colonial_nation_freedom_fighter }
	}

	mean_time_to_happen = {
		days = 1
		modifier = {
			factor = 1.25
			liberty_desire = 60
		}
		modifier = {
			factor = 1.25
			liberty_desire = 70
		}
		modifier = {
			factor = 1.25
			liberty_desire = 80
		}
		modifier = {
			factor = 1.25
			liberty_desire = 90
		}
		modifier = {
			factor = 1.25
			is_year = 1650
		}
		modifier = {
			factor = 1.25
			is_year = 1700
		}
		modifier = {
			factor = 1.25
			is_year = 1750
		}
		modifier = {
			factor = 1.25
			is_year = 1800
		}
	}
	
	immediate = {
		set_country_flag = colonial_nation_freedom_fighter
	}
	
	option = {
		name = "colonial_nation.EVTOPTA4"	# Promote him to general!
		ai_chance = { factor = 75 }
		create_general = { tradition = 100 }
		add_liberty_desire = 1
		hidden_effect = {
			colonial_parent = {
				country_event = { id = colonial_nation.5 days = 1 }
			}
		}
	}
	option = {
		name = "colonial_nation.EVTOPTB4"	# He must be executed!
		ai_chance = { factor = 25 }
		add_liberty_desire = 10
		hidden_effect = {
			colonial_parent = {
				country_event = { id = colonial_nation.6 days = 1 }
			}
		}
	}
}

# Trouble in COLONYNAME
country_event = {
	id = colonial_nation.5
	title = "colonial_nation.EVTNAME5"
	desc = "colonial_nation.EVTDESC5"
	picture = CONQUEST_eventPicture

	is_triggered_only = yes
	
	option = {
		name = "colonial_nation.EVTOPTA5"	# How dare they?!
		tooltip = {
			FROM = {
				add_liberty_desire = 1
			}
		}
	}
}

# Colonial Rebel Executed
country_event = {
	id = colonial_nation.6
	title = "colonial_nation.EVTNAME6"
	desc = "colonial_nation.EVTDESC6"
	picture = STREET_SPEECH_eventPicture

	is_triggered_only = yes
	
	option = {
		name = "colonial_nation.EVTOPTA6"	# Perhaps a too swift solution...
		tooltip = {
			FROM = {
				add_liberty_desire = 10
			}
		}
	}
}

# Colonial Wars
country_event = {
	id = colonial_nation.10
	title = "colonial_nation.EVTNAME10"
	desc = "colonial_nation.EVTDESC10"
	picture = BORDER_TENSION_eventPicture
	
	is_triggered_only = yes
	
	trigger = {
		any_subject_country = {
			is_colonial_nation_of = ROOT
			cb_on_primitives = yes
			NOT = { has_country_modifier = the_proclamation_of_year_timer }
			OR = {
				NOT = { has_country_flag = the_proclamation_of_year }
				had_country_flag = { flag = the_proclamation_of_year days = 10950 }
			}
			any_neighbor_country = {
				primitives = yes
				OR = {
					alliance_with = ROOT
					has_opinion = {
						who = ROOT
						value = 100
					}
				}
			}
		}
	}

	mean_time_to_happen = {
		days = 1
		modifier = {
			factor = 1.25
			any_ally = {
				primitives = yes
			}
		}
	}
	
	immediate = {
		random_country = {
			limit = {
				is_colonial_nation_of = ROOT
				cb_on_primitives = yes
				NOT = { has_country_modifier = the_proclamation_of_year_timer }
				OR = {
					NOT = { has_country_flag = the_proclamation_of_year }
					had_country_flag = { flag = the_proclamation_of_year days = 10950 }
				}
				any_neighbor_country = {
					primitives = yes
					OR = {
						alliance_with = ROOT
						has_opinion = {
							who = ROOT
							value = 100
						}
					}
				}
			}
			set_country_flag = the_proclamation_of_year_country
		}
	}
	
	option = {
		name = "colonial_nation.EVTOPTA10"	# Keep them on a tight leash!
		ai_chance = { factor = 25 }
		random_country = {
			limit = {
				has_country_flag = the_proclamation_of_year_country
				is_colonial_nation_of = ROOT
				cb_on_primitives = yes
				NOT = { has_country_modifier = the_proclamation_of_year_timer }
				OR = {
					NOT = { has_country_flag = the_proclamation_of_year }
					had_country_flag = { flag = the_proclamation_of_year days = 10950 }
				}
				any_neighbor_country = {
					primitives = yes
					OR = {
						alliance_with = ROOT
						has_opinion = {
							who = ROOT
							value = 100
						}
					}
				}
			}
			tooltip = {
				add_liberty_desire = 25
				add_country_modifier = {#Proclamation of Peace
					name = "proclamation_of_year_modifier"
					duration = 3650
				}
			}
			hidden_effect = {
				country_event = { id = colonial_nation.11 days = 1 }
			}
		}
		every_country = {
			limit = {
				primitives = yes
				OR = {
					alliance_with = ROOT
					has_opinion = {
						who = ROOT
						value = 100
					}
				}
				any_neighbor_country = {
					has_country_flag = the_proclamation_of_year_country
					is_colonial_nation_of = ROOT
					cb_on_primitives = yes
					NOT = { has_country_modifier = the_proclamation_of_year_timer }
					OR = {
						NOT = { has_country_flag = the_proclamation_of_year }
						had_country_flag = { flag = the_proclamation_of_year days = 10950 }
					}
				}
			}
			add_opinion = { who = ROOT modifier = the_proclamation_of_year }
		}
	}
	option = {
		name = "colonial_nation.EVTOPTB10"	# It is not in our interest
		ai_chance = {
			factor = 75
			modifier = {
				factor = 0
				any_subject_country = {
					is_colonial_nation_of = ROOT
					cb_on_primitives = yes
					NOT = { has_country_modifier = the_proclamation_of_year_timer }
					OR = {
						NOT = { has_country_flag = the_proclamation_of_year }
						had_country_flag = { flag = the_proclamation_of_year days = 10950 }
					}
					any_neighbor_country = {
						primitives = yes
						alliance_with = ROOT
					}
				}
			}
		}
		every_country = {
			limit = {
				primitives = yes
				OR = {
					alliance_with = ROOT
					has_opinion = {
						who = ROOT
						value = 100
					}
				}
				any_neighbor_country = {
					has_country_flag = the_proclamation_of_year_country
					is_colonial_nation_of = ROOT
					cb_on_primitives = yes
					NOT = { has_country_modifier = the_proclamation_of_year_timer }
					OR = {
						NOT = { has_country_flag = the_proclamation_of_year }
						had_country_flag = { flag = the_proclamation_of_year days = 10950 }
					}
				}
			}
			add_opinion = { who = ROOT modifier = non_restricted_colonial_wars }
		}
		hidden_effect = {
			random_country = {
				limit = {
					has_country_flag = the_proclamation_of_year_country
					is_colonial_nation_of = ROOT
					cb_on_primitives = yes
					NOT = { has_country_modifier = the_proclamation_of_year_timer }
					OR = {
						NOT = { has_country_flag = the_proclamation_of_year }
						had_country_flag = { flag = the_proclamation_of_year days = 10950 }
					}
					any_neighbor_country = {
						primitives = yes
						OR = {
							alliance_with = ROOT
							has_opinion = {
								who = ROOT
								value = 100
							}
						}
					}
				}
				clr_country_flag = the_proclamation_of_year_country
			}
		}
	}
}

# The Proclamation of YEAR
country_event = {
	id = colonial_nation.11
	title = "colonial_nation.EVTNAME11"
	desc = "colonial_nation.EVTDESC11"
	picture = COURT_eventPicture
	
	is_triggered_only = yes

	option = {
		name = "colonial_nation.EVTOPTA11"	# This is an outrage!
		add_liberty_desire = 25
		add_country_modifier = {#Proclamation of Peace
			name = "proclamation_of_year_modifier"
			duration = 3650
		}
		clr_country_flag = the_proclamation_of_year_country
		clr_country_flag = the_proclamation_of_year
		set_country_flag = the_proclamation_of_year
		add_country_modifier = {
			name = "the_proclamation_of_year_timer"
			duration = 3650
			hidden = yes
		}
	}
}

# Colonial Expansion
country_event = {
	id = colonial_nation.12
	title = "colonial_nation.EVTNAME12"
	desc = "colonial_nation.EVTDESC12"
	picture = COLONIZATION_eventPicture
	
	is_triggered_only = yes
	
	trigger = {
		any_subject_country = {
			is_colonial_nation_of = ROOT
			OR = {
				NOT = { has_country_flag = restricted_colonial_expansion }
				had_country_flag = { flag = restricted_colonial_expansion days = 10950 }
			}
			any_owned_province = {
				is_colony = yes
			}
			any_neighbor_country = {
				primitives = yes
			}
		}
	}

	mean_time_to_happen = {
		days = 1
	}
	
	immediate = {
		random_country = {
			limit = {
				is_colonial_nation_of = ROOT
				OR = {
					NOT = { has_country_flag = restricted_colonial_expansion }
					had_country_flag = { flag = restricted_colonial_expansion days = 10950 }
				}
				any_owned_province = {
					is_colony = yes
				}
				any_neighbor_country = {
					primitives = yes
				}
			}
			save_event_target_as = restricted_colonial_expansion_country
		}
	}
	
	option = {
		name = "colonial_nation.EVTOPTA12"	# Restrict it!
		ai_chance = { factor = 75 }
		event_target:restricted_colonial_expansion_country = {
			tooltip = {
				add_liberty_desire = 25
				add_country_modifier = {
					name = "restricted_colonial_expansion"
					duration = 1825
				}
			}
			hidden_effect = {
				country_event = { id = colonial_nation.13 days = 1 }
			}
			every_neighbor_country = {
				limit = { primitives = yes }
				add_opinion = { who = ROOT modifier = restricted_colonial_expansion_opinion }
			}
		}
	}
	option = {
		name = "colonial_nation.EVTOPTB12"	# Let them expand freely
		ai_chance = { factor = 25 }
		event_target:restricted_colonial_expansion_country = {
			every_neighbor_country = {
				limit = { primitives = yes }
				add_opinion = { who = ROOT modifier = non_restricted_colonial_expansion_opinion }
			}
		}
	}
}

# Restricted Colonial Expansion
country_event = {
	id = colonial_nation.13
	title = "colonial_nation.EVTNAME13"
	desc = "colonial_nation.EVTDESC13"
	picture = COURT_eventPicture
	
	is_triggered_only = yes

	option = {
		name = "colonial_nation.EVTOPTA13"	# Intolerable!
		add_liberty_desire = 25
		set_country_flag = restricted_colonial_expansion
		add_country_modifier = {
			name = "restricted_colonial_expansion"
			duration = 1825
		}
	}
}

# The Burden of War
country_event = {
	id = colonial_nation.14
	title = "colonial_nation.EVTNAME14"
	desc = "colonial_nation.EVTDESC14"
	picture = WOUNDED_SOLDIERS_eventPicture
	
	is_triggered_only = yes
	
	trigger = {
		any_subject_country = {
			is_colonial_nation_of = ROOT
			OR = {
				NOT = { has_country_flag = the_burden_of_war }
				had_country_flag = { flag = the_burden_of_war days = 7300 }
			}
			any_neighbor_country = {
				truce_with = ROOT
			}
		}
		war_exhaustion = 4
	}

	mean_time_to_happen = {
		days = 1
	}

	option = {
		name = "colonial_nation.EVTOPTA14"	# Let the colonies pay!
		ai_chance = { factor = 50 }
		add_war_exhaustion = -2
		random_country = {
			limit = {
				is_colonial_nation_of = ROOT
				OR = {
					NOT = { has_country_flag = the_burden_of_war }
					had_country_flag = { flag = the_burden_of_war days = 7300 }
				}
				any_neighbor_country = {
					truce_with = ROOT
				}
			}
			tooltip = {
				add_liberty_desire = 10
				add_adm_power = -25
			}
			hidden_effect = {
				set_country_flag = the_burden_of_war
				country_event = { id = colonial_nation.15 days = 1 }
			}
		}
	}
	option = {
		name = "colonial_nation.EVTOPTB14"	# We will shoulder the burden
		ai_chance = { factor = 50 }
		add_adm_power = -50
	}
}

# The Burden of War
country_event = {
	id = colonial_nation.15
	title = "colonial_nation.EVTNAME14"
	desc = "colonial_nation.EVTDESC15"
	picture = WOUNDED_SOLDIER_eventPicture
	
	is_triggered_only = yes

	option = {
		name = "colonial_nation.EVTOPTA13"	# Intolerable!
		add_liberty_desire = 10
		add_adm_power = -25
	}
}

# Spread the Revolution
country_event = {
	id = colonial_nation.75
	title = "colonial_nation.EVTNAME75"
	desc = "colonial_nation.EVTDESC75"
	picture = REVOLUTION_eventPicture
	
	trigger = {
		is_former_colonial_nation = yes
		is_free_or_tributary_trigger = yes
		is_at_war = no
		manpower_percentage = 0.75
		any_neighbor_country = {
			is_colonial_nation = yes
			liberty_desire = 50
			is_at_war = no
			NOT = { has_country_flag = received_revolutionary_support }
		}
	}

	mean_time_to_happen = {
		months = 2000
		modifier = {
			factor = 0.75
			is_year = 1650
		}
		modifier = {
			factor = 0.75
			is_year = 1700
		}
		modifier = {
			factor = 0.75
			is_year = 1750
		}
		modifier = {
			factor = 0.75
			is_year = 1800
		}
		modifier = {
			factor = 0.75
			NOT = { exists = VNZ }
		}
		modifier = {
			factor = 0.75
			NOT = { exists = CAM }
		}
		modifier = {
			factor = 0.75
			NOT = { exists = QUE }
		}
		modifier = {
			factor = 0.75
			NOT = { exists = PEU }
		}
		modifier = {
			factor = 0.75
			NOT = { exists = PRG }
		}
		modifier = {
			factor = 0.75
			NOT = { exists = MEX }
		}
		modifier = {
			factor = 0.75
			NOT = { exists = LOU }
		}
		modifier = {
			factor = 0.75
			NOT = { exists = LAP }
		}
		modifier = {
			factor = 0.75
			NOT = { exists = HAT }
		}
		modifier = {
			factor = 0.75
			NOT = { exists = COL }
		}
		modifier = {
			factor = 0.75
			NOT = { exists = CHL }
		}
		modifier = {
			factor = 0.75
			NOT = { exists = CAN }
		}
		modifier = {
			factor = 0.75
			NOT = { exists = BRZ }
		}
		modifier = {
			factor = 0.75
			NOT = { exists = USA }
		}
	}

	option = {
		name = "colonial_nation.EVTOPTA75"	# Viva la revolution!
		ai_chance = { factor = 100 }
		add_manpower = -2
		random_neighbor_country = {
			limit = {
				is_colonial_nation = yes
				liberty_desire = 50
				is_at_war = no
				NOT = { has_country_flag = received_revolutionary_support }
			}
			tooltip = {
				add_manpower = 2
				if = {
					limit = {
						ROOT = {
							army_tradition = 25
							NOT = { army_tradition = 50 }
						}
					}
					add_army_tradition = 5
				}
				if = {
					limit = {
						ROOT = {
							army_tradition = 50
							NOT = { army_tradition = 75 }
						}
					}
					add_army_tradition = 10
				}
				if = {
					limit = {
						ROOT = {
							army_tradition = 75
						}
					}
					add_army_tradition = 15
				}
				add_opinion = { who = ROOT modifier = supported_the_revolution }
			}
			set_country_flag = received_revolutionary_support
			country_event = { id = colonial_nation.76 days = 1 tooltip = "viva_la_revolution" }
		}
	}
	option = {
		name = "colonial_nation.EVTOPTB75"	# Don't upset the balance
		ai_chance = { factor = 0 }
		add_prestige = -10
	}
}

# The Domino Effect
country_event = {
	id = colonial_nation.76
	title = "colonial_nation.EVTNAME76"
	desc = "colonial_nation.EVTDESC76"
	picture = REVOLUTION_eventPicture
	
	is_triggered_only = yes

	option = {
		name = "colonial_nation.EVTOPTA76"	# Embrace these ideas and their help!
		ai_chance = { factor = 100 }
		add_liberty_desire = 10
		add_manpower = 2
		if = {
			limit = {
				FROM = {
					army_tradition = 25
					NOT = { army_tradition = 50 }
				}
			}
			add_army_tradition = 5
		}
		if = {
			limit = {
				FROM = {
					army_tradition = 50
					NOT = { army_tradition = 75 }
				}
			}
			add_army_tradition = 10
		}
		if = {
			limit = {
				FROM = {
					army_tradition = 75
				}
			}
			add_army_tradition = 15
		}
		add_opinion = { who = FROM modifier = supported_the_revolution }
	}
	option = {
		name = "colonial_nation.EVTOPTB76"	# We will remain loyal
		ai_chance = { factor = 0 }
		add_liberty_desire = -5
	}
}

# Revolutionary Spirit
country_event = {
	id = colonial_nation.77
	title = "colonial_nation.EVTNAME77"
	desc = "colonial_nation.EVTDESC77"
	picture = REVOLUTION_eventPicture
	
	is_triggered_only = yes
	
	trigger = {
		is_colonial_nation = yes
		liberty_desire = 75
		is_at_war = no
		NOT = { has_country_flag = revolutionary_spirit }
	}

	mean_time_to_happen = {
		days = 1
		modifier = {
			factor = 1.25
			is_year = 1650
		}
		modifier = {
			factor = 1.25
			is_year = 1700
		}
		modifier = {
			factor = 1.25
			is_year = 1750
		}
		modifier = {
			factor = 1.25
			is_year = 1800
		}
	}
	
	immediate = {
		set_country_flag = revolutionary_spirit
	}

	option = {
		name = "colonial_nation.EVTOPTA77"	# Expand the army!
		ai_chance = { factor = 100 }
		add_liberty_desire = 10
		add_country_modifier = {
			name = "revolutionary_spirit"
			duration = 9125
		}
	}
	option = {
		name = "colonial_nation.EVTOPTB77"	# Reject these troublemakers
		ai_chance = { factor = 0 }
		add_stability = -1
	}
}

# New Government!
country_event = {
	id = colonial_nation.90
	title = "colonial_nation.EVTNAME90"
	desc = "colonial_nation.EVTDESC90"
	picture = REFORM_eventPicture

	is_triggered_only = yes
	
	immediate = {
		hidden_effect = {
			remove_country_modifier = spa_new_colonial_reforms_subject
			remove_country_modifier = jesuits_expelled
			remove_country_modifier = valladolid_las_casas
			remove_country_modifier = valladolid_sepulveda
			remove_country_modifier = laws_of_the_burgos
		}
	}
	
	option = {
		name = "colonial_nation.EVTOPTA90"	# Monarchy
		ai_chance = {
			factor = 40
			modifier = {
				factor = 2
				colonial_parent = {
					government = monarchy
				}
			}
		}
		change_government = monarchy
		set_legacy_government = administrative_monarchy
		kill_ruler = yes
	}
	option = {
		name = "colonial_nation.EVTOPTB90"	# Republic
		ai_chance = {
			factor = 40
			modifier = {
				factor = 2
				colonial_parent = {
					government = republic
				}
			}
		}
		remove_government_reform = colonial_government
		set_legacy_government = administrative_republic
		kill_ruler = yes
	}
}

# Treaty of CapitalName
country_event = {
	id = colonial_nation.91
	title = "colonial_nation.EVTNAME91"
	desc = "colonial_nation.EVTDESC91"
	picture = UNIVERSITY_eventPicture

	is_triggered_only = yes
	
	option = {
		name = "colonial_nation.EVTOPTA91"	# Off with his/her head!		
		FROM = {
			tooltip = {
				if = {
					limit = {
						NOT = { government = republic }
					}
					change_government = republic
				}
				add_government_reform = colonial_government
				kill_ruler = yes
				add_liberty_desire = 10
			}
			hidden_effect = {
				country_event = { id = colonial_nation.92 days = 1 }
			}
		}
	}
	option = {
		name = "colonial_nation.EVTOPTB91"	# Show leniency
		add_prestige = -10
		FROM = {
			tooltip = {
				add_government_reform = colonial_government
			}
			hidden_effect = {
				country_event = { id = colonial_nation.93 days = 1 }
			}
		}
	}
}

# Independence War Fails
country_event = {
	id = colonial_nation.92
	title = "colonial_nation.EVTNAME92"
	desc = "colonial_nation.EVTDESC92"
	picture = WOUNDED_SOLDIERS_eventPicture

	is_triggered_only = yes
	
	option = {
		name = "colonial_nation.EVTOPTA92"	# We will bide our time...
		if = {
			limit = {
				NOT = { government = republic }
			}
			change_government = republic
		}
		add_government_reform = colonial_government
		kill_ruler = yes
		add_liberty_desire = 10
		add_adm_power = 25
		add_dip_power = 25
		add_mil_power = 25
	}
}

# Independence War Fails
country_event = {
	id = colonial_nation.93
	title = "colonial_nation.EVTNAME92"
	desc = "colonial_nation.EVTDESC93"
	picture = WOUNDED_SOLDIERS_eventPicture

	is_triggered_only = yes
	
	option = {
		name = "colonial_nation.EVTOPTA93"	# I guess we should be thankful...
		if = {
			limit = {
				NOT = { government = republic }
			}
			change_government = republic
		}
		add_government_reform = colonial_government
	}
}


########################################
# Trade Goods Tariffs                  #
########################################

# Tariffs on Grain
country_event = {
	id = colonial_nation.100
	title = "colonial_nation.EVTNAME100"
	desc = "colonial_nation.EVTDESC100"
	picture = TRADEGOODS_eventPicture

	is_triggered_only = yes
	
	trigger = {
		any_subject_country = {
			is_colonial_nation_of = ROOT
			any_owned_province = {
				trade_goods = grain
			}
		}
		OR = {
			NOT = { has_country_flag = tariffs_on_grain }
			had_country_flag = { flag = tariffs_on_grain days = 7300 }
		}
	}
	
	mean_time_to_happen = {
		days = 1
		modifier = {
			factor = 1.25
			any_subject_country = {
				is_colonial_nation_of = ROOT
				grain = 3
			}
		}
		modifier = {
			factor = 1.25
			any_subject_country = {
				is_colonial_nation_of = ROOT
				grain = 5
			}
		}
		modifier = {
			factor = 1.25
			any_subject_country = {
				is_colonial_nation_of = ROOT
				grain = 7
			}
		}
	}
	
	option = {
		name = "colonial_nation.EVTOPTA100"	# Tax it!
		random_country = {
			limit = {
				is_colonial_nation_of = ROOT
				any_owned_province = {
					trade_goods = grain
				}
			}
			tooltip = {
				add_tariff_value = 0.05
			}
			hidden_effect = {
				country_event = { id = colonial_nation.101 days = 1 }
			}
		}
		set_country_flag = tariffs_on_grain
	}
	option = {
		name = "colonial_nation.EVTOPTB100"	# Better leave it be
		set_country_flag = tariffs_on_grain
		random_list = {
			33 = { add_adm_power = 10 }
			33 = { add_dip_power = 10 }
			33 = { add_mil_power = 10 }
		}
	}
}

# Tariffs on Grain
country_event = {
	id = colonial_nation.101
	title = "colonial_nation.EVTNAME100"
	desc = "colonial_nation.EVTDESC101"
	picture = TRADEGOODS_eventPicture

	is_triggered_only = yes
	
	option = {
		name = "colonial_nation.EVTOPTA101"	# Perhaps we should throw the grain into the sea instead...
		add_tariff_value = 0.05
	}
}

# Tariffs on Wine
country_event = {
	id = colonial_nation.102
	title = "colonial_nation.EVTNAME102"
	desc = "colonial_nation.EVTDESC102"
	picture = TRADEGOODS_eventPicture

	is_triggered_only = yes
	
	trigger = {
		OR = {
			NOT = { has_country_flag = tariffs_on_wine }
			had_country_flag = { flag = tariffs_on_wine days = 7300 }
		}
		any_subject_country = {
			is_colonial_nation_of = ROOT
			any_owned_province = {
				trade_goods = wine
			}
		}
	}
	
	mean_time_to_happen = {
		days = 1
		modifier = {
			factor = 1.25
			any_subject_country = {
				is_colonial_nation_of = ROOT
				wine = 3
			}
		}
		modifier = {
			factor = 1.25
			any_subject_country = {
				is_colonial_nation_of = ROOT
				wine = 5
			}
		}
		modifier = {
			factor = 1.25
			any_subject_country = {
				is_colonial_nation_of = ROOT
				wine = 7
			}
		}
	}
	
	option = {
		name = "colonial_nation.EVTOPTA100"	# Tax it!
		random_country = {
			limit = {
				is_colonial_nation_of = ROOT
				any_owned_province = {
					trade_goods = wine
				}
			}
			tooltip = {
				add_tariff_value = 0.05
			}
			hidden_effect = {
				country_event = { id = colonial_nation.103 days = 1 }
			}
		}
		set_country_flag = tariffs_on_wine
	}
	option = {
		name = "colonial_nation.EVTOPTB100"	# Better leave it be
		set_country_flag = tariffs_on_wine
		random_list = {
			33 = { add_adm_power = 10 }
			33 = { add_dip_power = 10 }
			33 = { add_mil_power = 10 }
		}
	}
}

# Tariffs on Wine
country_event = {
	id = colonial_nation.103
	title = "colonial_nation.EVTNAME102"
	desc = "colonial_nation.EVTDESC103"
	picture = TRADEGOODS_eventPicture

	is_triggered_only = yes
	
	option = {
		name = "colonial_nation.EVTOPTA103"	# Perhaps we should throw the wine into the sea instead...
		add_tariff_value = 0.05
	}
}


# Tariffs on Wool
country_event = {
	id = colonial_nation.104
	title = "colonial_nation.EVTNAME104"
	desc = "colonial_nation.EVTDESC104"
	picture = TRADEGOODS_eventPicture

	is_triggered_only = yes
	
	trigger = {
		OR = {
			NOT = { has_country_flag = tariffs_on_wool }
			had_country_flag = { flag = tariffs_on_wool days = 7300 }
		}
		any_subject_country = {
			is_colonial_nation_of = ROOT
			any_owned_province = {
				trade_goods = wool
			}
		}
	}
	
	mean_time_to_happen = {
		days = 1
		modifier = {
			factor = 1.25
			any_subject_country = {
				is_colonial_nation_of = ROOT
				wool = 3
			}
		}
		modifier = {
			factor = 1.25
			any_subject_country = {
				is_colonial_nation_of = ROOT
				wool = 5
			}
		}
		modifier = {
			factor = 1.25
			any_subject_country = {
				is_colonial_nation_of = ROOT
				wool = 7
			}
		}
	}
	
	option = {
		name = "colonial_nation.EVTOPTA100"	# Tax it!
		random_country = {
			limit = {
				is_colonial_nation_of = ROOT
				any_owned_province = {
					trade_goods = wool
				}
			}
			tooltip = {
				add_tariff_value = 0.05
			}
			hidden_effect = {
				country_event = { id = colonial_nation.105 days = 1 }
			}
		}
		set_country_flag = tariffs_on_wool
	}
	option = {
		name = "colonial_nation.EVTOPTB100"	# Better leave it be
		set_country_flag = tariffs_on_wool
		random_list = {
			33 = { add_adm_power = 10 }
			33 = { add_dip_power = 10 }
			33 = { add_mil_power = 10 }
		}
	}
}

# Tariffs on Wool
country_event = {
	id = colonial_nation.105
	title = "colonial_nation.EVTNAME104"
	desc = "colonial_nation.EVTDESC105"
	picture = TRADEGOODS_eventPicture

	is_triggered_only = yes
	
	option = {
		name = "colonial_nation.EVTOPTA105"	# Perhaps we should throw the wool into the sea instead...
		add_tariff_value = 0.05
	}
}

# Tariffs on Cloth
country_event = {
	id = colonial_nation.106
	title = "colonial_nation.EVTNAME106"
	desc = "colonial_nation.EVTDESC106"
	picture = TRADEGOODS_eventPicture

	is_triggered_only = yes
	
	trigger = {
		OR = {
			NOT = { has_country_flag = tariffs_on_cloth }
			had_country_flag = { flag = tariffs_on_cloth days = 7300 }
		}
		any_subject_country = {
			is_colonial_nation_of = ROOT
			any_owned_province = {
				trade_goods = cloth
			}
		}
	}
	
	mean_time_to_happen = {
		days = 1
		modifier = {
			factor = 1.25
			any_subject_country = {
				is_colonial_nation_of = ROOT
				cloth = 3
			}
		}
		modifier = {
			factor = 1.25
			any_subject_country = {
				is_colonial_nation_of = ROOT
				cloth = 5
			}
		}
		modifier = {
			factor = 1.25
			any_subject_country = {
				is_colonial_nation_of = ROOT
				cloth = 7
			}
		}
	}
	
	option = {
		name = "colonial_nation.EVTOPTA100"	# Tax it!
		random_country = {
			limit = {
				is_colonial_nation_of = ROOT
				any_owned_province = {
					trade_goods = cloth
				}
			}
			tooltip = {
				add_tariff_value = 0.05
			}
			hidden_effect = {
				country_event = { id = colonial_nation.107 days = 1 }
			}
		}
		set_country_flag = tariffs_on_cloth
	}
	option = {
		name = "colonial_nation.EVTOPTB100"	# Better leave it be
		set_country_flag = tariffs_on_cloth
		random_list = {
			33 = { add_adm_power = 10 }
			33 = { add_dip_power = 10 }
			33 = { add_mil_power = 10 }
		}
	}
}

# Tariffs on Cloth
country_event = {
	id = colonial_nation.107
	title = "colonial_nation.EVTNAME106"
	desc = "colonial_nation.EVTDESC107"
	picture = TRADEGOODS_eventPicture

	is_triggered_only = yes
	
	option = {
		name = "colonial_nation.EVTOPTA107"	# Perhaps we should throw the cloth into the sea instead...
		add_tariff_value = 0.05
	}
}


# Tariffs on Fish
country_event = {
	id = colonial_nation.108
	title = "colonial_nation.EVTNAME108"
	desc = "colonial_nation.EVTDESC108"
	picture = TRADE_GOODS_FURS_FISH_AND_SALT_eventPicture

	is_triggered_only = yes
	
	trigger = {
		OR = {
			NOT = { has_country_flag = tariffs_on_fish }
			had_country_flag = { flag = tariffs_on_fish days = 7300 }
		}
		any_subject_country = {
			is_colonial_nation_of = ROOT
			any_owned_province = {
				trade_goods = fish
			}
		}
	}
	
	mean_time_to_happen = {
		days = 1
		modifier = {
			factor = 1.25
			any_subject_country = {
				is_colonial_nation_of = ROOT
				fish = 3
			}
		}
		modifier = {
			factor = 1.25
			any_subject_country = {
				is_colonial_nation_of = ROOT
				fish = 5
			}
		}
		modifier = {
			factor = 1.25
			any_subject_country = {
				is_colonial_nation_of = ROOT
				fish = 7
			}
		}
	}
	
	option = {
		name = "colonial_nation.EVTOPTA100"	# Tax it!
		random_country = {
			limit = {
				is_colonial_nation_of = ROOT
				any_owned_province = {
					trade_goods = fish
				}
			}
			tooltip = {
				add_tariff_value = 0.05
			}
			hidden_effect = {
				country_event = { id = colonial_nation.109 days = 1 }
			}
		}
		set_country_flag = tariffs_on_fish
	}
	option = {
		name = "colonial_nation.EVTOPTB100"	# Better leave it be
		set_country_flag = tariffs_on_fish
		random_list = {
			33 = { add_adm_power = 10 }
			33 = { add_dip_power = 10 }
			33 = { add_mil_power = 10 }
		}
	}
}


# Tariffs on Fish
country_event = {
	id = colonial_nation.109
	title = "colonial_nation.EVTNAME108"
	desc = "colonial_nation.EVTDESC109"
	picture = TRADE_GOODS_FURS_FISH_AND_SALT_eventPicture

	is_triggered_only = yes
	
	option = {
		name = "colonial_nation.EVTOPTA109"	# Perhaps we should throw the fish into the sea instead...
		add_tariff_value = 0.05
	}
}

# Tariffs on Fur
country_event = {
	id = colonial_nation.110
	title = "colonial_nation.EVTNAME110"
	desc = "colonial_nation.EVTDESC110"
	picture = TRADE_GOODS_FURS_FISH_AND_SALT_eventPicture

	is_triggered_only = yes
	
	trigger = {
		OR = {
			NOT = { has_country_flag = tariffs_on_fur }
			had_country_flag = { flag = tariffs_on_fur days = 7300 }
		}
		any_subject_country = {
			is_colonial_nation_of = ROOT
			any_owned_province = {
				trade_goods = fur
			}
		}
	}
	
	mean_time_to_happen = {
		days = 1
		modifier = {
			factor = 1.25
			any_subject_country = {
				is_colonial_nation_of = ROOT
				fur = 3
			}
		}
		modifier = {
			factor = 1.25
			any_subject_country = {
				is_colonial_nation_of = ROOT
				fur = 5
			}
		}
		modifier = {
			factor = 1.25
			any_subject_country = {
				is_colonial_nation_of = ROOT
				fur = 7
			}
		}
	}
	
	option = {
		name = "colonial_nation.EVTOPTA100"	# Tax it!
		random_country = {
			limit = {
				is_colonial_nation_of = ROOT
				any_owned_province = {
					trade_goods = fur
				}
			}
			tooltip = {
				add_tariff_value = 0.05
			}
			hidden_effect = {
				country_event = { id = colonial_nation.111 days = 1 }
			}
		}
		set_country_flag = tariffs_on_fur
	}
	option = {
		name = "colonial_nation.EVTOPTB100"	# Better leave it be
		set_country_flag = tariffs_on_fur
		random_list = {
			33 = { add_adm_power = 10 }
			33 = { add_dip_power = 10 }
			33 = { add_mil_power = 10 }
		}
	}
}

# Tariffs on Fur
country_event = {
	id = colonial_nation.111
	title = "colonial_nation.EVTNAME110"
	desc = "colonial_nation.EVTDESC111"
	picture = TRADE_GOODS_FURS_FISH_AND_SALT_eventPicture

	is_triggered_only = yes
	
	option = {
		name = "colonial_nation.EVTOPTA111"	# Perhaps we should throw the fur into the sea instead...
		add_tariff_value = 0.05
	}
}

# Tariffs on Salt
country_event = {
	id = colonial_nation.112
	title = "colonial_nation.EVTNAME112"
	desc = "colonial_nation.EVTDESC112"
	picture = TRADE_GOODS_FURS_FISH_AND_SALT_eventPicture

	is_triggered_only = yes
	
	trigger = {
		OR = {
			NOT = { has_country_flag = tariffs_on_salt }
			had_country_flag = { flag = tariffs_on_salt days = 7300 }
		}
		any_subject_country = {
			is_colonial_nation_of = ROOT
			any_owned_province = {
				trade_goods = salt
			}
		}
	}
	
	mean_time_to_happen = {
		days = 1
		modifier = {
			factor = 1.25
			any_subject_country = {
				is_colonial_nation_of = ROOT
				salt = 3
			}
		}
		modifier = {
			factor = 1.25
			any_subject_country = {
				is_colonial_nation_of = ROOT
				salt = 5
			}
		}
		modifier = {
			factor = 1.25
			any_subject_country = {
				is_colonial_nation_of = ROOT
				salt = 7
			}
		}
	}
	
	option = {
		name = "colonial_nation.EVTOPTA100"	# Tax it!
		random_country = {
			limit = {
				is_colonial_nation_of = ROOT
				any_owned_province = {
					trade_goods = salt
				}
			}
			tooltip = {
				add_tariff_value = 0.05
			}
			hidden_effect = {
				country_event = { id = colonial_nation.113 days = 1 }
			}
		}
		set_country_flag = tariffs_on_salt
	}
	option = {
		name = "colonial_nation.EVTOPTB100"	# Better leave it be
		set_country_flag = tariffs_on_salt
		random_list = {
			33 = { add_adm_power = 10 }
			33 = { add_dip_power = 10 }
			33 = { add_mil_power = 10 }
		}
	}
}

# Tariffs on Salt
country_event = {
	id = colonial_nation.113
	title = "colonial_nation.EVTNAME112"
	desc = "colonial_nation.EVTDESC113"
	picture = TRADE_GOODS_FURS_FISH_AND_SALT_eventPicture

	is_triggered_only = yes
	
	option = {
		name = "colonial_nation.EVTOPTA113"	# Perhaps we should throw the salt into the sea instead...
		add_tariff_value = 0.05
	}
}

# Tariffs on Naval Supplies
country_event = {
	id = colonial_nation.114
	title = "colonial_nation.EVTNAME114"
	desc = "colonial_nation.EVTDESC114"
	picture = TRADEGOODS_eventPicture

	is_triggered_only = yes
	
	trigger = {
		OR = {
			NOT = { has_country_flag = tariffs_on_naval_supplies }
			had_country_flag = { flag = tariffs_on_naval_supplies days = 7300 }
		}
		any_subject_country = {
			is_colonial_nation_of = ROOT
			any_owned_province = {
				trade_goods = naval_supplies
			}
		}
	}
	
	mean_time_to_happen = {
		days = 1
		modifier = {
			factor = 1.25
			any_subject_country = {
				is_colonial_nation_of = ROOT
				naval_supplies = 3
			}
		}
		modifier = {
			factor = 1.25
			any_subject_country = {
				is_colonial_nation_of = ROOT
				naval_supplies = 5
			}
		}
		modifier = {
			factor = 1.25
			any_subject_country = {
				is_colonial_nation_of = ROOT
				naval_supplies = 7
			}
		}
	}
	
	option = {
		name = "colonial_nation.EVTOPTA100"	# Tax it!
		random_country = {
			limit = {
				is_colonial_nation_of = ROOT
				any_owned_province = {
					trade_goods = naval_supplies
				}
			}
			tooltip = {
				add_tariff_value = 0.05
			}
			hidden_effect = {
				country_event = { id = colonial_nation.115 days = 1 }
			}
		}
		set_country_flag = tariffs_on_naval_supplies
	}
	option = {
		name = "colonial_nation.EVTOPTB100"	# Better leave it be
		set_country_flag = tariffs_on_naval_supplies
		random_list = {
			33 = { add_adm_power = 10 }
			33 = { add_dip_power = 10 }
			33 = { add_mil_power = 10 }
		}
	}
}

# Tariffs on Naval Supplies
country_event = {
	id = colonial_nation.115
	title = "colonial_nation.EVTNAME114"
	desc = "colonial_nation.EVTDESC115"
	picture = TRADEGOODS_eventPicture

	is_triggered_only = yes
	
	option = {
		name = "colonial_nation.EVTOPTA115"	# Perhaps we should throw the naval supplies into the sea instead...
		add_tariff_value = 0.05
	}
}

# Tariffs on Copper
country_event = {
	id = colonial_nation.116
	title = "colonial_nation.EVTNAME116"
	desc = "colonial_nation.EVTDESC116"
	picture = TRADEGOODS_eventPicture

	is_triggered_only = yes
	
	trigger = {
		OR = {
			NOT = { has_country_flag = tariffs_on_copper }
			had_country_flag = { flag = tariffs_on_copper days = 7300 }
		}
		any_subject_country = {
			is_colonial_nation_of = ROOT
			any_owned_province = {
				trade_goods = copper
			}
		}
	}
	
	mean_time_to_happen = {
		days = 1
		modifier = {
			factor = 1.25
			any_subject_country = {
				is_colonial_nation_of = ROOT
				copper = 3
			}
		}
		modifier = {
			factor = 1.25
			any_subject_country = {
				is_colonial_nation_of = ROOT
				copper = 5
			}
		}
		modifier = {
			factor = 1.25
			any_subject_country = {
				is_colonial_nation_of = ROOT
				copper = 7
			}
		}
	}
	
	option = {
		name = "colonial_nation.EVTOPTA100"	# Tax it!
		random_country = {
			limit = {
				is_colonial_nation_of = ROOT
				any_owned_province = {
					trade_goods = copper
				}
			}
			tooltip = {
				add_tariff_value = 0.05
			}
			hidden_effect = {
				country_event = { id = colonial_nation.117 days = 1 }
			}
		}
		set_country_flag = tariffs_on_copper
	}
	option = {
		name = "colonial_nation.EVTOPTB100"	# Better leave it be
		set_country_flag = tariffs_on_copper
		random_list = {
			33 = { add_adm_power = 10 }
			33 = { add_dip_power = 10 }
			33 = { add_mil_power = 10 }
		}
	}
}

# Tariffs on Copper
country_event = {
	id = colonial_nation.117
	title = "colonial_nation.EVTNAME116"
	desc = "colonial_nation.EVTDESC117"
	picture = TRADE_GOODS_METALS_AND_MINING_EQUIPENT_eventPicture

	is_triggered_only = yes
	
	option = {
		name = "colonial_nation.EVTOPTA117"	# Perhaps we should throw the copper into the sea instead...
		add_tariff_value = 0.05
	}
}

# Tariffs on Iron
country_event = {
	id = colonial_nation.118
	title = "colonial_nation.EVTNAME118"
	desc = "colonial_nation.EVTDESC118"
	picture = TRADE_GOODS_METALS_AND_MINING_EQUIPENT_eventPicture

	is_triggered_only = yes
	
	trigger = {
		OR = {
			NOT = { has_country_flag = tariffs_on_iron }
			had_country_flag = { flag = tariffs_on_iron days = 7300 }
		}
		any_subject_country = {
			is_colonial_nation_of = ROOT
			any_owned_province = {
				trade_goods = iron
			}
		}
	}
	
	mean_time_to_happen = {
		days = 1
		modifier = {
			factor = 1.25
			any_subject_country = {
				is_colonial_nation_of = ROOT
				iron = 3
			}
		}
		modifier = {
			factor = 1.25
			any_subject_country = {
				is_colonial_nation_of = ROOT
				iron = 5
			}
		}
		modifier = {
			factor = 1.25
			any_subject_country = {
				is_colonial_nation_of = ROOT
				iron = 7
			}
		}
	}
	
	option = {
		name = "colonial_nation.EVTOPTA100"	# Tax it!
		random_country = {
			limit = {
				is_colonial_nation_of = ROOT
				any_owned_province = {
					trade_goods = iron
				}
			}
			tooltip = {
				add_tariff_value = 0.05
			}
			hidden_effect = {
				country_event = { id = colonial_nation.119 days = 1 }
			}
		}
		set_country_flag = tariffs_on_iron
	}
	option = {
		name = "colonial_nation.EVTOPTB100"	# Better leave it be
		set_country_flag = tariffs_on_iron
		random_list = {
			33 = { add_adm_power = 10 }
			33 = { add_dip_power = 10 }
			33 = { add_mil_power = 10 }
		}
	}
}

# Tariffs on Iron
country_event = {
	id = colonial_nation.119
	title = "colonial_nation.EVTNAME118"
	desc = "colonial_nation.EVTDESC119"
	picture = TRADE_GOODS_METALS_AND_MINING_EQUIPENT_eventPicture

	is_triggered_only = yes
	
	option = {
		name = "colonial_nation.EVTOPTA119"	# Perhaps we should throw the iron into the sea instead...
		add_tariff_value = 0.05
	}
}

# Tariffs on Ivory
country_event = {
	id = colonial_nation.120
	title = "colonial_nation.EVTNAME120"
	desc = "colonial_nation.EVTDESC120"
	picture = TRADE_GOODS_PLANTATION_GOODS_IN_WAREHOUSE_eventPicture

	is_triggered_only = yes
	
	trigger = {
		OR = {
			NOT = { has_country_flag = tariffs_on_ivory }
			had_country_flag = { flag = tariffs_on_ivory days = 7300 }
		}
		any_subject_country = {
			is_colonial_nation_of = ROOT
			any_owned_province = {
				trade_goods = ivory
			}
		}
	}
	
	mean_time_to_happen = {
		days = 1
		modifier = {
			factor = 1.25
			any_subject_country = {
				is_colonial_nation_of = ROOT
				ivory = 3
			}
		}
		modifier = {
			factor = 1.25
			any_subject_country = {
				is_colonial_nation_of = ROOT
				ivory = 5
			}
		}
		modifier = {
			factor = 1.25
			any_subject_country = {
				is_colonial_nation_of = ROOT
				ivory = 7
			}
		}
	}
	
	option = {
		name = "colonial_nation.EVTOPTA100"	# Tax it!
		random_country = {
			limit = {
				is_colonial_nation_of = ROOT
				any_owned_province = {
					trade_goods = ivory
				}
			}
			tooltip = {
				add_tariff_value = 0.05
			}
			hidden_effect = {
				country_event = { id = colonial_nation.121 days = 1 }
			}
		}
		set_country_flag = tariffs_on_ivory
	}
	option = {
		name = "colonial_nation.EVTOPTB100"	# Better leave it be
		set_country_flag = tariffs_on_ivory
		random_list = {
			33 = { add_adm_power = 10 }
			33 = { add_dip_power = 10 }
			33 = { add_mil_power = 10 }
		}
	}
}

# Tariffs on Ivory
country_event = {
	id = colonial_nation.121
	title = "colonial_nation.EVTNAME120"
	desc = "colonial_nation.EVTDESC121"
	picture = TRADE_GOODS_PLANTATION_GOODS_IN_WAREHOUSE_eventPicture

	is_triggered_only = yes
	
	option = {
		name = "colonial_nation.EVTOPTA121"	# Perhaps we should throw the ivory into the sea instead...
		add_tariff_value = 0.05
	}
}

# Tariffs on Tea
country_event = {
	id = colonial_nation.122
	title = "colonial_nation.EVTNAME122"
	desc = "colonial_nation.EVTDESC122"
	picture = TRADE_GOODS_PLANTATION_GOODS_IN_WAREHOUSE_eventPicture

	is_triggered_only = yes
	
	trigger = {
		OR = {
			NOT = { has_country_flag = tariffs_on_tea }
			had_country_flag = { flag = tariffs_on_tea days = 7300 }
		}
		any_subject_country = {
			is_colonial_nation_of = ROOT
			any_owned_province = {
				trade_goods = tea
			}
		}
	}
	
	mean_time_to_happen = {
		days = 1
		modifier = {
			factor = 1.25
			any_subject_country = {
				is_colonial_nation_of = ROOT
				tea = 3
			}
		}
		modifier = {
			factor = 1.25
			any_subject_country = {
				is_colonial_nation_of = ROOT
				tea = 5
			}
		}
		modifier = {
			factor = 1.25
			any_subject_country = {
				is_colonial_nation_of = ROOT
				tea = 7
			}
		}
	}
	
	option = {
		name = "colonial_nation.EVTOPTA100"	# Tax it!
		random_country = {
			limit = {
				is_colonial_nation_of = ROOT
				any_owned_province = {
					trade_goods = tea
				}
			}
			tooltip = {
				add_tariff_value = 0.05
			}
			hidden_effect = {
				country_event = { id = colonial_nation.123 days = 1 }
			}
		}
		set_country_flag = tariffs_on_tea
	}
	option = {
		name = "colonial_nation.EVTOPTB100"	# Better leave it be
		set_country_flag = tariffs_on_tea
		random_list = {
			33 = { add_adm_power = 10 }
			33 = { add_dip_power = 10 }
			33 = { add_mil_power = 10 }
		}
	}
}

# Tariffs on Tea
country_event = {
	id = colonial_nation.123
	title = "colonial_nation.EVTNAME122"
	desc = "colonial_nation.EVTDESC123"
	picture = TRADE_GOODS_PLANTATION_GOODS_IN_WAREHOUSE_eventPicture

	is_triggered_only = yes
	
	option = {
		name = "colonial_nation.EVTOPTA123"	# Perhaps we should have a tea party...
		add_tariff_value = 0.05
	}
}

# Tariffs on Chinaware
country_event = {
	id = colonial_nation.124
	title = "colonial_nation.EVTNAME124"
	desc = "colonial_nation.EVTDESC124"
	picture = TRADE_GOODS_PLANTATION_GOODS_IN_WAREHOUSE_eventPicture

	is_triggered_only = yes
	
	trigger = {
		OR = {
			NOT = { has_country_flag = tariffs_on_chinaware }
			had_country_flag = { flag = tariffs_on_chinaware days = 7300 }
		}
		any_subject_country = {
			is_colonial_nation_of = ROOT
			any_owned_province = {
				trade_goods = chinaware
			}
		}
	}
	
	mean_time_to_happen = {
		days = 1
		modifier = {
			factor = 1.25
			any_subject_country = {
				is_colonial_nation_of = ROOT
				chinaware = 3
			}
		}
		modifier = {
			factor = 1.25
			any_subject_country = {
				is_colonial_nation_of = ROOT
				chinaware = 5
			}
		}
		modifier = {
			factor = 1.25
			any_subject_country = {
				is_colonial_nation_of = ROOT
				chinaware = 7
			}
		}
	}
	
	option = {
		name = "colonial_nation.EVTOPTA100"	# Tax it!
		random_country = {
			limit = {
				is_colonial_nation_of = ROOT
				any_owned_province = {
					trade_goods = chinaware
				}
			}
			tooltip = {
				add_tariff_value = 0.05
			}
			hidden_effect = {
				country_event = { id = colonial_nation.125 days = 1 }
			}
		}
		set_country_flag = tariffs_on_chinaware
	}
	option = {
		name = "colonial_nation.EVTOPTB100"	# Better leave it be
		set_country_flag = tariffs_on_chinaware
		random_list = {
			33 = { add_adm_power = 10 }
			33 = { add_dip_power = 10 }
			33 = { add_mil_power = 10 }
		}
	}
}

# Tariffs on Chinaware
country_event = {
	id = colonial_nation.125
	title = "colonial_nation.EVTNAME124"
	desc = "colonial_nation.EVTDESC125"
	picture = TRADE_GOODS_PLANTATION_GOODS_IN_WAREHOUSE_eventPicture

	is_triggered_only = yes
	
	option = {
		name = "colonial_nation.EVTOPTA125"	# Perhaps we should throw the chinaware into the sea instead...
		add_tariff_value = 0.05
	}
}

# Tariffs on Spices
country_event = {
	id = colonial_nation.126
	title = "colonial_nation.EVTNAME126"
	desc = "colonial_nation.EVTDESC126"
	picture = TRADE_GOODS_PLANTATION_GOODS_IN_WAREHOUSE_eventPicture

	is_triggered_only = yes
	
	trigger = {
		OR = {
			NOT = { has_country_flag = tariffs_on_spices }
			had_country_flag = { flag = tariffs_on_spices days = 7300 }
		}
		any_subject_country = {
			is_colonial_nation_of = ROOT
			any_owned_province = {
				trade_goods = spices
			}
		}
	}
	
	mean_time_to_happen = {
		days = 1
		modifier = {
			factor = 1.25
			any_subject_country = {
				is_colonial_nation_of = ROOT
				spices = 3
			}
		}
		modifier = {
			factor = 1.25
			any_subject_country = {
				is_colonial_nation_of = ROOT
				spices = 5
			}
		}
		modifier = {
			factor = 1.25
			any_subject_country = {
				is_colonial_nation_of = ROOT
				spices = 7
			}
		}
	}
	
	option = {
		name = "colonial_nation.EVTOPTA100"	# Tax it!
		random_country = {
			limit = {
				is_colonial_nation_of = ROOT
				any_owned_province = {
					trade_goods = spices
				}
			}
			tooltip = {
				add_tariff_value = 0.05
			}
			hidden_effect = {
				country_event = { id = colonial_nation.127 days = 1 }
			}
		}
		set_country_flag = tariffs_on_spices
	}
	option = {
		name = "colonial_nation.EVTOPTB100"	# Better leave it be
		set_country_flag = tariffs_on_spices
		random_list = {
			33 = { add_adm_power = 10 }
			33 = { add_dip_power = 10 }
			33 = { add_mil_power = 10 }
		}
	}
}

# Tariffs on Spices
country_event = {
	id = colonial_nation.127
	title = "colonial_nation.EVTNAME126"
	desc = "colonial_nation.EVTDESC127"
	picture = TRADE_GOODS_PLANTATION_GOODS_IN_WAREHOUSE_eventPicture

	is_triggered_only = yes
	
	option = {
		name = "colonial_nation.EVTOPTA127"	# Perhaps we should throw the spices into the sea instead...
		add_tariff_value = 0.05
	}
}

# Tariffs on Coffee
country_event = {
	id = colonial_nation.128
	title = "colonial_nation.EVTNAME128"
	desc = "colonial_nation.EVTDESC128"
	picture = TRADE_GOODS_PLANTATION_GOODS_IN_WAREHOUSE_eventPicture

	is_triggered_only = yes
	
	trigger = {
		OR = {
			NOT = { has_country_flag = tariffs_on_coffee }
			had_country_flag = { flag = tariffs_on_coffee days = 7300 }
		}
		any_subject_country = {
			is_colonial_nation_of = ROOT
			any_owned_province = {
				trade_goods = coffee
			}
		}
	}
	
	mean_time_to_happen = {
		days = 1
		modifier = {
			factor = 1.25
			any_subject_country = {
				is_colonial_nation_of = ROOT
				coffee = 3
			}
		}
		modifier = {
			factor = 1.25
			any_subject_country = {
				is_colonial_nation_of = ROOT
				coffee = 5
			}
		}
		modifier = {
			factor = 1.25
			any_subject_country = {
				is_colonial_nation_of = ROOT
				coffee = 7
			}
		}
	}
	
	option = {
		name = "colonial_nation.EVTOPTA100"	# Tax it!
		random_country = {
			limit = {
				is_colonial_nation_of = ROOT
				any_owned_province = {
					trade_goods = coffee
				}
			}
			tooltip = {
				add_tariff_value = 0.05
			}
			hidden_effect = {
				country_event = { id = colonial_nation.129 days = 1 }
			}
		}
	}
	option = {
		name = "colonial_nation.EVTOPTB100"	# Better leave it be
		set_country_flag = tariffs_on_coffee
		random_list = {
			33 = { add_adm_power = 10 }
			33 = { add_dip_power = 10 }
			33 = { add_mil_power = 10 }
		}
	}
}

# Tariffs on Coffee
country_event = {
	id = colonial_nation.129
	title = "colonial_nation.EVTNAME128"
	desc = "colonial_nation.EVTDESC129"
	picture = TRADE_GOODS_PLANTATION_GOODS_IN_WAREHOUSE_eventPicture

	is_triggered_only = yes
	
	option = {
		name = "colonial_nation.EVTOPTA129"	# Perhaps we should throw the coffee into the sea instead...
		add_tariff_value = 0.05
	}
}

# Tariffs on Cotton
country_event = {
	id = colonial_nation.130
	title = "colonial_nation.EVTNAME130"
	desc = "colonial_nation.EVTDESC130"
	picture = TRADE_GOODS_PLANTATION_GOODS_IN_WAREHOUSE_eventPicture

	is_triggered_only = yes
	
	trigger = {
		OR = {
			NOT = { has_country_flag = tariffs_on_cotton }
			had_country_flag = { flag = tariffs_on_cotton days = 7300 }
		}
		any_subject_country = {
			is_colonial_nation_of = ROOT
			any_owned_province = {
				trade_goods = cotton
			}
		}
	}
	
	mean_time_to_happen = {
		days = 1
		modifier = {
			factor = 1.25
			any_subject_country = {
				is_colonial_nation_of = ROOT
				cotton = 3
			}
		}
		modifier = {
			factor = 1.25
			any_subject_country = {
				is_colonial_nation_of = ROOT
				cotton = 5
			}
		}
		modifier = {
			factor = 1.25
			any_subject_country = {
				is_colonial_nation_of = ROOT
				cotton = 7
			}
		}
	}
	
	option = {
		name = "colonial_nation.EVTOPTA100"	# Tax it!
		random_country = {
			limit = {
				is_colonial_nation_of = ROOT
				any_owned_province = {
					trade_goods = cotton
				}
			}
			tooltip = {
				add_tariff_value = 0.05
			}
			hidden_effect = {
				country_event = { id = colonial_nation.131 days = 1 }
			}
		}
		set_country_flag = tariffs_on_cotton
	}
	option = {
		name = "colonial_nation.EVTOPTB100"	# Better leave it be
		set_country_flag = tariffs_on_cotton
		random_list = {
			33 = { add_adm_power = 10 }
			33 = { add_dip_power = 10 }
			33 = { add_mil_power = 10 }
		}
	}
}

# Tariffs on Cotton
country_event = {
	id = colonial_nation.131
	title = "colonial_nation.EVTNAME130"
	desc = "colonial_nation.EVTDESC131"
	picture = TRADE_GOODS_PLANTATION_GOODS_IN_WAREHOUSE_eventPicture

	is_triggered_only = yes
	
	option = {
		name = "colonial_nation.EVTOPTA131"	# Perhaps we should throw the cotton into the sea instead...
		add_tariff_value = 0.05
	}
}

# Tariffs on Sugar
country_event = {
	id = colonial_nation.132
	title = "colonial_nation.EVTNAME132"
	desc = "colonial_nation.EVTDESC132"
	picture = TRADE_GOODS_PLANTATION_GOODS_IN_WAREHOUSE_eventPicture

	is_triggered_only = yes
	
	trigger = {
		OR = {
			NOT = { has_country_flag = tariffs_on_sugar }
			had_country_flag = { flag = tariffs_on_sugar days = 7300 }
		}
		any_subject_country = {
			is_colonial_nation_of = ROOT
			any_owned_province = {
				trade_goods = sugar
			}
		}
	}
	
	mean_time_to_happen = {
		days = 1
		modifier = {
			factor = 1.25
			any_subject_country = {
				is_colonial_nation_of = ROOT
				sugar = 3
			}
		}
		modifier = {
			factor = 1.25
			any_subject_country = {
				is_colonial_nation_of = ROOT
				sugar = 5
			}
		}
		modifier = {
			factor = 1.25
			any_subject_country = {
				is_colonial_nation_of = ROOT
				sugar = 7
			}
		}
	}
	
	option = {
		name = "colonial_nation.EVTOPTA100"	# Tax it!
		random_country = {
			limit = {
				is_colonial_nation_of = ROOT
				any_owned_province = {
					trade_goods = sugar
				}
			}
			tooltip = {
				add_tariff_value = 0.05
			}
			hidden_effect = {
				country_event = { id = colonial_nation.133 days = 1 }
			}
		}
		set_country_flag = tariffs_on_sugar
	}
	option = {
		name = "colonial_nation.EVTOPTB100"	# Better leave it be
		set_country_flag = tariffs_on_sugar
		random_list = {
			33 = { add_adm_power = 10 }
			33 = { add_dip_power = 10 }
			33 = { add_mil_power = 10 }
		}
	}
}

# Tariffs on Sugar
country_event = {
	id = colonial_nation.133
	title = "colonial_nation.EVTNAME132"
	desc = "colonial_nation.EVTDESC133"
	picture = TRADE_GOODS_PLANTATION_GOODS_IN_WAREHOUSE_eventPicture

	is_triggered_only = yes
	
	option = {
		name = "colonial_nation.EVTOPTA133"	# Perhaps we should throw the sugar into the sea instead...
		add_tariff_value = 0.05
	}
}

# Tariffs on Tobacco
country_event = {
	id = colonial_nation.134
	title = "colonial_nation.EVTNAME134"
	desc = "colonial_nation.EVTDESC134"
	picture = TRADE_GOODS_PLANTATION_GOODS_IN_WAREHOUSE_eventPicture

	is_triggered_only = yes
	
	trigger = {
		OR = {
			NOT = { has_country_flag = tariffs_on_tobacco }
			had_country_flag = { flag = tariffs_on_tobacco days = 7300 }
		}
		any_subject_country = {
			is_colonial_nation_of = ROOT
			any_owned_province = {
				trade_goods = tobacco
			}
		}
	}
	
	mean_time_to_happen = {
		days = 1
		modifier = {
			factor = 1.25
			any_subject_country = {
				is_colonial_nation_of = ROOT
				tobacco = 3
			}
		}
		modifier = {
			factor = 1.25
			any_subject_country = {
				is_colonial_nation_of = ROOT
				tobacco = 5
			}
		}
		modifier = {
			factor = 1.25
			any_subject_country = {
				is_colonial_nation_of = ROOT
				tobacco = 7
			}
		}
	}
	
	option = {
		name = "colonial_nation.EVTOPTA100"	# Tax it!
		random_country = {
			limit = {
				is_colonial_nation_of = ROOT
				any_owned_province = {
					trade_goods = tobacco
				}
			}
			tooltip = {
				add_tariff_value = 0.05
			}
			hidden_effect = {
				country_event = { id = colonial_nation.135 days = 1 }
			}
		}
		set_country_flag = tariffs_on_tobacco
	}
	option = {
		name = "colonial_nation.EVTOPTB100"	# Better leave it be
		set_country_flag = tariffs_on_tobacco
		random_list = {
			33 = { add_adm_power = 10 }
			33 = { add_dip_power = 10 }
			33 = { add_mil_power = 10 }
		}
	}
}

# Tariffs on Tobacco
country_event = {
	id = colonial_nation.135
	title = "colonial_nation.EVTNAME134"
	desc = "colonial_nation.EVTDESC135"
	picture = TRADE_GOODS_PLANTATION_GOODS_IN_WAREHOUSE_eventPicture

	is_triggered_only = yes
	
	option = {
		name = "colonial_nation.EVTOPTA135"	# Perhaps we should throw the tobacco into the sea instead...
		add_tariff_value = 0.05
	}
}

# Tariffs on Cocoa
country_event = {
	id = colonial_nation.136
	title = "colonial_nation.EVTNAME136"
	desc = "colonial_nation.EVTDESC136"
	picture = TRADE_GOODS_PLANTATION_GOODS_IN_WAREHOUSE_eventPicture

	is_triggered_only = yes
	
	trigger = {
		OR = {
			NOT = { has_country_flag = tariffs_on_cocoa }
			had_country_flag = { flag = tariffs_on_cocoa days = 7300 }
		}
		any_subject_country = {
			is_colonial_nation_of = ROOT
			any_owned_province = {
				trade_goods = cocoa
			}
		}
	}
	
	mean_time_to_happen = {
		days = 1
		modifier = {
			factor = 1.25
			any_subject_country = {
				is_colonial_nation_of = ROOT
				cocoa = 3
			}
		}
		modifier = {
			factor = 1.25
			any_subject_country = {
				is_colonial_nation_of = ROOT
				cocoa = 5
			}
		}
		modifier = {
			factor = 1.25
			any_subject_country = {
				is_colonial_nation_of = ROOT
				cocoa = 7
			}
		}
	}
	
	option = {
		name = "colonial_nation.EVTOPTA100"	# Tax it!
		random_country = {
			limit = {
				is_colonial_nation_of = ROOT
				any_owned_province = {
					trade_goods = cocoa
				}
			}
			tooltip = {
				add_tariff_value = 0.05
			}
			hidden_effect = {
				country_event = { id = colonial_nation.137 days = 1 }
			}
		}
		set_country_flag = tariffs_on_cocoa
	}
	option = {
		name = "colonial_nation.EVTOPTB100"	# Better leave it be
		set_country_flag = tariffs_on_cocoa
		random_list = {
			33 = { add_adm_power = 10 }
			33 = { add_dip_power = 10 }
			33 = { add_mil_power = 10 }
		}
	}
}

# Tariffs on Cocoa
country_event = {
	id = colonial_nation.137
	title = "colonial_nation.EVTNAME136"
	desc = "colonial_nation.EVTDESC137"
	picture = TRADE_GOODS_PLANTATION_GOODS_IN_WAREHOUSE_eventPicture

	is_triggered_only = yes
	
	option = {
		name = "colonial_nation.EVTOPTA137"	# Perhaps we should throw the cocoa into the sea instead...
		add_tariff_value = 0.05
	}
}

# Smuggling of Grain
country_event = {
	id = colonial_nation.140
	title = "colonial_nation.EVTNAME140"
	desc = "colonial_nation.EVTDESC140"
	picture = TRADEGOODS_eventPicture

	is_triggered_only = yes
	
	trigger = {
		is_colonial_nation = yes
		has_country_flag = tariffs_on_grain
		NOT = { has_country_modifier = smuggling_of_grain }
		tariff_value = 0.01
		any_owned_province = {
			trade_goods = grain
		}
	}
	
	mean_time_to_happen = {
		days = 1
		modifier = {
			factor = 1.25
			grain = 3
		}
		modifier = {
			factor = 1.25
			grain = 5
		}
		modifier = {
			factor = 1.25
			grain = 7
		}
	}
	
	option = {
		name = "colonial_nation.EVTOPTA140"	# Send a delegation
		add_dip_power = -50
		colonial_parent = {
			country_event = { id = colonial_nation.141 days = 30 tooltip = "send_trade_delegation" }
		}
	}
	option = {
		name = "colonial_nation.EVTOPTB140"	# Let them smuggle
		add_tariff_value = -0.01
		add_country_modifier = {
			name = "smuggling_of_grain"
			duration = 3650
		}
	}
}

# Smuggling of Grain
country_event = {
	id = colonial_nation.141
	title = "colonial_nation.EVTNAME140"
	desc = "colonial_nation.EVTDESC141"
	picture = TRADEGOODS_eventPicture

	is_triggered_only = yes
	
	option = {
		name = "colonial_nation.EVTOPTA141"	# Send the demand!
		FROM = {
			tooltip = {
				add_liberty_desire = 5
			}
			hidden_effect = {
				country_event = { id = colonial_nation.180 days = 1 }
			}
		}
	}
	option = {
		name = "colonial_nation.EVTOPTB141"	# Lift the tariff
		FROM = {
			tooltip = {
				add_liberty_desire = -5
				add_tariff_value = -0.01
			}
			hidden_effect = {
				clr_country_flag = tariffs_on_grain
				country_event = { id = colonial_nation.181 days = 1 }
			}
		}
	}
}

# Smuggling of Wine
country_event = {
	id = colonial_nation.142
	title = "colonial_nation.EVTNAME142"
	desc = "colonial_nation.EVTDESC142"
	picture = TRADEGOODS_eventPicture

	is_triggered_only = yes
	
	trigger = {
		is_colonial_nation = yes
		has_country_flag = tariffs_on_wine
		NOT = { has_country_modifier = smuggling_of_wine }
		tariff_value = 0.01
		any_owned_province = {
			trade_goods = wine
		}
	}
	
	mean_time_to_happen = {
		days = 1
		modifier = {
			factor = 1.25
			wine = 3
		}
		modifier = {
			factor = 1.25
			wine = 5
		}
		modifier = {
			factor = 1.25
			wine = 7
		}
	}
	
	option = {
		name = "colonial_nation.EVTOPTA140"	# Send a delegation
		add_dip_power = -50
		colonial_parent = {
			country_event = { id = colonial_nation.143 days = 30 tooltip = "send_trade_delegation" }
		}
	}
	option = {
		name = "colonial_nation.EVTOPTB140"	# Let them smuggle
		add_tariff_value = -0.01
		add_country_modifier = {
			name = "smuggling_of_wine"
			duration = 3650
		}
	}
}

# Smuggling of Wine
country_event = {
	id = colonial_nation.143
	title = "colonial_nation.EVTNAME142"
	desc = "colonial_nation.EVTDESC143"
	picture = TRADEGOODS_eventPicture

	is_triggered_only = yes
	
	option = {
		name = "colonial_nation.EVTOPTA141"	# Send the demand!
		FROM = {
			tooltip = {
				add_liberty_desire = 5
			}
			hidden_effect = {
				country_event = { id = colonial_nation.180 days = 1 }
			}
		}
	}
	option = {
		name = "colonial_nation.EVTOPTB141"	# Lift the tariff
		FROM = {
			tooltip = {
				add_liberty_desire = -5
				add_tariff_value = -0.01
			}
			hidden_effect = {
				clr_country_flag = tariffs_on_wine
				country_event = { id = colonial_nation.181 days = 1 }
			}
		}
	}
}

# Smuggling of Wool
country_event = {
	id = colonial_nation.144
	title = "colonial_nation.EVTNAME144"
	desc = "colonial_nation.EVTDESC144"
	picture = TRADEGOODS_eventPicture

	is_triggered_only = yes
	
	trigger = {
		is_colonial_nation = yes
		has_country_flag = tariffs_on_wool
		NOT = { has_country_modifier = smuggling_of_wool }
		tariff_value = 0.01
		any_owned_province = {
			trade_goods = wool
		}
	}
	
	mean_time_to_happen = {
		days = 1
		modifier = {
			factor = 1.25
			wool = 3
		}
		modifier = {
			factor = 1.25
			wool = 5
		}
		modifier = {
			factor = 1.25
			wool = 7
		}
	}
	
	option = {
		name = "colonial_nation.EVTOPTA140"	# Send a delegation
		add_dip_power = -50
		colonial_parent = {
			country_event = { id = colonial_nation.145 days = 30 tooltip = "send_trade_delegation" }
		}
	}
	option = {
		name = "colonial_nation.EVTOPTB140"	# Let them smuggle
		add_tariff_value = -0.01
		add_country_modifier = {
			name = "smuggling_of_wool"
			duration = 3650
		}
	}
}

# Smuggling of Wool
country_event = {
	id = colonial_nation.145
	title = "colonial_nation.EVTNAME144"
	desc = "colonial_nation.EVTDESC145"
	picture = TRADEGOODS_eventPicture

	is_triggered_only = yes
	
	option = {
		name = "colonial_nation.EVTOPTA141"	# Send the demand!
		FROM = {
			tooltip = {
				add_liberty_desire = 5
			}
			hidden_effect = {
				country_event = { id = colonial_nation.180 days = 1 }
			}
		}
	}
	option = {
		name = "colonial_nation.EVTOPTB141"	# Lift the tariff
		FROM = {
			tooltip = {
				add_liberty_desire = -5
				add_tariff_value = -0.01
			}
			hidden_effect = {
				clr_country_flag = tariffs_on_wool
				country_event = { id = colonial_nation.181 days = 1 }
			}
		}
	}
}

# Smuggling of Cloth
country_event = {
	id = colonial_nation.146
	title = "colonial_nation.EVTNAME146"
	desc = "colonial_nation.EVTDESC146"
	picture = TRADEGOODS_eventPicture

	is_triggered_only = yes
	
	trigger = {
		is_colonial_nation = yes
		has_country_flag = tariffs_on_cloth
		NOT = { has_country_modifier = smuggling_of_cloth }
		tariff_value = 0.01
		any_owned_province = {
			trade_goods = cloth
		}
	}
	
	mean_time_to_happen = {
		days = 1
		modifier = {
			factor = 1.25
			cloth = 3
		}
		modifier = {
			factor = 1.25
			cloth = 5
		}
		modifier = {
			factor = 1.25
			cloth = 7
		}
	}
	
	option = {
		name = "colonial_nation.EVTOPTA140"	# Send a delegation
		add_dip_power = -50
		colonial_parent = {
			country_event = { id = colonial_nation.147 days = 30 tooltip = "send_trade_delegation" }
		}
	}
	option = {
		name = "colonial_nation.EVTOPTB140"	# Let them smuggle
		add_tariff_value = -0.05
		add_country_modifier = {
			name = "smuggling_of_cloth"
			duration = 3650
		}
	}
}

# Smuggling of Cloth
country_event = {
	id = colonial_nation.147
	title = "colonial_nation.EVTNAME146"
	desc = "colonial_nation.EVTDESC147"
	picture = TRADEGOODS_eventPicture

	is_triggered_only = yes
	
	option = {
		name = "colonial_nation.EVTOPTA141"	# Send the demand!
		FROM = {
			tooltip = {
				add_liberty_desire = 5
			}
			hidden_effect = {
				country_event = { id = colonial_nation.180 days = 1 }
			}
		}
	}
	option = {
		name = "colonial_nation.EVTOPTB141"	# Lift the tariff
		FROM = {
			tooltip = {
				add_liberty_desire = -5
				add_tariff_value = -0.01
			}
			hidden_effect = {
				clr_country_flag = tariffs_on_cloth
				country_event = { id = colonial_nation.181 days = 1 }
			}
		}
	}
}

# Smuggling of Fish
country_event = {
	id = colonial_nation.148
	title = "colonial_nation.EVTNAME148"
	desc = "colonial_nation.EVTDESC148"
	picture = TRADE_GOODS_FURS_FISH_AND_SALT_eventPicture

	is_triggered_only = yes
	
	trigger = {
		is_colonial_nation = yes
		has_country_flag = tariffs_on_fish
		NOT = { has_country_modifier = smuggling_of_fish }
		tariff_value = 0.01
		any_owned_province = {
			trade_goods = fish
		}
	}
	
	mean_time_to_happen = {
		days = 1
		modifier = {
			factor = 1.25
			fish = 3
		}
		modifier = {
			factor = 1.25
			fish = 5
		}
		modifier = {
			factor = 1.25
			fish = 7
		}
	}
	
	option = {
		name = "colonial_nation.EVTOPTA140"	# Send a delegation
		add_dip_power = -50
		colonial_parent = {
			country_event = { id = colonial_nation.149 days = 30 tooltip = "send_trade_delegation" }
		}
	}
	option = {
		name = "colonial_nation.EVTOPTB140"	# Let them smuggle
		add_tariff_value = -0.01
		add_country_modifier = {
			name = "smuggling_of_fish"
			duration = 3650
		}
	}
}

# Smuggling of Fish
country_event = {
	id = colonial_nation.149
	title = "colonial_nation.EVTNAME148"
	desc = "colonial_nation.EVTDESC149"
	picture = TRADE_GOODS_FURS_FISH_AND_SALT_eventPicture

	is_triggered_only = yes
	
	option = {
		name = "colonial_nation.EVTOPTA141"	# Send the demand!
		FROM = {
			tooltip = {
				add_liberty_desire = 5
			}
			hidden_effect = {
				country_event = { id = colonial_nation.180 days = 1 }
			}
		}
	}
	option = {
		name = "colonial_nation.EVTOPTB141"	# Lift the tariff
		FROM = {
			tooltip = {
				add_liberty_desire = -5
				add_tariff_value = -0.01
			}
			hidden_effect = {
				clr_country_flag = tariffs_on_fish
				country_event = { id = colonial_nation.181 days = 1 }
			}
		}
	}
}

# Smuggling of Fur
country_event = {
	id = colonial_nation.150
	title = "colonial_nation.EVTNAME150"
	desc = "colonial_nation.EVTDESC150"
	picture = TRADE_GOODS_FURS_FISH_AND_SALT_eventPicture

	is_triggered_only = yes
	
	trigger = {
		is_colonial_nation = yes
		has_country_flag = tariffs_on_fur
		NOT = { has_country_modifier = smuggling_of_fur }
		tariff_value = 0.01
		any_owned_province = {
			trade_goods = fur
		}
	}
	
	mean_time_to_happen = {
		days = 1
		modifier = {
			factor = 1.25
			fur = 3
		}
		modifier = {
			factor = 1.25
			fur = 5
		}
		modifier = {
			factor = 1.25
			fur = 7
		}
	}
	
	option = {
		name = "colonial_nation.EVTOPTA140"	# Send a delegation
		add_dip_power = -50
		colonial_parent = {
			country_event = { id = colonial_nation.151 days = 30 tooltip = "send_trade_delegation" }
		}
	}
	option = {
		name = "colonial_nation.EVTOPTB140"	# Let them smuggle
		add_tariff_value = -0.01
		add_country_modifier = {
			name = "smuggling_of_fur"
			duration = 3650
		}
	}
}

# Smuggling of Fur
country_event = {
	id = colonial_nation.151
	title = "colonial_nation.EVTNAME150"
	desc = "colonial_nation.EVTDESC151"
	picture = TRADE_GOODS_FURS_FISH_AND_SALT_eventPicture

	is_triggered_only = yes
	
	option = {
		name = "colonial_nation.EVTOPTA141"	# Send the demand!
		FROM = {
			tooltip = {
				add_liberty_desire = 5
			}
			hidden_effect = {
				country_event = { id = colonial_nation.180 days = 1 }
			}
		}
	}
	option = {
		name = "colonial_nation.EVTOPTB141"	# Lift the tariff
		FROM = {
			tooltip = {
				add_liberty_desire = -5
				add_tariff_value = -0.01
			}
			hidden_effect = {
				clr_country_flag = tariffs_on_fur
				country_event = { id = colonial_nation.181 days = 1 }
			}
		}
	}
}

# Smuggling of Salt
country_event = {
	id = colonial_nation.152
	title = "colonial_nation.EVTNAME152"
	desc = "colonial_nation.EVTDESC152"
	picture = TRADE_GOODS_FURS_FISH_AND_SALT_eventPicture

	is_triggered_only = yes
	
	trigger = {
		is_colonial_nation = yes
		has_country_flag = tariffs_on_salt
		NOT = { has_country_modifier = smuggling_of_salt }
		tariff_value = 0.01
		any_owned_province = {
			trade_goods = salt
		}
	}
	
	mean_time_to_happen = {
		days = 1
		modifier = {
			factor = 1.25
			salt = 3
		}
		modifier = {
			factor = 1.25
			salt = 5
		}
		modifier = {
			factor = 1.25
			salt = 7
		}
	}
	
	option = {
		name = "colonial_nation.EVTOPTA140"	# Send a delegation
		add_dip_power = -50
		colonial_parent = {
			country_event = { id = colonial_nation.153 days = 30 tooltip = "send_trade_delegation" }
		}
	}
	option = {
		name = "colonial_nation.EVTOPTB140"	# Let them smuggle
		add_tariff_value = -0.01
		add_country_modifier = {
			name = "smuggling_of_salt"
			duration = 3650
		}
	}
}

# Smuggling of Salt
country_event = {
	id = colonial_nation.153
	title = "colonial_nation.EVTNAME152"
	desc = "colonial_nation.EVTDESC153"
	picture = TRADE_GOODS_FURS_FISH_AND_SALT_eventPicture

	is_triggered_only = yes
	
	option = {
		name = "colonial_nation.EVTOPTA141"	# Send the demand!
		FROM = {
			tooltip = {
				add_liberty_desire = 5
			}
			hidden_effect = {
				country_event = { id = colonial_nation.180 days = 1 }
			}
		}
	}
	option = {
		name = "colonial_nation.EVTOPTB141"	# Lift the tariff
		FROM = {
			tooltip = {
				add_liberty_desire = -5
				add_tariff_value = -0.01
			}
			hidden_effect = {
				clr_country_flag = tariffs_on_salt
				country_event = { id = colonial_nation.181 days = 1 }
			}
		}
	}
}

# Smuggling of Naval Supplies
country_event = {
	id = colonial_nation.154
	title = "colonial_nation.EVTNAME154"
	desc = "colonial_nation.EVTDESC154"
	picture = TRADEGOODS_eventPicture

	is_triggered_only = yes
	
	trigger = {
		is_colonial_nation = yes
		has_country_flag = tariffs_on_naval_supplies
		NOT = { has_country_modifier = smuggling_of_naval_supplies }
		tariff_value = 0.01
		any_owned_province = {
			trade_goods = naval_supplies
		}
	}
	
	mean_time_to_happen = {
		days = 1
		modifier = {
			factor = 1.25
			naval_supplies = 3
		}
		modifier = {
			factor = 1.25
			naval_supplies = 5
		}
		modifier = {
			factor = 1.25
			naval_supplies = 7
		}
	}
	
	option = {
		name = "colonial_nation.EVTOPTA140"	# Send a delegation
		add_dip_power = -50
		colonial_parent = {
			country_event = { id = colonial_nation.155 days = 30 tooltip = "send_trade_delegation" }
		}
	}
	option = {
		name = "colonial_nation.EVTOPTB140"	# Let them smuggle
		add_tariff_value = -0.01
		add_country_modifier = {
			name = "smuggling_of_naval_supplies"
			duration = 3650
		}
	}
}

# Smuggling of Naval Supplies
country_event = {
	id = colonial_nation.155
	title = "colonial_nation.EVTNAME154"
	desc = "colonial_nation.EVTDESC155"
	picture = TRADEGOODS_eventPicture

	is_triggered_only = yes
	
	option = {
		name = "colonial_nation.EVTOPTA141"	# Send the demand!
		FROM = {
			tooltip = {
				add_liberty_desire = 5
			}
			hidden_effect = {
				country_event = { id = colonial_nation.180 days = 1 }
			}
		}
	}
	option = {
		name = "colonial_nation.EVTOPTB141"	# Lift the tariff
		FROM = {
			tooltip = {
				add_liberty_desire = -5
				add_tariff_value = -0.01
			}
			hidden_effect = {
				clr_country_flag = tariffs_on_naval_supplies
				country_event = { id = colonial_nation.181 days = 1 }
			}
		}
	}
}

# Smuggling of Copper
country_event = {
	id = colonial_nation.156
	title = "colonial_nation.EVTNAME156"
	desc = "colonial_nation.EVTDESC156"
	picture = TRADE_GOODS_METALS_AND_MINING_EQUIPENT_eventPicture

	is_triggered_only = yes
	
	trigger = {
		is_colonial_nation = yes
		has_country_flag = tariffs_on_copper
		NOT = { has_country_modifier = smuggling_of_copper }
		tariff_value = 0.01
		any_owned_province = {
			trade_goods = copper
		}
	}
	
	mean_time_to_happen = {
		days = 1
		modifier = {
			factor = 1.25
			copper = 3
		}
		modifier = {
			factor = 1.25
			copper = 5
		}
		modifier = {
			factor = 1.25
			copper = 7
		}
	}
	
	option = {
		name = "colonial_nation.EVTOPTA140"	# Send a delegation
		add_dip_power = -50
		colonial_parent = {
			country_event = { id = colonial_nation.157 days = 30 tooltip = "send_trade_delegation" }
		}
	}
	option = {
		name = "colonial_nation.EVTOPTB140"	# Let them smuggle
		add_tariff_value = -0.01
		add_country_modifier = {
			name = "smuggling_of_copper"
			duration = 3650
		}
	}
}

# Smuggling of Copper
country_event = {
	id = colonial_nation.157
	title = "colonial_nation.EVTNAME156"
	desc = "colonial_nation.EVTDESC157"
	picture = TRADE_GOODS_METALS_AND_MINING_EQUIPENT_eventPicture

	is_triggered_only = yes
	
	option = {
		name = "colonial_nation.EVTOPTA141"	# Send the demand!
		FROM = {
			tooltip = {
				add_liberty_desire = 5
			}
			hidden_effect = {
				country_event = { id = colonial_nation.180 days = 1 }
			}
		}
	}
	option = {
		name = "colonial_nation.EVTOPTB141"	# Lift the tariff
		FROM = {
			tooltip = {
				add_liberty_desire = -5
				add_tariff_value = -0.01
			}
			hidden_effect = {
				clr_country_flag = tariffs_on_copper
				country_event = { id = colonial_nation.181 days = 1 }
			}
		}
	}
}

# Smuggling of Iron
country_event = {
	id = colonial_nation.158
	title = "colonial_nation.EVTNAME158"
	desc = "colonial_nation.EVTDESC158"
	picture = TRADE_GOODS_METALS_AND_MINING_EQUIPENT_eventPicture

	is_triggered_only = yes
	
	trigger = {
		is_colonial_nation = yes
		has_country_flag = tariffs_on_iron
		NOT = { has_country_modifier = smuggling_of_iron }
		tariff_value = 0.01
		any_owned_province = {
			trade_goods = iron
		}
	}
	
	mean_time_to_happen = {
		days = 1
		modifier = {
			factor = 1.25
			iron = 3
		}
		modifier = {
			factor = 1.25
			iron = 5
		}
		modifier = {
			factor = 1.25
			iron = 7
		}
	}
	
	option = {
		name = "colonial_nation.EVTOPTA140"	# Send a delegation
		add_dip_power = -50
		colonial_parent = {
			country_event = { id = colonial_nation.159 days = 30 tooltip = "send_trade_delegation" }
		}
	}
	option = {
		name = "colonial_nation.EVTOPTB140"	# Let them smuggle
		add_tariff_value = -0.01
		add_country_modifier = {
			name = "smuggling_of_iron"
			duration = 3650
		}
	}
}

# Smuggling of Iron
country_event = {
	id = colonial_nation.159
	title = "colonial_nation.EVTNAME158"
	desc = "colonial_nation.EVTDESC159"
	picture = TRADE_GOODS_METALS_AND_MINING_EQUIPENT_eventPicture

	is_triggered_only = yes
	
	option = {
		name = "colonial_nation.EVTOPTA141"	# Send the demand!
		FROM = {
			tooltip = {
				add_liberty_desire = 5
			}
			hidden_effect = {
				country_event = { id = colonial_nation.180 days = 1 }
			}
		}
	}
	option = {
		name = "colonial_nation.EVTOPTB141"	# Lift the tariff
		FROM = {
			tooltip = {
				add_liberty_desire = -5
				add_tariff_value = -0.01
			}
			hidden_effect = {
				clr_country_flag = tariffs_on_iron
				country_event = { id = colonial_nation.181 days = 1 }
			}
		}
	}
}

# Smuggling of Ivory
country_event = {
	id = colonial_nation.160
	title = "colonial_nation.EVTNAME160"
	desc = "colonial_nation.EVTDESC160"
	picture = TRADEGOODS_eventPicture

	is_triggered_only = yes
	
	trigger = {
		is_colonial_nation = yes
		has_country_flag = tariffs_on_ivory
		NOT = { has_country_modifier = smuggling_of_ivory }
		tariff_value = 0.01
		any_owned_province = {
			trade_goods = ivory
		}
	}
	
	mean_time_to_happen = {
		days = 1
		modifier = {
			factor = 1.25
			ivory = 3
		}
		modifier = {
			factor = 1.25
			ivory = 5
		}
		modifier = {
			factor = 1.25
			ivory = 7
		}
	}
	
	option = {
		name = "colonial_nation.EVTOPTA140"	# Send a delegation
		add_dip_power = -50
		colonial_parent = {
			country_event = { id = colonial_nation.161 days = 30 tooltip = "send_trade_delegation" }
		}
	}
	option = {
		name = "colonial_nation.EVTOPTB140"	# Let them smuggle
		add_tariff_value = -0.01
		add_country_modifier = {
			name = "smuggling_of_ivory"
			duration = 3650
		}
	}
}

# Smuggling of Ivory
country_event = {
	id = colonial_nation.161
	title = "colonial_nation.EVTNAME160"
	desc = "colonial_nation.EVTDESC161"
	picture = TRADEGOODS_eventPicture

	is_triggered_only = yes
	
	option = {
		name = "colonial_nation.EVTOPTA141"	# Send the demand!
		FROM = {
			tooltip = {
				add_liberty_desire = 5
			}
			hidden_effect = {
				country_event = { id = colonial_nation.180 days = 1 }
			}
		}
	}
	option = {
		name = "colonial_nation.EVTOPTB141"	# Lift the tariff
		FROM = {
			tooltip = {
				add_liberty_desire = -5
				add_tariff_value = -0.01
			}
			hidden_effect = {
				clr_country_flag = tariffs_on_ivory
				country_event = { id = colonial_nation.181 days = 1 }
			}
		}
	}
}

# Smuggling of Tea
country_event = {
	id = colonial_nation.162
	title = "colonial_nation.EVTNAME162"
	desc = "colonial_nation.EVTDESC162"
	picture = TRADE_GOODS_PLANTATION_GOODS_IN_WAREHOUSE_eventPicture

	is_triggered_only = yes
	
	trigger = {
		is_colonial_nation = yes
		has_country_flag = tariffs_on_tea
		NOT = { has_country_modifier = smuggling_of_tea }
		tariff_value = 0.01
		any_owned_province = {
			trade_goods = tea
		}
	}
	
	mean_time_to_happen = {
		days = 1
		modifier = {
			factor = 1.25
			tea = 3
		}
		modifier = {
			factor = 1.25
			tea = 5
		}
		modifier = {
			factor = 1.25
			tea = 7
		}
	}
	
	option = {
		name = "colonial_nation.EVTOPTA140"	# Send a delegation
		add_dip_power = -50
		colonial_parent = {
			country_event = { id = colonial_nation.163 days = 30 tooltip = "send_trade_delegation" }
		}
	}
	option = {
		name = "colonial_nation.EVTOPTB140"	# Let them smuggle
		add_tariff_value = -0.01
		add_country_modifier = {
			name = "smuggling_of_tea"
			duration = 3650
		}
	}
}

# Smuggling of Tea
country_event = {
	id = colonial_nation.163
	title = "colonial_nation.EVTNAME162"
	desc = "colonial_nation.EVTDESC163"
	picture = TRADE_GOODS_PLANTATION_GOODS_IN_WAREHOUSE_eventPicture

	is_triggered_only = yes
	
	option = {
		name = "colonial_nation.EVTOPTA141"	# Send the demand!
		FROM = {
			tooltip = {
				add_liberty_desire = 5
			}
			hidden_effect = {
				country_event = { id = colonial_nation.180 days = 1 }
			}
		}
	}
	option = {
		name = "colonial_nation.EVTOPTB141"	# Lift the tariff
		FROM = {
			tooltip = {
				add_liberty_desire = -5
				add_tariff_value = -0.01
			}
			hidden_effect = {
				clr_country_flag = tariffs_on_tea
				country_event = { id = colonial_nation.181 days = 1 }
			}
		}
	}
}

# Smuggling of Chinaware
country_event = {
	id = colonial_nation.164
	title = "colonial_nation.EVTNAME164"
	desc = "colonial_nation.EVTDESC164"
	picture = TRADE_GOODS_PLANTATION_GOODS_IN_WAREHOUSE_eventPicture

	is_triggered_only = yes
	
	trigger = {
		is_colonial_nation = yes
		has_country_flag = tariffs_on_chinaware
		NOT = { has_country_modifier = smuggling_of_chinaware }
		tariff_value = 0.01
		any_owned_province = {
			trade_goods = chinaware
		}
	}
	
	mean_time_to_happen = {
		days = 1
		modifier = {
			factor = 1.25
			chinaware = 3
		}
		modifier = {
			factor = 1.25
			chinaware = 5
		}
		modifier = {
			factor = 1.25
			chinaware = 7
		}
	}
	
	option = {
		name = "colonial_nation.EVTOPTA140"	# Send a delegation
		add_dip_power = -50
		colonial_parent = {
			country_event = { id = colonial_nation.165 days = 30 tooltip = "send_trade_delegation" }
		}
	}
	option = {
		name = "colonial_nation.EVTOPTB140"	# Let them smuggle
		add_tariff_value = -0.01
		add_country_modifier = {
			name = "smuggling_of_chinaware"
			duration = 3650
		}
	}
}

# Smuggling of Chinaware
country_event = {
	id = colonial_nation.165
	title = "colonial_nation.EVTNAME164"
	desc = "colonial_nation.EVTDESC165"
	picture = TRADE_GOODS_PLANTATION_GOODS_IN_WAREHOUSE_eventPicture

	is_triggered_only = yes
	
	option = {
		name = "colonial_nation.EVTOPTA141"	# Send the demand!
		FROM = {
			tooltip = {
				add_liberty_desire = 5
			}
			hidden_effect = {
				country_event = { id = colonial_nation.180 days = 1 }
			}
		}
	}
	option = {
		name = "colonial_nation.EVTOPTB141"	# Lift the tariff
		FROM = {
			tooltip = {
				add_liberty_desire = -5
				add_tariff_value = -0.01
			}
			hidden_effect = {
				clr_country_flag = tariffs_on_chinaware
				country_event = { id = colonial_nation.181 days = 1 }
			}
		}
	}
}

# Smuggling of Spices
country_event = {
	id = colonial_nation.166
	title = "colonial_nation.EVTNAME166"
	desc = "colonial_nation.EVTDESC166"
	picture = TRADE_GOODS_PLANTATION_GOODS_IN_WAREHOUSE_eventPicture

	is_triggered_only = yes
	
	trigger = {
		is_colonial_nation = yes
		has_country_flag = tariffs_on_spices
		NOT = { has_country_modifier = smuggling_of_spices }
		tariff_value = 0.01
		any_owned_province = {
			trade_goods = spices
		}
	}
	
	mean_time_to_happen = {
		days = 1
		modifier = {
			factor = 1.25
			spices = 3
		}
		modifier = {
			factor = 1.25
			spices = 5
		}
		modifier = {
			factor = 1.25
			spices = 7
		}
	}
	
	option = {
		name = "colonial_nation.EVTOPTA140"	# Send a delegation
		add_dip_power = -50
		colonial_parent = {
			country_event = { id = colonial_nation.167 days = 30 tooltip = "send_trade_delegation" }
		}
	}
	option = {
		name = "colonial_nation.EVTOPTB140"	# Let them smuggle
		add_tariff_value = -0.01
		add_country_modifier = {
			name = "smuggling_of_spices"
			duration = 3650
		}
	}
}

# Smuggling of Spices
country_event = {
	id = colonial_nation.167
	title = "colonial_nation.EVTNAME166"
	desc = "colonial_nation.EVTDESC167"
	picture = TRADE_GOODS_PLANTATION_GOODS_IN_WAREHOUSE_eventPicture

	is_triggered_only = yes
	
	option = {
		name = "colonial_nation.EVTOPTA141"	# Send the demand!
		FROM = {
			tooltip = {
				add_liberty_desire = 5
			}
			hidden_effect = {
				country_event = { id = colonial_nation.180 days = 1 }
			}
		}
	}
	option = {
		name = "colonial_nation.EVTOPTB141"	# Lift the tariff
		FROM = {
			tooltip = {
				add_liberty_desire = -5
				add_tariff_value = -0.01
			}
			hidden_effect = {
				clr_country_flag = tariffs_on_spices
				country_event = { id = colonial_nation.181 days = 1 }
			}
		}
	}
}

# Smuggling of Coffee
country_event = {
	id = colonial_nation.168
	title = "colonial_nation.EVTNAME168"
	desc = "colonial_nation.EVTDESC168"
	picture = TRADE_GOODS_PLANTATION_GOODS_IN_WAREHOUSE_eventPicture

	is_triggered_only = yes
	
	trigger = {
		is_colonial_nation = yes
		has_country_flag = tariffs_on_coffee
		NOT = { has_country_modifier = smuggling_of_coffee }
		tariff_value = 0.01
		any_owned_province = {
			trade_goods = coffee
		}
	}
	
	mean_time_to_happen = {
		days = 1
		modifier = {
			factor = 1.25
			coffee = 3
		}
		modifier = {
			factor = 1.25
			coffee = 5
		}
		modifier = {
			factor = 1.25
			coffee = 7
		}
	}
	
	option = {
		name = "colonial_nation.EVTOPTA140"	# Send a delegation
		add_dip_power = -50
		colonial_parent = {
			country_event = { id = colonial_nation.169 days = 30 tooltip = "send_trade_delegation" }
		}
	}
	option = {
		name = "colonial_nation.EVTOPTB140"	# Let them smuggle
		add_tariff_value = -0.01
		add_country_modifier = {
			name = "smuggling_of_coffee"
			duration = 3650
		}
	}
}

# Smuggling of Coffee
country_event = {
	id = colonial_nation.169
	title = "colonial_nation.EVTNAME168"
	desc = "colonial_nation.EVTDESC169"
	picture = TRADE_GOODS_PLANTATION_GOODS_IN_WAREHOUSE_eventPicture

	is_triggered_only = yes
	
	option = {
		name = "colonial_nation.EVTOPTA141"	# Send the demand!
		FROM = {
			tooltip = {
				add_liberty_desire = 5
			}
			hidden_effect = {
				country_event = { id = colonial_nation.180 days = 1 }
			}
		}
	}
	option = {
		name = "colonial_nation.EVTOPTB141"	# Lift the tariff
		FROM = {
			tooltip = {
				add_liberty_desire = -5
				add_tariff_value = -0.01
			}
			hidden_effect = {
				clr_country_flag = tariffs_on_coffee
				country_event = { id = colonial_nation.181 days = 1 }
			}
		}
	}
}

# Smuggling of Cotton
country_event = {
	id = colonial_nation.170
	title = "colonial_nation.EVTNAME170"
	desc = "colonial_nation.EVTDESC170"
	picture = TRADE_GOODS_PLANTATION_GOODS_IN_WAREHOUSE_eventPicture

	is_triggered_only = yes
	
	trigger = {
		is_colonial_nation = yes
		has_country_flag = tariffs_on_cotton
		NOT = { has_country_modifier = smuggling_of_cotton }
		tariff_value = 0.01
		any_owned_province = {
			trade_goods = cotton
		}
	}
	
	mean_time_to_happen = {
		days = 1
		modifier = {
			factor = 1.25
			cotton = 3
		}
		modifier = {
			factor = 1.25
			cotton = 5
		}
		modifier = {
			factor = 1.25
			cotton = 7
		}
	}
	
	option = {
		name = "colonial_nation.EVTOPTA140"	# Send a delegation
		add_dip_power = -50
		colonial_parent = {
			country_event = { id = colonial_nation.171 days = 30 tooltip = "send_trade_delegation" }
		}
	}
	option = {
		name = "colonial_nation.EVTOPTB140"	# Let them smuggle
		add_tariff_value = -0.01
		add_country_modifier = {
			name = "smuggling_of_cotton"
			duration = 3650
		}
	}
}

# Smuggling of Cotton
country_event = {
	id = colonial_nation.171
	title = "colonial_nation.EVTNAME170"
	desc = "colonial_nation.EVTDESC171"
	picture = TRADE_GOODS_PLANTATION_GOODS_IN_WAREHOUSE_eventPicture

	is_triggered_only = yes
	
	option = {
		name = "colonial_nation.EVTOPTA141"	# Send the demand!
		FROM = {
			tooltip = {
				add_liberty_desire = 5
			}
			hidden_effect = {
				country_event = { id = colonial_nation.180 days = 1 }
			}
		}
	}
	option = {
		name = "colonial_nation.EVTOPTB141"	# Lift the tariff
		FROM = {
			tooltip = {
				add_liberty_desire = -5
				add_tariff_value = -0.01
			}
			hidden_effect = {
				clr_country_flag = tariffs_on_cotton
				country_event = { id = colonial_nation.181 days = 1 }
			}
		}
	}
}

# Smuggling of Sugar
country_event = {
	id = colonial_nation.172
	title = "colonial_nation.EVTNAME172"
	desc = "colonial_nation.EVTDESC172"
	picture = TRADE_GOODS_PLANTATION_GOODS_IN_WAREHOUSE_eventPicture

	is_triggered_only = yes
	
	trigger = {
		is_colonial_nation = yes
		has_country_flag = tariffs_on_sugar
		NOT = { has_country_modifier = smuggling_of_sugar }
		tariff_value = 0.01
		any_owned_province = {
			trade_goods = sugar
		}
	}
	
	mean_time_to_happen = {
		days = 1
		modifier = {
			factor = 1.25
			sugar = 3
		}
		modifier = {
			factor = 1.25
			sugar = 5
		}
		modifier = {
			factor = 1.25
			sugar = 7
		}
	}
	
	option = {
		name = "colonial_nation.EVTOPTA140"	# Send a delegation
		add_dip_power = -50
		colonial_parent = {
			country_event = { id = colonial_nation.173 days = 30 tooltip = "send_trade_delegation" }
		}
	}
	option = {
		name = "colonial_nation.EVTOPTB140"	# Let them smuggle
		add_tariff_value = -0.01
		add_country_modifier = {
			name = "smuggling_of_sugar"
			duration = 3650
		}
	}
}

# Smuggling of Sugar
country_event = {
	id = colonial_nation.173
	title = "colonial_nation.EVTNAME172"
	desc = "colonial_nation.EVTDESC173"
	picture = TRADE_GOODS_PLANTATION_GOODS_IN_WAREHOUSE_eventPicture

	is_triggered_only = yes
	
	option = {
		name = "colonial_nation.EVTOPTA141"	# Send the demand!
		FROM = {
			tooltip = {
				add_liberty_desire = 5
			}
			hidden_effect = {
				country_event = { id = colonial_nation.180 days = 1 }
			}
		}
	}
	option = {
		name = "colonial_nation.EVTOPTB141"	# Lift the tariff
		FROM = {
			tooltip = {
				add_liberty_desire = -5
				add_tariff_value = -0.01
			}
			hidden_effect = {
				clr_country_flag = tariffs_on_sugar
				country_event = { id = colonial_nation.181 days = 1 }
			}
		}
	}
}

# Smuggling of Tobacco
country_event = {
	id = colonial_nation.174
	title = "colonial_nation.EVTNAME174"
	desc = "colonial_nation.EVTDESC174"
	picture = TRADE_GOODS_PLANTATION_GOODS_IN_WAREHOUSE_eventPicture

	is_triggered_only = yes
	
	trigger = {
		is_colonial_nation = yes
		has_country_flag = tariffs_on_tobacco
		NOT = { has_country_modifier = smuggling_of_tobacco }
		tariff_value = 0.01
		any_owned_province = {
			trade_goods = tobacco
		}
	}
	
	mean_time_to_happen = {
		days = 1
		modifier = {
			factor = 1.25
			tobacco = 3
		}
		modifier = {
			factor = 1.25
			tobacco = 5
		}
		modifier = {
			factor = 1.25
			tobacco = 7
		}
	}
	
	option = {
		name = "colonial_nation.EVTOPTA140"	# Send a delegation
		add_dip_power = -50
		colonial_parent = {
			country_event = { id = colonial_nation.175 days = 30 tooltip = "send_trade_delegation" }
		}
	}
	option = {
		name = "colonial_nation.EVTOPTB140"	# Let them smuggle
		add_tariff_value = -0.01
		add_country_modifier = {
			name = "smuggling_of_tobacco"
			duration = 3650
		}
	}
}

# Smuggling of Tobacco
country_event = {
	id = colonial_nation.175
	title = "colonial_nation.EVTNAME174"
	desc = "colonial_nation.EVTDESC175"
	picture = TRADE_GOODS_PLANTATION_GOODS_IN_WAREHOUSE_eventPicture

	is_triggered_only = yes
	
	option = {
		name = "colonial_nation.EVTOPTA141"	# Send the demand!
		FROM = {
			tooltip = {
				add_liberty_desire = 5
			}
			hidden_effect = {
				country_event = { id = colonial_nation.180 days = 1 }
			}
		}
	}
	option = {
		name = "colonial_nation.EVTOPTB141"	# Lift the tariff
		FROM = {
			tooltip = {
				add_liberty_desire = -5
				add_tariff_value = -0.01
			}
			hidden_effect = {
				clr_country_flag = tariffs_on_tobacco
				country_event = { id = colonial_nation.181 days = 1 }
			}
		}
	}
}


# Smuggling of Cocoa
country_event = {
	id = colonial_nation.176
	title = "colonial_nation.EVTNAME176"
	desc = "colonial_nation.EVTDESC176"
	picture = TRADE_GOODS_PLANTATION_GOODS_IN_WAREHOUSE_eventPicture

	is_triggered_only = yes
	
	trigger = {
		is_colonial_nation = yes
		has_country_flag = tariffs_on_cocoa
		NOT = { has_country_modifier = smuggling_of_cocoa }
		tariff_value = 0.01
		any_owned_province = {
			trade_goods = cocoa
		}
	}
	
	mean_time_to_happen = {
		days = 1
		modifier = {
			factor = 1.25
			cocoa = 3
		}
		modifier = {
			factor = 1.25
			cocoa = 5
		}
		modifier = {
			factor = 1.25
			cocoa = 7
		}
	}
	
	option = {
		name = "colonial_nation.EVTOPTA140"	# Send a delegation
		add_dip_power = -50
		colonial_parent = {
			country_event = { id = colonial_nation.177 days = 30 tooltip = "send_trade_delegation" }
		}
	}
	option = {
		name = "colonial_nation.EVTOPTB140"	# Let them smuggle
		add_tariff_value = -0.01
		add_country_modifier = {
			name = "smuggling_of_cocoa"
			duration = 3650
		}
	}
}

# Smuggling of Cocoa
country_event = {
	id = colonial_nation.177
	title = "colonial_nation.EVTNAME176"
	desc = "colonial_nation.EVTDESC177"
	picture = TRADE_GOODS_PLANTATION_GOODS_IN_WAREHOUSE_eventPicture

	is_triggered_only = yes
	
	option = {
		name = "colonial_nation.EVTOPTA141"	# Send the demand!
		FROM = {
			tooltip = {
				add_liberty_desire = 5
			}
			hidden_effect = {
				country_event = { id = colonial_nation.180 days = 1 }
			}
		}
	}
	option = {
		name = "colonial_nation.EVTOPTB141"	# Lift the tariff
		FROM = {
			tooltip = {
				add_liberty_desire = -5
				add_tariff_value = -0.01
			}
			hidden_effect = {
				clr_country_flag = tariffs_on_cocoa
				country_event = { id = colonial_nation.181 days = 1 }
			}
		}
	}
}

# Delegation Returns Unsuccessful
country_event = {
	id = colonial_nation.180
	title = "colonial_nation.EVTNAME180"
	desc = "colonial_nation.EVTDESC180"
	picture = REFORM_eventPicture

	is_triggered_only = yes
	
	option = {
		name = "colonial_nation.EVTOPTA180"	# This will not be popular
		add_liberty_desire = 5
	}
}

# Delegation Returns Successful
country_event = {
	id = colonial_nation.181
	title = "colonial_nation.EVTNAME181"
	desc = "colonial_nation.EVTDESC181"
	picture = REFORM_eventPicture

	is_triggered_only = yes
	
	option = {
		name = "colonial_nation.EVTOPTA181"	# Good news!
		add_liberty_desire = -5
		add_tariff_value = -0.01
	}
}
