
namespace = jaddari_missions

#Reform the Cult
country_event = {
	id = jaddari_missions.1
	title = jaddari_missions.1.t
	desc = jaddari_missions.1.d
	picture = POPE_PREACHING_eventPicture
	
	is_triggered_only = yes
	
	#Convert
	option = {
		name = jaddari_missions.1.a
		ai_chance = {
			factor = 40 
			modifier = {
				factor = 2
				NOT = {
					primary_culture = dawn_elf
					primary_culture = sun_elf
					primary_culture = zanite
					primary_culture = brasanni
					primary_culture = bahari
					primary_culture = gelkar
					primary_culture = surani
				}
			}
		}

		change_religion = the_jadd
		
		add_country_modifier = {
			name = "conversion_zeal"
			duration = 3650
		}
	}
	
	#Don't convert: Tolerant
	option = {
		name = jaddari_missions.1.b
		ai_chance = {
			factor = 30 
			modifier = {
				factor = 2
				OR = {
					primary_culture = sun_elf
					primary_culture = dawn_elf
				}
			}
		}
	
		add_country_modifier = {
			name = tolerant_society
			duration = 3650
		}
	}
	
	#Don't convert: Harsh
	option = {
		name = jaddari_missions.1.c
		ai_chance = {
			factor = 30 
			modifier = {
				factor = 2
				OR = {
					primary_culture = sun_elf
					primary_culture = dawn_elf
				}
			}
		}
		
		add_country_modifier = {
			name = intolerant_society
			duration = 3650
		}
	}
}

#A harpy march
country_event = {
	id = jaddari_missions.2
	title = jaddari_missions.2.t
	desc = jaddari_missions.2.d
	picture = WESTERNISATION_eventPicture
	
	is_triggered_only = yes
	
	#Accept
	option = {
		name = jaddari_missions.2.a
		ai_chance = { factor = 100 }
		
		2903 = {
			cede_province = F49
			add_core = F49
			remove_core = F46
		}
		2904 = {
			cede_province = F49
			add_core = F49
			remove_core = F46
		}
		2906 = {
			cede_province = F49
			add_core = F49
			remove_core = F46
		}
		2908 = {
			cede_province = F49
			add_core = F49
			remove_core = F46
		}
		2910 = {
			cede_province = F49
			add_core = F49
			remove_core = F46
		}
		2919 = {
			cede_province = F49
			add_core = F49
			remove_core = F46
		}
		2920 = {
			cede_province = F49
			add_core = F49
			remove_core = F46
		}
		2921 = {
			cede_province = F49
			add_core = F49
			remove_core = F46
		}
		4376 = {
			cede_province = F49
			add_core = F49
			remove_core = F46
		}
		F46 = { create_march = F49 }
		add_country_modifier = {
			name = jaddari_harpy_march
			duration = -1
		}
		
		hidden_effect = {
			set_country_flag = removing_monstrous
			set_variable = { monstrousPoints = 50 }
			decrease_monstrous_10 = yes
		}
		custom_tooltip = start_demonsterization
		
		hidden_effect = {
			F46 = {
				country_event = {
					id = jaddari_missions.3
					days = 1
				}
			}
		}
		
	}
	
	#Reject
	option = {
		name = jaddari_missions.2.b
		ai_chance = { factor = 0 }
	
		add_trust = {
			who = F46
			value = -25
			mutual = yes
		}
		hidden_effect = {
			F46 = {
				country_event = {
					id = jaddari_missions.4
					days = 1
				}
			}
		}
	}
}

#Elayenna accepted
country_event = {
	id = jaddari_missions.3
	title = jaddari_missions.3.t
	desc = jaddari_missions.3.d
	picture = WESTERNISATION_eventPicture
	
	is_triggered_only = yes
	
	option = {
		name = jaddari_missions.1.a
	}
}

#Elayenna refused
country_event = {
	id = jaddari_missions.4
	title = jaddari_missions.4.t
	desc = jaddari_missions.4.d
	picture = WESTERNISATION_eventPicture
	
	is_triggered_only = yes
	
	option = {
		name = jaddari_missions.4.a
		
		tooltip = {
			add_trust = {
				who = F49
				value = -25
				mutual = yes
			}
		}
	}
}

#Prep for the expedition
country_event = {
	id = jaddari_missions.5
	title = jaddari_missions.5.t
	desc = jaddari_missions.5.d
	picture = EXPLORERS_eventPicture
	
	is_triggered_only = yes
	
	immediate = { hidden_effect = { country_event = { id = jaddari_missions.6 days = 365 random = 182 } } }
	
	#This expedition will be led by our greatest warriors!
	option = {
		name = jaddari_missions.5.a
		add_manpower = -5
		add_army_tradition = -20
		add_years_of_income = -1
		
		set_country_flag = jaddari_serpentspine_expedition_great_prep
	}
	#Prepare a large and well funded expedition!
	option = {
		name = jaddari_missions.5.b
		add_manpower = -5
		add_years_of_income = -1
		
		set_country_flag = jaddari_serpentspine_expedition_good_prep
	}
	#Send a small group of adventurers
	option = {
		name = jaddari_missions.5.c
		add_manpower = -0.004
		add_years_of_income = -0.5
		
		set_country_flag = jaddari_serpentspine_expedition_no_prep
	}
}

#The goal of the expedition
country_event = {
	id = jaddari_missions.6
	title = jaddari_missions.6.t
	desc = jaddari_missions.6.d
	picture = EXPLORERS_eventPicture
	
	is_triggered_only = yes
	
	#The true enemy is hidden within the ancient holds.
	option = {
		name = jaddari_missions.6.a
		
		hidden_effect = {
			if = {
				limit = { has_country_flag = jaddari_serpentspine_expedition_great_prep }
				random_list = {
					10 = { country_event = { id = jaddari_missions.11 days = 730 random = 3650 } }
					60 = { country_event = { id = jaddari_missions.10 days = 730 random = 3650 } }
					30 = { country_event = { id = jaddari_missions.7 days = 730 random = 3650 } }
				}
			}
			if = {
				limit = { has_country_flag = jaddari_serpentspine_expedition_good_prep }
				random_list = {
					5 = { country_event = { id = jaddari_missions.11 days = 730 random = 3650 } }
					35 = { country_event = { id = jaddari_missions.10 days = 730 random = 3650 } }
					60 = { country_event = { id = jaddari_missions.7 days = 730 random = 3650 } }
				}
			}
			if = {
				limit = { has_country_flag = jaddari_serpentspine_expedition_no_prep }
				random_list = {
					20 = { country_event = { id = jaddari_missions.10 days = 730 random = 1825 } }
					80 = { country_event = { id = jaddari_missions.7 days = 730 random = 3650 } }
				}
			}
		}
	}
	#We must banish the darkness from the caves
	option = {
		name = jaddari_missions.6.b
		
		hidden_effect = {
			if = {
				limit = { has_country_flag = jaddari_serpentspine_expedition_great_prep }
				random_list = {
					90 = { country_event = { id = jaddari_missions.8 days = 730 random = 3650 } }
					10 = { country_event = { id = jaddari_missions.7 days = 730 random = 3650 } }
				}
			}
			if = {
				limit = { has_country_flag = jaddari_serpentspine_expedition_good_prep }
				random_list = {
					70 = { country_event = { id = jaddari_missions.8 days = 730 random = 3650 } }
					30 = { country_event = { id = jaddari_missions.7 days = 730 random = 3650 } }
				}
			}
			if = {
				limit = { has_country_flag = jaddari_serpentspine_expedition_no_prep }
				random_list = {
					40 = { country_event = { id = jaddari_missions.8 days = 730 random = 1825 } }
					60 = { country_event = { id = jaddari_missions.7 days = 730 random = 3650 } }
				}
			}
		}
	}
	#Explore the Dwarovrod
	option = {
		name = jaddari_missions.6.c
		
		hidden_effect = {
			if = {
				limit = { has_country_flag = jaddari_serpentspine_expedition_great_prep }
				country_event = { id = jaddari_missions.9 days = 730 random = 3650 }
			}
			if = {
				limit = { has_country_flag = jaddari_serpentspine_expedition_good_prep }
				random_list = {
					80 = { country_event = { id = jaddari_missions.9 days = 730 random = 3650 } }
					20 = { country_event = { id = jaddari_missions.7 days = 730 random = 3650 } }
				}
			}
			if = {
				limit = { has_country_flag = jaddari_serpentspine_expedition_no_prep }
				random_list = {
					60 = { country_event = { id = jaddari_missions.9 days = 730 random = 1825 } }
					40 = { country_event = { id = jaddari_missions.7 days = 730 random = 3650 } }
				}
			}
		}
	}
}

#We haven't heard anything back
country_event = {
	id = jaddari_missions.7
	title = jaddari_missions.7.t
	desc = jaddari_missions.7.d
	picture = EXPLORERS_eventPicture
	
	is_triggered_only = yes
	
	#That's very sad
	option = {
		name = jaddari_missions.7.a
		
		add_prestige = -10
	}
}

#A return from the caves with many riches!
country_event = {
	id = jaddari_missions.8
	title = jaddari_missions.8.t
	desc = jaddari_missions.8.d
	picture = EXPLORERS_eventPicture
	
	is_triggered_only = yes
	
	#Splendid!
	option = {
		name = jaddari_missions.8.a
		
		add_years_of_income = 2
		if = { limit = { has_country_flag = jaddari_serpentspine_expedition_great_prep } add_army_tradition = 25 add_manpower = 3 }
		if = { limit = { has_country_flag = jaddari_serpentspine_expedition_good_prep } add_army_tradition = 15 add_manpower = 3 }
		if = { limit = { has_country_flag = jaddari_serpentspine_expedition_good_prep } add_army_tradition = 10 add_manpower = 0.003 create_general = { tradition = 80 } }
		add_prestige = 10
	}
}

#Succesful expedition through the tunnels!
country_event = {
	id = jaddari_missions.9
	title = jaddari_missions.9.t
	desc = jaddari_missions.9.d
	picture = EXPLORERS_eventPicture
	
	is_triggered_only = yes
	
	#Splendid!
	option = {
		name = jaddari_missions.9.a
		
		add_years_of_income = 1
		if = { limit = { has_country_flag = jaddari_serpentspine_expedition_great_prep } add_army_tradition = 20 add_manpower = 4 }
		if = { limit = { has_country_flag = jaddari_serpentspine_expedition_good_prep } add_army_tradition = 10 add_manpower = 3 }
		if = { limit = { has_country_flag = jaddari_serpentspine_expedition_good_prep } add_army_tradition = 5 add_manpower = 0.003 }
		add_prestige = 5
	}
}

#Successful return from the hold!
country_event = {
	id = jaddari_missions.10
	title = jaddari_missions.10.t
	desc = jaddari_missions.10.d
	picture = EXPLORERS_eventPicture
	
	is_triggered_only = yes
	
	#Splendid!
	option = {
		name = jaddari_missions.10.a
		
		add_years_of_income = 5
		if = { limit = { has_country_flag = jaddari_serpentspine_expedition_great_prep } add_army_tradition = 25 add_manpower = 3 }
		if = { limit = { has_country_flag = jaddari_serpentspine_expedition_good_prep } add_army_tradition = 15 add_manpower = 3 }
		if = { limit = { has_country_flag = jaddari_serpentspine_expedition_good_prep } add_army_tradition = 10 add_manpower = 0.003 create_general = { tradition = 100 } }
		add_prestige = 10
	}
}

#Amazing success in the hold!
country_event = {
	id = jaddari_missions.11
	title = jaddari_missions.11.t
	desc = jaddari_missions.11.d
	picture = EXPLORERS_eventPicture
	
	is_triggered_only = yes
	
	#Splendid!
	option = {
		name = jaddari_missions.11.a
		
		add_years_of_income = 10
		add_manpower = 3
		if = { limit = { has_country_flag = jaddari_serpentspine_expedition_great_prep } add_army_tradition = 30 }
		else = { add_army_tradition = 20 }
		add_prestige = 20
	}
}

#A walk through the forest
country_event = {
	id = jaddari_missions.12
	title = jaddari_missions.12.t
	desc = jaddari_missions.12.d
	picture = EXPLORERS_eventPicture
	
	is_triggered_only = yes
	
	option = { #I have come to tell you a story
		name = jaddari_missions.12.a
		trigger = {
			OR = {
				AND = {
					OR = {
						ruler_has_personality = kind_hearted_personality
						ruler_has_personality = calm_personality
						ruler_has_personality = careful_personality
						ruler_has_personality = pious_personality
						ruler_has_personality = scholar_personality
						ruler_has_personality = charismatic_negotiator_personality
						ruler_has_personality = silver_tongue_personality
						ruler_has_personality = fierce_negotiator_personality
					}
					dip = 6
				}
				AND = {
					ruler_has_personality = mage_personality
					has_ruler_flag = enchantment_3
				}
			}
		}
		
		add_ruler_modifier = {
			name = jaddari_glamour_of_the_fey
			duration = -1
		}
		
		deepwoods_superregion = {
			add_province_modifier = {
				name = jaddari_rumours_of_the_jadd_among_the_fey
				duration = 9125
			}
		}
	}
	option = { #I have come to banish you from this place
		name = jaddari_missions.12.b
		trigger = {
			OR = {
				AND = {
					OR = {
						ruler_has_personality = zealot_personality
						ruler_has_personality = conqueror_personality
						ruler_has_personality = expansionist_personality
						ruler_has_personality = bold_fighter_personality
						ruler_has_personality = strict_personality
						ruler_has_personality = greedy_personality
						ruler_has_personality = cruel_personality
						ruler_has_personality = malevolent_personality
					}
					mil = 6
				}
				AND = {
					ruler_has_personality = mage_personality
					has_ruler_flag = abjuration_3
				}
			}
		}
		
		add_country_modifier = {
			name = jaddari_abundant_wood
			duration = 9125
		}
		
		deepwoods_superregion = {
			add_permanent_province_modifier = {
				name = jaddari_banished_the_fey
				duration = -1
			}
		}
	}
	option = { #I have merely come to see the sights
		name = jaddari_missions.12.c
		
		add_adm_power = 50
		add_dip_power = 50
		add_mil_power = 50
	}
}

### These events are available
country_event = {
	id = jaddari_missions.13
	title = jaddari_missions.13.t
	desc = jaddari_missions.13.d
	picture = PAINTER_ARTIST_eventPicture
	
	is_triggered_only = yes
	
	option = {
		name = jaddari_missions.13.a
		
		#! Available Event
	}
}
country_event = {
	id = jaddari_missions.14
	title = jaddari_missions.14.t
	desc = jaddari_missions.14.d
	picture = ARTWORK_eventPicture
	
	is_triggered_only = yes
	
	option = {
		name = jaddari_missions.14.a
		
		#! Available Event
	}
}
country_event = {
	id = jaddari_missions.15
	title = jaddari_missions.15.t
	desc = jaddari_missions.15.d
	picture = GREAT_BUILDING_eventPicture
	
	is_triggered_only = yes
	
	option = {
		name = jaddari_missions.15.a
		
		#! Available event
	}
}

### The Divine Symposium ###
#P1: The Opening
country_event = {
	id = jaddari_missions.16
	title = jaddari_missions.16.t
	desc = jaddari_missions.16.d
	picture = PAINTER_ARTIST_eventPicture
	
	is_triggered_only = yes
	
	option = { #Open with a metaphor about the army
		name = jaddari_missions.16.a
		
		add_mil_power = -10
		
		set_country_flag = speech_opening_mil_flag
		
		country_event = {
			id = jaddari_missions.17
			days = 1
		}
	}
	option = { #Speak of the building of the Jadd Empire
		name = jaddari_missions.16.b
		
		add_adm_power = -10
		
		set_country_flag = speech_opening_adm_flag
		
		country_event = {
			id = jaddari_missions.17
			days = 1
		}
	}
	option = { #Proclaim the glory of Surael
		name = jaddari_missions.16.c
		
		add_dip_power = -10
		
		set_country_flag = speech_opening_dip_flag
		
		country_event = {
			id = jaddari_missions.17
			days = 1
		}
	}
}
#P2: Argumentation
country_event = {
	id = jaddari_missions.17
	title = jaddari_missions.17.t
	picture = ARTWORK_eventPicture
	
	desc = {
		trigger = {
			has_country_flag = speech_opening_mil_flag
		}
		desc = jaddari_missions.17.da
	}
	desc = {
		trigger = {
			has_country_flag = speech_opening_adm_flag
		}
		desc = jaddari_missions.17.db
	}
	desc = {
		trigger = {
			has_country_flag = speech_opening_dip_flag
		}
		desc = jaddari_missions.17.dc
	}
	
	is_triggered_only = yes
	
	#Options as a result of opening A (MIL)
	option = { #This military is the backbone of our continuous expansion
		name = jaddari_missions.17.aa
		trigger = {
			has_country_flag = speech_opening_mil_flag
		}
		
		add_adm_power = -10
		
		set_country_flag = speech_argumentation_adm_flag
		
		country_event = { id = jaddari_missions.18 days = 1 }
	}
	option = { #As united as our military is, so are our people
		name = jaddari_missions.17.ab
		trigger = {
			has_country_flag = speech_opening_mil_flag
		}
		
		add_dip_power = -10
		
		set_country_flag = speech_argumentation_dip_flag
		
		country_event = { id = jaddari_missions.18 days = 1 }
	}
	
	#Options as a result of opening B (ADM)
	option = { #Essential to the building of a state is a good foundation for law and order
		name = jaddari_missions.17.ba
		trigger = {
			has_country_flag = speech_opening_adm_flag
		}
		
		add_mil_power = -10
		
		set_country_flag = speech_argumentation_mil_flag
		
		country_event = { id = jaddari_missions.18 days = 1 }
	}
	option = { #And as we expand, we encompass more and more cultures. This variety is an asset and we can learn from all.
		name = jaddari_missions.17.bb
		trigger = {
			has_country_flag = speech_opening_adm_flag
		}
		
		add_dip_power = -10
		
		set_country_flag = speech_argumentation_dip_flag
		
		country_event = { id = jaddari_missions.18 days = 1 }
	}
	
	#Options as a result of opening C (DIP)
	option = { #It is of the utmost importance that we keep spreading the light of Surael, both outside and within our borders.
		name = jaddari_missions.17.ca
		trigger = {
			has_country_flag = speech_opening_dip_flag
		}
		
		add_mil_power = -10
		
		set_country_flag = speech_argumentation_mil_flag
		
		country_event = { id = jaddari_missions.18 days = 1 }
	}
	option = { #Surael with the wisdom of the Jadd teaches us that all can serve under his light.
		name = jaddari_missions.17.cb
		trigger = {
			has_country_flag = speech_opening_dip_flag
		}
		
		add_adm_power = -10
		
		set_country_flag = speech_argumentation_adm_flag
		
		country_event = { id = jaddari_missions.18 days = 1 }
	}
}
#P3: Closing Line
country_event = {
	id = jaddari_missions.18
	title = jaddari_missions.18.t
	picture = GREAT_BUILDING_eventPicture
	
	desc = {
		trigger = {
			has_country_flag = speech_opening_mil_flag
			has_country_flag = speech_argumentation_adm_flag
		}
		desc = jaddari_missions.18.daa
	}
	desc = {
		trigger = {
			has_country_flag = speech_opening_mil_flag
			has_country_flag = speech_argumentation_dip_flag
		}
		desc = jaddari_missions.18.dab
	}
	desc = {
		trigger = {
			has_country_flag = speech_opening_adm_flag
			has_country_flag = speech_argumentation_mil_flag
		}
		desc = jaddari_missions.18.dba
	}
	desc = {
		trigger = {
			has_country_flag = speech_opening_adm_flag
			has_country_flag = speech_argumentation_dip_flag
		}
		desc = jaddari_missions.18.dbb
	}
	desc = {
		trigger = {
			has_country_flag = speech_opening_dip_flag
			has_country_flag = speech_argumentation_mil_flag
		}
		desc = jaddari_missions.18.dca
	}
	desc = {
		trigger = {
			has_country_flag = speech_opening_dip_flag
			has_country_flag = speech_argumentation_adm_flag
		}
		desc = jaddari_missions.18.dcb
	}
	
	is_triggered_only = yes
	
	after = {
		clr_country_flag = hosting_divine_symposium
	}
	
	#Options as a result of opening AA (MILADM)
	option = { # And our empire will expand until we have burned the darkness from all the people of the world.
		name = jaddari_missions.18.aaa
		trigger = {
			has_country_flag = speech_opening_mil_flag
			has_country_flag = speech_argumentation_adm_flag
		}
		
		add_mil_power = -10
		
		jaddempire_change_leaning_west_medium = yes
		
		add_country_modifier = {
			name = jaddari_symposium_imperial_zeal
			duration = 1825
		}
		
		clr_country_flag = speech_opening_mil_flag
		clr_country_flag = speech_argumentation_adm_flag
	}
	option = { # And with our expansion we will bright the light and knowledge of Surael to all.
		name = jaddari_missions.18.aab
		trigger = {
			has_country_flag = speech_opening_mil_flag
			has_country_flag = speech_argumentation_adm_flag
		}
		
		add_dip_power = -10
		
		jaddempire_change_leaning_west_tiny = yes
		
		add_country_modifier = {
			name = jaddari_symposium_imperial_fervor
			duration = 1825
		}
		
		clr_country_flag = speech_opening_mil_flag
		clr_country_flag = speech_argumentation_adm_flag
	}
	
	#Options as a result of opening AB (MILDIP)
	option = { # This is a unity that we must share, so the Quarter of the Suns will one day host all the peoples of the world.
		name = jaddari_missions.18.aba
		trigger = {
			has_country_flag = speech_opening_mil_flag
			has_country_flag = speech_argumentation_dip_flag
		}
		
		add_mil_power = -10
		
		jaddempire_change_leaning_east_small = yes
		
		add_country_modifier = {
			name = jaddari_symposium_cultural_representation
			duration = 1825
		}
		
		clr_country_flag = speech_opening_mil_flag
		clr_country_flag = speech_argumentation_dip_flag
	}
	option = { # And so, like the military marches as one. So do we stand as one under Surael.
		name = jaddari_missions.18.abb
		trigger = {
			has_country_flag = speech_opening_mil_flag
			has_country_flag = speech_argumentation_dip_flag
		}
		
		add_adm_power = -10
		
		add_country_modifier = {
			name = jaddari_symposium_standing_united
			duration = 1825
		}
		
		clr_country_flag = speech_opening_mil_flag
		clr_country_flag = speech_argumentation_dip_flag
	}
	
	#Options as a result of opening BA (ADMMIL)
	option = { # Let us all take as an example, the magnificent machine that the Harimraj has built for us.
		name = jaddari_missions.18.baa
		trigger = {
			has_country_flag = speech_opening_adm_flag
			has_country_flag = speech_argumentation_mil_flag
		}
		
		add_adm_power = -10
		
		jaddempire_change_leaning_east_medium = yes
		
		add_country_modifier = {
			name = jaddari_symposium_imperial_fervor
			duration = 1825
		}
		
		clr_country_flag = speech_opening_adm_flag
		clr_country_flag = speech_argumentation_mil_flag
	}
	option = { # We will walk into the footsteps of the ancient Bulwari, and rely on our priests and independent judges.
		name = jaddari_missions.18.bab
		trigger = {
			has_country_flag = speech_opening_adm_flag
			has_country_flag = speech_argumentation_mil_flag
		}
		
		add_dip_power = -10
		
		jaddempire_change_leaning_west_medium = yes
		
		add_country_modifier = {
			name = jaddari_symposium_local_administration
			duration = 1825
		}
		
		clr_country_flag = speech_opening_adm_flag
		clr_country_flag = speech_argumentation_mil_flag
	}
	
	#Options as a result of opening BB (ADMDIP)
	option = { # We must all observe the order and discipline of our Halessi bretheren as an example.
		name = jaddari_missions.18.bba
		trigger = {
			has_country_flag = speech_opening_adm_flag
			has_country_flag = speech_argumentation_dip_flag
		}
		
		add_mil_power = -10
		
		jaddempire_change_leaning_east_medium = yes
		
		add_country_modifier = {
			name = jaddari_symposium_rigid_society
			duration = 1825
		}
		
		clr_country_flag = speech_opening_adm_flag
		clr_country_flag = speech_argumentation_dip_flag
	}
	option = {
		name = jaddari_missions.18.bbb
		trigger = { # We should take the independent organisation from our Bulwari and Cannorian bretheren as an example.
			has_country_flag = speech_opening_adm_flag
			has_country_flag = speech_argumentation_dip_flag
		}
		
		add_dip_power = -10
		
		jaddempire_change_leaning_west_medium = yes
		
		add_country_modifier = {
			name = jaddari_symposium_local_administration
			duration = 1825
		}
		
		clr_country_flag = speech_opening_adm_flag
		clr_country_flag = speech_argumentation_dip_flag
	}
	
	#Options as a result of opening CA (DIPMIL)
	option = { # We will teach the Tenets of the Jadd, like the Philosophy was once taught to the people.
		name = jaddari_missions.18.caa
		trigger = {
			has_country_flag = speech_opening_dip_flag
			has_country_flag = speech_argumentation_mil_flag
		}
		
		add_adm_power = -10
		
		jaddempire_change_leaning_east_small = yes
		
		add_country_modifier = {
			name = jaddari_symposium_religious_schooling
			duration = 1825
		}
		
		clr_country_flag = speech_opening_dip_flag
		clr_country_flag = speech_argumentation_mil_flag
	}
	option = { # The teachings of the Jadd will spread through envoys and trade, and so the Light of Truth will illuminate all.
		name = jaddari_missions.18.cab
		trigger = {
			has_country_flag = speech_opening_dip_flag
			has_country_flag = speech_argumentation_mil_flag
		}
		
		add_dip_power = -10
		
		random_known_country = {
			limit = { NOT = { religion = the_jadd } }
			
			country_event = {
				id = bulwar_flavour.3
				days = 30
				random = 30
			}
		}
		random_known_country = {
			limit = { NOT = { religion = the_jadd } }
			
			country_event = {
				id = bulwar_flavour.3
				days = 30
				random = 30
			}
		}
		random_known_country = {
			limit = { NOT = { religion = the_jadd } }
			
			country_event = {
				id = bulwar_flavour.3
				days = 30
				random = 30
			}
		}
		
		clr_country_flag = speech_opening_dip_flag
		clr_country_flag = speech_argumentation_mil_flag
	}
	
	#Options as a result of opening CB (DIPADM)
	option = { # And so as the Light of Surael spreads we will see an end of hatred and animosity between all peoples.
		name = jaddari_missions.18.cba
		trigger = {
			has_country_flag = speech_opening_dip_flag
			has_country_flag = speech_argumentation_adm_flag
		}
		
		add_dip_power = -10
		
		jaddempire_change_leaning_east_tiny = yes
		
		add_country_modifier = {
			name = jaddari_symposium_cultural_representation
			duration = 1825
		}
		
		clr_country_flag = speech_opening_dip_flag
		clr_country_flag = speech_argumentation_adm_flag
	}
	option = { # And so as the Light of Surael spreads, all will serve him and be glad.
		name = jaddari_missions.18.cbb
		trigger = {
			has_country_flag = speech_opening_dip_flag
			has_country_flag = speech_argumentation_adm_flag
		}
		
		add_mil_power = -10
		
		jaddempire_change_leaning_west_tiny = yes
		
		add_country_modifier = {
			name = jaddari_symposium_rigid_society
			duration = 1825
		}
		
		clr_country_flag = speech_opening_dip_flag
		clr_country_flag = speech_argumentation_adm_flag
	}
}

### Jadd Expedition to the new world ###
#The Expedition Sets Sail
country_event = {
	id = jaddari_missions.19
	title = jaddari_missions.19.t
	desc = jaddari_missions.19.d
	picture = NAVAL_MILITARY_eventPicture
	
	is_triggered_only = yes
	
	option = {
		name = jaddari_missions.19.a
		
		custom_tooltip = jaddari_expedition_tt
		hidden_effect = {
			random_country = {
				limit = {
					capital_scope = { OR = { continent = north_america continent = south_america } }
					NOT = { religion = the_jadd }
					total_development = 200
					any_owned_province = { has_port = yes }
				}
				
				country_event = {
					id = jaddari_missions.20
					days = 365
					random = 365
				}
			}
		}
	}
}
#The Sun's Fleet 
country_event = {
	id = jaddari_missions.20
	title = jaddari_missions.20.t
	desc = jaddari_missions.20.d
	picture = NAVAL_MILITARY_eventPicture
	
	is_triggered_only = yes
	
	immediate = {
		hidden_effect = {
			random_owned_province = {
				limit = { has_port = yes }
				save_event_target_as = the_suns_fleet_landing
			}
		}
	}
	
	#Send them on their way
	option = {
		ai_chance = {
			factor = 0
		}
		name = jaddari_missions.20.a
		
		add_estate_loyalty = {
			estate = estate_church
			loyalty = 10
		}
		random_list = {
			80 = {
				hidden_effect = {
					1 = {
						if = {
							limit = {
								check_variable = {
									which = jaddari_eulos_expedition
									value = 0
								}
							}
							random_country = {
								limit = {
									capital_scope = { OR = { continent = north_america continent = south_america } }
									NOT = { religion = the_jadd }
									any_owned_province = { has_port = yes }
								}
								
								country_event = {
									id = jaddari_missions.20
									days = 182
									random = 182
								}
							}
						}
					}
				}
			}
			20 = { event_target:the_suns_fleet_landing = { province_event = { id = jaddari_missions.21 days = 1 } } }
		}
	}
	
	#Take their gifts
	option = {
		ai_chance = {
			factor = 1
		}
		name = jaddari_missions.20.b
		change_religion = the_jadd
		add_country_modifier = {
			name = "conversion_zeal"
			duration = 3650
		}
		add_manpower = 10
		add_treasury = 1000
		event_target:the_suns_fleet_landing = {
			custom_tooltip = jaddari_spawn_10_light_ship_tt
			spawn_units_for = {
				amount = 10
				type = light_ship
				who = ROOT
			}
		}
		hidden_effect = {
			1 = {
				subtract_variable = {
					which = jaddari_eulos_expedition
					value = 1
				}
				if = {
					limit = {
						check_variable = {
							which = jaddari_eulos_expedition
							value = 0
						}
					}
					random_country = {
						limit = {
							capital_scope = { OR = { continent = north_america continent = south_america } }
							NOT = { religion = the_jadd }
							any_owned_province = { has_port = yes }
						}
						
						country_event = {
							id = jaddari_missions.20
							days = 182
							random = 182
						}
					}
				}
			}
			if = {
				limit = { has_country_modifier = ruinborn_administration }
				F51 = {
					medium_increase_of_ruinborn_tolerance_effect = yes
					capital_scope = { add_ruinborn_minority_size_effect = yes }
				}
			}
		}
	}
}
#The Immovable Sun
province_event = {
	id = jaddari_missions.21
	title = jaddari_missions.21.t
	desc = jaddari_missions.21.d
	picture = BARBARY_PIRATES_eventPicture
	
	is_triggered_only = yes
	
	option = {
		name = jaddari_missions.21.a
		
		change_religion = the_jadd
		add_base_tax = 3
		add_base_manpower = 5
		add_province_modifier = {
			name = religious_fanatics
			duration = 9125
		}
		spawn_rebels = {
			type = the_jadd_rebels
			size = 3
			religion = the_jadd
			win = yes
			unrest = 10
		}
		hidden_effect = {
			1 = {
				subtract_variable = {
					which = jaddari_eulos_expedition
					value = 1
				}
				while = {
					limit = {
						check_variable = {
							which = jaddari_eulos_expedition
							value = 0
						}
					}
					
					ROOT = {
						spawn_rebels = {
							type = the_jadd_rebels
							size = 3
							religion = the_jadd
							win = yes
							unrest = 10
						}
					}
					subtract_variable = {
						which = jaddari_eulos_expedition
						value = 1
					}
				}
			}
		}
	}
}

#Dealing with Jyntas
country_event = {
	id = jaddari_missions.22
	title = jaddari_missions.22.t
	desc = jaddari_missions.22.d
	picture = DIPLOMACY_eventPicture
	
	is_triggered_only = yes
	
	option = {
		name = jaddari_missions.22.a
		
		4420 = {
			add_province_modifier = {
				name = jaddari_support_from_the_shade
				duration = 9125
			}
		}
		
		custom_tooltip = jaddari_deal_with_jyntas_struck_tt #Unlocks Sramaya as capital
		set_country_flag = deal_with_jyntas_struck
		if = {
			limit = { has_reform = jadd_empire NOT = { has_country_flag = jaddari_static_court } }
			country_event = { id = jadd_empire.1 } 
		}
	}
}

#The Phoenix-Dragon Pact (Bhuvauri)
country_event = {
	id = jaddari_missions.23
	title = jaddari_missions.23.t
	desc = jaddari_missions.23.d
	picture = DIPLOMACY_eventPicture
	
	is_triggered_only = yes
	
	#This seems like a great deal!
	option = {
		name = jaddari_missions.23.a
		ai_chance = {
			factor = 1
		}
		
		create_alliance = F46
		
		#! Break alliances with nations along the coast.
		custom_tooltip = jaddari_bhuvauri_lose_trust_tt
		hidden_effect = {
			every_ally = {
				limit = { any_owned_province = { OR = { area = ascension_cape_area area = avhavubhiya_area area = sarkhashabid_area } } }
				add_trust = {
					who = ROOT
					value = -100
				}
			} 
		}
		
		ascension_cape_area = {
			limit = {
				NOT = { is_core = ROOT }
				NOT = { is_permanent_claim = ROOT }
			}
			add_permanent_claim = ROOT
		}
		4371 = {
			if = {
				limit = {
					NOT = { is_core = ROOT }
					NOT = { is_permanent_claim = ROOT }
				}
				add_permanent_claim = ROOT
			}
		}
		4370 = {
			if = {
				limit = {
					NOT = { is_core = ROOT }
					NOT = { is_permanent_claim = ROOT }
				}
				add_permanent_claim = ROOT
			}
		}
		4367 = {
			if = {
				limit = {
					NOT = { is_core = ROOT }
					NOT = { is_permanent_claim = ROOT }
				}
				add_permanent_claim = ROOT
			}
			
		}
		
		FROM = { country_event = { id = jaddari_missions.30 days = 7 random = 7 } }
	}
	
	#What an awful idea!
	option = {
		name = jaddari_missions.23.b
		ai_chance = {
			factor = 0
		}
		
		FROM = { country_event = { id = jaddari_missions.31 days = 7 random = 7 } }
	}
}

#The Remaining Administration
country_event = {
	id = jaddari_missions.24
	title = jaddari_missions.24.t
	desc = jaddari_missions.24.d
	picture = ECONOMY_eventPicture
	
	is_triggered_only = yes
	
	option = {
		name = jaddari_missions.24.a
		
		custom_tooltip = jaddari_absorb_the_ministries_tt
		hidden_effect = {
			set_country_flag = jaddari_remnant_dhenijansar_administration_flag
			every_owned_province = {
				limit = { OR = { region = rakhadesh_region region = rahen_coast_region region = dhujat_region } }
				add_province_modifier = {
					name = jaddari_remnant_dhenijansar_administration
					duration = -1
					hidden = yes
				}
			}
		}
	}
}

#The Imperial Census
country_event = {
	id = jaddari_missions.25
	title = jaddari_missions.25.t
	desc = jaddari_missions.25.d
	picture = BIG_BOOK_eventPicture
	
	is_triggered_only = yes
	
	option = {
		name = jaddari_missions.25.a
		
		add_country_modifier = {
			name = jaddari_the_imperial_census
			duration = 9125
		}
	}
}

### A Ghankedheni Ally ###
#A Shining Opportunity
country_event = {
	id = jaddari_missions.26
	title = jaddari_missions.26.t
	desc = jaddari_missions.26.d
	picture = DIPLOMACY_eventPicture
	
	is_triggered_only = yes
	
	#Accept
	option = {
		name = jaddari_missions.26.a
		ai_chance = {
			factor = 1
		}
		add_yearly_manpower = 1
		add_army_tradition = 40
		
		custom_tooltip = jaddari_annex_ghankedhen_marriages_tt
		every_country = {
			limit = { primary_culture = ghankedhen marriage_with = ROOT }
			ROOT = { inherit = PREV }
		}
		
		north_ghankedhen_area = {
			limit = {
				NOT = { is_core = ROOT }
				NOT = { is_permanent_claim = ROOT }
			}
			add_permanent_claim = ROOT
		}
		south_ghankedhen_area = {
			limit = {
				NOT = { is_core = ROOT }
				NOT = { is_permanent_claim = ROOT }
			}
			add_permanent_claim = ROOT
		}
		
		FROM = {
			create_subject = {
				subject_type = autonomous_vassal
				subject = ROOT
			}
		}
		
		hidden_effect = {
			FROM = { country_event = { id = jaddari_missions.27 days = 7 } }
		}
	}
	
	#Refuse
	option = {
		name = jaddari_missions.26.a
		ai_chance = {
			factor = 0
		}
		
		hidden_effect = {
			FROM = { country_event = { id = jaddari_missions.28 days = 7 } }
		}
	}
}
#They Accepted
country_event = {
	id = jaddari_missions.27
	title = jaddari_missions.27.t
	desc = jaddari_missions.27.d
	picture = DIPLOMACY_eventPicture
	
	is_triggered_only = yes
	
	option = {
		name = jaddari_missions.27.a
		
		tooltip = {
			create_subject = {
				subject_type = autonomous_vassal
				subject = FROM
			}
		}
		
		south_marutha_area = {
			limit = {
				NOT = { is_core = ROOT }
				NOT = { is_permanent_claim = ROOT }
			}
			add_permanent_claim = ROOT
		}
		pasiragha_area = {
			limit = {
				NOT = { is_core = ROOT }
				NOT = { is_permanent_claim = ROOT }
			}
			add_permanent_claim = ROOT
		}
	}
}
#They Refused
country_event = {
	id = jaddari_missions.28
	title = jaddari_missions.28.t
	desc = jaddari_missions.28.d
	picture = DIPLOMACY_eventPicture
	
	is_triggered_only = yes
	
	option = {
		name = jaddari_missions.28.a
		
		north_ghankedhen_area = {
			limit = {
				NOT = { is_core = ROOT }
				NOT = { is_permanent_claim = ROOT }
			}
			add_permanent_claim = ROOT
		}
		south_ghankedhen_area = {
			limit = {
				NOT = { is_core = ROOT }
				NOT = { is_permanent_claim = ROOT }
			}
			add_permanent_claim = ROOT
		}
		south_marutha_area = {
			limit = {
				NOT = { is_core = ROOT }
				NOT = { is_permanent_claim = ROOT }
			}
			add_permanent_claim = ROOT
		}
		pasiragha_area = {
			limit = {
				NOT = { is_core = ROOT }
				NOT = { is_permanent_claim = ROOT }
			}
			add_permanent_claim = ROOT
		}
	}
}

# A shift in administration?
country_event = {
	id = jaddari_missions.29
	title = jaddari_missions.29.t
	desc = jaddari_missions.29.d
	picture = EXPLORERS_eventPicture
	
	is_triggered_only = yes
	
	#The harimari are our most experienced administrators
	option = {
		name = jaddari_missions.29.a
		
		change_primary_culture = royal_harimari
		country_event = { id = racial_modifiers.5 }
		
		jaddempire_change_leaning_east_massive = yes
	}
	
	#There is no need to switch our rule
	option = {
		name = jaddari_missions.29.b
		
		add_prestige = 25
		add_legitimacy = 25
	}
}

#The Phoenix-Dragon Pact (Bhuvauri said yes)
country_event = {
	id = jaddari_missions.30
	title = jaddari_missions.30.t
	desc = jaddari_missions.30.d
	picture = DIPLOMACY_eventPicture
	
	is_triggered_only = yes
	
	option = {
		name = jaddari_missions.30.a
		
		tooltip = {
			create_alliance = R38
		}
		
		avhavubhiya_area = {
			limit = {
				NOT = { is_core = ROOT }
				NOT = { is_permanent_claim = ROOT }
			}
			add_permanent_claim = ROOT
		}
		4366 = {
			if = {
				limit = {
					NOT = { is_core = ROOT }
					NOT = { is_permanent_claim = ROOT }
				}
				add_permanent_claim = ROOT
			}
			add_permanent_claim = ROOT
		}
	}
}

#The Phoenix-Dragon Pact (Bhuvauri said no)
country_event = {
	id = jaddari_missions.31
	title = jaddari_missions.31.t
	desc = jaddari_missions.31.d
	picture = DIPLOMACY_eventPicture
	
	is_triggered_only = yes
	
	option = {
		name = jaddari_missions.31.a
		
		add_prestige = -10
	}
}

#The Sun's Jubilation opening
country_event = {
	id = jaddari_missions.32
	title = jaddari_missions.32.t
	desc = jaddari_missions.32.d
	picture = FEAST_eventPicture
	
	is_triggered_only = yes
	
	option = {
		name = jaddari_missions.32.a
		
		add_country_modifier = {
			name = jaddari_the_suns_jubilation
			duration = -1
		}
		add_estate_loyalty = {
			estate = estate_church
			loyalty = 10
		}
		
		hidden_effect = {
			country_event = {
				id = jaddari_missions.33
				days = 30
				random = 170
			}
			country_event = {
				id = jaddari_missions.34
				days = 230
				random = 170
			}
			country_event = {
				id = jaddari_missions.35
				days = 430
				random = 200
			}
			country_event = {
				id = jaddari_missions.36
				days = 730
				random = 30
			}
		}
	}
}
#The Sun's Jubilation 1
country_event = { #The Heart of the Party
	id = jaddari_missions.33
	title = jaddari_missions.33.t
	desc = jaddari_missions.33.d
	picture = FEAST_eventPicture
	
	is_triggered_only = yes
	
	immediate = {
		hidden_effect = {
			random_owned_province = {
				limit = { base_manpower = 3 NOT = { is_capital = yes } }
				save_event_target_as = jaddari_migration_province_1
				set_province_flag = jaddari_migration_province_flag
			}
			random_owned_province = {
				limit = { NOT = { has_province_flag = jaddari_migration_province_flag } base_production = 3 NOT = { is_capital = yes } }
				save_event_target_as = jaddari_migration_province_2
				set_province_flag = jaddari_migration_province_flag
			}
			random_owned_province = {
				limit = { NOT = { has_province_flag = jaddari_migration_province_flag } base_manpower = 3 base_tax = 3 NOT = { is_capital = yes } }
				save_event_target_as = jaddari_migration_province_3
				set_province_flag = jaddari_migration_province_flag
			}
			every_owned_province = { clr_province_flag = jaddari_migration_province_flag }
		}
	}
	
	option = {
		name = jaddari_missions.33.a
		
		event_target:jaddari_migration_province_1 = {
			add_base_manpower = -1
		}
		event_target:jaddari_migration_province_2 = {
			add_base_production = -1
		}
		event_target:jaddari_migration_province_3 = {
			add_base_manpower = -1
			add_base_tax = -1
		}
		capital_scope = {
			add_base_tax = 1
			add_base_production = 1
			add_base_manpower = 2
		}
	}
}
#The Sun's Jubilation 2
country_event = { #A Divine Affair
	id = jaddari_missions.34
	title = jaddari_missions.34.t
	desc = jaddari_missions.34.d
	picture = FEAST_eventPicture
	
	is_triggered_only = yes
	
	option = { #Surael has blessed this love!
		name = jaddari_missions.34.a
		
		define_consort = {
			country_of_origin = ROOT
			religion = the_jadd
			dip = 6
			hide_skills = yes
		}
		define_heir = {
			age = 0
			claim = 100
			religion = the_jadd
			culture = ROOT
			adm = 2
			dip = 2
			mil = 3
		}
	}
	option = { #I will remain faithful to [Root.Consort.Name]
		name = jaddari_missions.34.b
		
		add_legitimacy = 10
	}
}
#The Sun's Jubilation 3
country_event = { #Some over enthusiastic partying has caused damage to several temples!
	id = jaddari_missions.35
	title = jaddari_missions.35.t
	desc = jaddari_missions.35.d
	picture = FEAST_eventPicture
	
	is_triggered_only = yes
	
	immediate = {
		hidden_effect = {
			random_owned_province = {
				limit = { has_tax_building_trigger = yes }
				save_event_target_as = damaged_temple_1
				set_province_flag = jaddari_damaged_temple_flag
			}
			random_owned_province = {
				limit = { has_tax_building_trigger = yes NOT = { has_province_flag = jaddari_damaged_temple_flag } }
				save_event_target_as = damaged_temple_2
				set_province_flag = jaddari_damaged_temple_flag
			}
			random_owned_province = {
				limit = { has_tax_building_trigger = yes NOT = { has_province_flag = jaddari_damaged_temple_flag } }
				save_event_target_as = damaged_temple_3
				set_province_flag = jaddari_damaged_temple_flag
			}
			random_owned_province = {
				limit = { has_tax_building_trigger = yes NOT = { has_province_flag = jaddari_damaged_temple_flag } }
				save_event_target_as = damaged_temple_4
				set_province_flag = jaddari_damaged_temple_flag
			}
			random_owned_province = {
				limit = { has_tax_building_trigger = yes NOT = { has_province_flag = jaddari_damaged_temple_flag } }
				save_event_target_as = damaged_temple_5
				set_province_flag = jaddari_damaged_temple_flag
			}
			every_owned_province = { clr_province_flag = jaddari_damaged_temple_flag }
		}
	}
	
	option = {
		name = jaddari_missions.35.a
		
		event_target:damaged_temple_1 = {
			add_devastation = 10
			add_province_modifier = {
				name = jaddari_damaged_temple
				duration = 3650
			}
		}
		event_target:damaged_temple_2 = {
			add_devastation = 10
			add_province_modifier = {
				name = jaddari_damaged_temple
				duration = 3650
			}
		}
		event_target:damaged_temple_3 = {
			add_devastation = 10
			add_province_modifier = {
				name = jaddari_damaged_temple
				duration = 3650
			}
		}
		event_target:damaged_temple_4 = {
			add_devastation = 10
			add_province_modifier = {
				name = jaddari_damaged_temple
				duration = 3650
			}
		}
		event_target:damaged_temple_5 = {
			add_devastation = 10
			add_province_modifier = {
				name = jaddari_damaged_temple
				duration = 3650
			}
		}
		
		add_estate_loyalty = {
			estate = estate_church
			loyalty = -10
		}
	}
}
#The Sun's Jubilation closing
country_event = {
	id = jaddari_missions.36
	title = jaddari_missions.36.t
	desc = jaddari_missions.36.d
	picture = FEAST_eventPicture
	
	is_triggered_only = yes
	
	option = {
		name = jaddari_missions.36.a
		
		every_owned_province = { remove_province_modifier = rebel_sentiment }
		remove_country_modifier = jaddari_the_suns_jubilation
		add_country_modifier = { name = jaddari_the_suns_smile duration = 9125 }
	}
}

#Triumph of the Sun opening
country_event = {
	id = jaddari_missions.37
	title = jaddari_missions.37.t
	desc = jaddari_missions.37.d
	picture = FEAST_eventPicture
	
	is_triggered_only = yes
	
	option = {
		name = jaddari_missions.37.a
		
		add_country_modifier = {
			name = jaddari_triumph_of_the_sun
			duration = -1
		}
		add_estate_loyalty = {
			estate = estate_church
			loyalty = 10
		}
		
		hidden_effect = {
			country_event = {
				id = jaddari_missions.38
				days = 30
				random = 170
			}
			country_event = {
				id = jaddari_missions.39
				days = 230
				random = 170
			}
			country_event = {
				id = jaddari_missions.40
				days = 430
				random = 200
			}
			country_event = {
				id = jaddari_missions.41
				days = 730
				random = 30
			}
		}
	}
}
#Triumph of the Sun 1
country_event = { #Donations to the Temples!
	id = jaddari_missions.38
	title = jaddari_missions.38.t
	desc = jaddari_missions.38.d
	picture = FEAST_eventPicture
	
	is_triggered_only = yes
	
	option = {
		name = jaddari_missions.38.a
		
		add_years_of_income = 0.5
	}
}
#Triumph of the Sun 2
country_event = { #The Party Spreads among the Military
	id = jaddari_missions.39
	title = jaddari_missions.39.t
	desc = jaddari_missions.39.d
	picture = FEAST_eventPicture
	
	is_triggered_only = yes
	
	option = {
		name = jaddari_missions.39.a
		
		add_country_modifier = {
			name = jaddari_celebrating_soldiers
			duration = 1825
		}
	}
}
#Triumph of the Sun 3
country_event = { #A Spectacular Deioderan
	id = jaddari_missions.40
	title = jaddari_missions.40.t
	desc = jaddari_missions.40.d
	picture = FEAST_eventPicture
	
	is_triggered_only = yes
	
	option = {
		name = jaddari_missions.40.a
		
		add_prestige = 10
		add_splendor = 50
	}
}
#Triumph of the Sun closing
country_event = {
	id = jaddari_missions.41
	title = jaddari_missions.41.t
	desc = jaddari_missions.41.d
	picture = FEAST_eventPicture
	
	is_triggered_only = yes
	
	option = {
		name = jaddari_missions.41.a
		
		every_owned_province = { remove_province_modifier = rebel_sentiment }
		remove_country_modifier = jaddari_triumph_of_the_sun
		add_country_modifier = { name = jaddari_the_suns_cheer duration = 9125 }
	}
}

#The Rapture of Surael opening
country_event = {
	id = jaddari_missions.42
	title = jaddari_missions.42.t
	desc = jaddari_missions.42.d
	picture = FEAST_eventPicture
	
	is_triggered_only = yes
	
	option = {
		name = jaddari_missions.42.a
		
		add_country_modifier = {
			name = jaddari_the_rapture_of_surael
			duration = -1
		}
		add_estate_loyalty = {
			estate = estate_church
			loyalty = 10
		}
		
		hidden_effect = {
			country_event = {
				id = jaddari_missions.43
				days = 30
				random = 170
			}
			country_event = {
				id = jaddari_missions.44
				days = 230
				random = 170
			}
			country_event = {
				id = jaddari_missions.45
				days = 430
				random = 200
			}
			country_event = {
				id = jaddari_missions.46
				days = 730
				random = 30
			}
		}
	}
}
#The Rapture of Surael 1
country_event = { #An Imperial Parade
	id = jaddari_missions.43
	title = jaddari_missions.43.t
	desc = jaddari_missions.43.d
	picture = FEAST_eventPicture
	
	is_triggered_only = yes
	
	option = {
		name = jaddari_missions.43.a
		
		add_mil_power = 50
	}
}
#The Rapture of Surael 2
country_event = { #The Radiant Ball
	id = jaddari_missions.44
	title = jaddari_missions.44.t
	desc = jaddari_missions.44.d
	picture = FEAST_eventPicture
	
	is_triggered_only = yes
	
	option = {
		name = jaddari_missions.44.a
		
		add_country_modifier = {
			name = jaddari_the_radiant_ball
			duration = 1825
		}
	}
}
#The Rapture of Surael 3
country_event = { #One Party Too Many
	id = jaddari_missions.45
	title = jaddari_missions.45.t
	desc = jaddari_missions.45.d
	picture = FEAST_eventPicture
	
	is_triggered_only = yes
	
	option = {
		name = jaddari_missions.45.a
		
		add_ruler_modifier = {
			name = jaddari_one_party_too_many
			duration = 365
		}
	}
}
#The Rapture of Surael closing
country_event = {
	id = jaddari_missions.46
	title = jaddari_missions.46.t
	desc = jaddari_missions.46.d
	picture = FEAST_eventPicture
	
	is_triggered_only = yes
	
	option = {
		name = jaddari_missions.46.a
		
		every_owned_province = { remove_province_modifier = rebel_sentiment }
		remove_country_modifier = jaddari_the_rapture_of_surael
		add_country_modifier = { name = jaddari_the_suns_laugh duration = 9125 }
	}
}

#Great Feast events
province_event = { #Welcome to the fold
	id = jaddari_missions.47
	title = jaddari_missions.47.t
	desc = jaddari_missions.47.d
	picture = CONQUEST_eventPicture
	
	trigger = {
		owner = {
			OR = {
				has_country_modifier = jaddari_the_suns_jubilation
				has_country_modifier = jaddari_triumph_of_the_sun
				has_country_modifier = jaddari_the_rapture_of_surael
			}
		}
		NOT = { is_core = ROOT }
	}
	mean_time_to_happen = {
		days = 60
		modifier = {
			factor = 0.5
			religion = the_jadd
		}
		modifier = {
			factor = 0.5
			has_owner_accepted_culture = yes
		}
	}
	is_mtth_scaled_to_size = 1
	
	option = {
		name = jaddari_missions.47.a
		
		add_nationalism = -5
		add_core = ROOT
		change_religion = the_jadd
	}
}
province_event = { #Religious violence
	id = jaddari_missions.48
	title = jaddari_missions.48.t
	desc = jaddari_missions.48.d
	picture = ANGRY_MOB_eventPicture
	
	trigger = {
		owner = {
			OR = {
				has_country_modifier = jaddari_the_suns_jubilation
				has_country_modifier = jaddari_triumph_of_the_sun
				has_country_modifier = jaddari_the_rapture_of_surael
			}
		}
		NOT = { religion = the_jadd }
	}
	mean_time_to_happen = {
		days = 60
		modifier = {
			factor = 0.5
			has_owner_accepted_culture = no
		}
	}
	is_mtth_scaled_to_size = 1
	
	option = {
		name = jaddari_missions.48.a
		
		add_devastation = 50
		add_province_modifier = {
			name = jaddari_religious_massacre
			duration = 1825
		}
	}
}

# Event for migrating minorities to the capital
country_event = {
	id = jaddari_missions.49
	title = jaddari_missions.49.t
	desc = jaddari_missions.49.d
	picture = EUROPEAN_REFUGEES_eventPicture
	
	trigger = {
		tag = F51
	}
	
	mean_time_to_happen = {
		days = 7300
		modifier = {
			factor = 0.5
			capital_scope = { is_prosperous = yes }
		}
	}
	
	immediate = {
		hidden_effect = {
			random_owned_province = {
				limit = { OR = { has_any_coexisting_pop_trigger = yes has_any_integrated_pop_trigger = yes } }
				save_event_target_as = jaddari_migration_province
			}
		}
	}
	
	option = {
		name = jaddari_missions.49.a
		goto = jaddari_migration_province
		
		move_high_tolerance_pop_from_to = {
			from = event_target:jaddari_migration_province
			to = capital_scope
		}
	}
}

# The Eternal Sun
country_event = {
	id = jaddari_missions.50
	title = jaddari_missions.50.t
	desc = jaddari_missions.50.d
	picture = COMET_SIGHTED_eventPicture
	
	is_triggered_only = yes
	
	option = {
		name = jaddari_missions.50.a
		
		4871 = {
			add_province_modifier = {
				name = jaddari_the_eternal_sun
				duration = -1
			}
		}
		
		country_event = {
					id = jaddari_missions.51
					days = 40
		}

	}
}
country_event = {
	id = jaddari_missions.51
	title = jaddari_missions.51.t
	desc = jaddari_missions.51.d
	picture = COMET_SIGHTED_eventPicture
	
	is_triggered_only = yes
	
	option = {
		name = jaddari_missions.51.a
		
		4500 = {
			add_province_modifier = {
				name = jaddari_the_eternal_sun
				duration = -1
			}
		}

		4420 = {
			add_province_modifier = {
				name = jaddari_the_eternal_sun
				duration = -1
			}
		}

		4411 = {
			add_province_modifier = {
				name = jaddari_the_eternal_sun
				duration = -1
			}
		}

		country_event = {
					id = jaddari_missions.52
					days = 10
		}

	}
}
country_event = {
	id = jaddari_missions.52
	title = jaddari_missions.52.t
	desc = jaddari_missions.52.d
	picture = COMET_SIGHTED_eventPicture
	
	is_triggered_only = yes
	
	option = {
		name = jaddari_missions.52.a

		2909 = {
			add_province_modifier = {
				name = jaddari_the_eternal_sun
				duration = -1
			}
		}
		
		643 = {
			add_province_modifier = {
				name = jaddari_the_eternal_sun
				duration = -1
			}
		}

		625 = {
			add_province_modifier = {
				name = jaddari_the_eternal_sun
				duration = -1
			}
		}


		country_event = {
					id = jaddari_missions.53
					days = 10
		}

	}
}
country_event = {
	id = jaddari_missions.53
	title = jaddari_missions.53.t
	desc = jaddari_missions.53.d
	picture = COMET_SIGHTED_eventPicture
	
	is_triggered_only = yes
	
	option = {
		name = jaddari_missions.53.a

		601 = {
			add_province_modifier = {
				name = jaddari_the_eternal_sun
				duration = -1
			}
		}

		565 = {
			add_province_modifier = {
				name = jaddari_the_eternal_sun
				duration = -1
			}
		}

		country_event = {
					id = jaddari_missions.54
					days = 10
		}

	}
}
country_event = {
	id = jaddari_missions.54
	title = jaddari_missions.54.t
	desc = jaddari_missions.54.d
	picture = COMET_SIGHTED_eventPicture
	
	is_triggered_only = yes
	
	option = {
		name = jaddari_missions.54.a
		
		8 = {
			add_province_modifier = {
				name = jaddari_the_eternal_sun
				duration = -1
			}
		}

		country_event = {
					id = jaddari_missions.55
					days = 10
		}

	}
}

# 
country_event = {
	id = jaddari_missions.55
	title = jaddari_missions.55.t
	desc = jaddari_missions.55.d
	picture = COMET_SIGHTED_eventPicture
	
	is_triggered_only = yes
	
	option = {
		name = jaddari_missions.55.a
		
		add_country_modifier = {
			name = jaddari_rezan_sared
			duration = -1
		}

	}
}


### An Empire Divided prelim events ###

#Where do we host the great celebration?
country_event = {
	id = jaddari_missions.101
	title = jaddari_missions.101.t
	desc = jaddari_missions.101.d
	picture = FEAST_eventPicture
	
	is_triggered_only = yes
	trigger = {
		tag = F51
		was_tag = F46
		NOT = {
			has_disaster = jaddari_deioderan
		}
	}
	
	immediate = {
		hidden_effect = {
			random_owned_province = {
				limit = { continent = asia religion = the_jadd NOT = { has_province_flag = jadd_celebration_location is_capital = yes } }
				save_event_target_as = celebration_location_1
				set_province_flag = jadd_celebration_location
			}
			random_owned_province = {
				limit = { continent = asia religion = the_jadd NOT = { has_province_flag = jadd_celebration_location is_capital = yes } }
				save_event_target_as = celebration_location_2
				set_province_flag = jadd_celebration_location
			}
			random_owned_province = {
				limit = { OR = { continent = europe continent = africa } religion = the_jadd NOT = { has_province_flag = jadd_celebration_location is_capital = yes } }
				save_event_target_as = celebration_location_3
				set_province_flag = jadd_celebration_location
			}
			random_owned_province = {
				limit = { OR = { continent = europe continent = africa } religion = the_jadd NOT = { has_province_flag = jadd_celebration_location is_capital = yes } }
				save_event_target_as = celebration_location_4
				set_province_flag = jadd_celebration_location
			}
			every_owned_province = {
				limit = { has_province_flag = jadd_celebration_location }
				clr_province_flag = jadd_celebration_location
			}
		}
	}
	
	option = {
		name = jaddari_missions.101.a
		goto = celebration_location_1
		
		event_target:celebration_location_1 = {
			add_province_modifier = {
				name = jaddari_the_divine_herald_joined_in_celebration
				duration = 3650
			}
		}
		jaddempire_change_leaning_east_tiny = yes
	}
	
	option = {
		name = jaddari_missions.101.b
		goto = celebration_location_2
		
		event_target:celebration_location_2 = {
			add_province_modifier = {
				name = jaddari_the_divine_herald_joined_in_celebration
				duration = 3650
			}
		}
		jaddempire_change_leaning_east_tiny = yes
	}
	
	option = {
		name = jaddari_missions.101.c
		goto = celebration_location_3
		
		event_target:celebration_location_3 = {
			add_province_modifier = {
				name = jaddari_the_divine_herald_joined_in_celebration
				duration = 3650
			}
		}
		jaddempire_change_leaning_west_tiny = yes
	}
	
	option = {
		name = jaddari_missions.101.dd
		goto = celebration_location_4
		
		event_target:celebration_location_4 = {
			add_province_modifier = {
				name = jaddari_the_divine_herald_joined_in_celebration
				duration = 3650
			}
		}
		jaddempire_change_leaning_west_tiny = yes
	}
}

#Interpreting the Teachings of the Jadd
country_event = {
	id = jaddari_missions.102
	title = jaddari_missions.102.t
	desc = jaddari_missions.102.d
	picture = BIG_BOOK_eventPicture
	
	is_triggered_only = yes
	trigger = {
		tag = F51
		was_tag = F46
		NOT = {
			has_disaster = jaddari_deioderan
			has_country_flag = had_deioderan
		}
	}
	
	immediate = {
		hidden_effect = {
			random_list = {
				30 = { 1 = { save_event_target_as = advisor_candidate_culture_1 } }
				30 = { 2 = { save_event_target_as = advisor_candidate_culture_1 } }
				20 = { 3 = { save_event_target_as = advisor_candidate_culture_1 } }
				10 = { 4 = { save_event_target_as = advisor_candidate_culture_1 } }
				10 = { 5 = { save_event_target_as = advisor_candidate_culture_1 } }
			}
			random_list = {
				30 = { 1 = { save_event_target_as = advisor_candidate_culture_2 } }
				20 = { 2 = { save_event_target_as = advisor_candidate_culture_2 } }
				20 = { 3 = { save_event_target_as = advisor_candidate_culture_2 } }
				10 = { 4 = { save_event_target_as = advisor_candidate_culture_2 } }
				10 = { 5 = { save_event_target_as = advisor_candidate_culture_2 } }
				10 = { 6 = { save_event_target_as = advisor_candidate_culture_2 } }
			}
		}
	}
	
	option = { #We need to understand the old teachings of Surael
		name = jaddari_missions.102.a
		
		if = {
			limit = { event_target:advisor_candidate_culture_1 = { province_id = 1 } }
			define_advisor = {
				type = theologian
				skill = 2
				culture = zanite
			}
		}
		else_if = {
			limit = { event_target:advisor_candidate_culture_1 = { province_id = 2 } }
			define_advisor = {
				type = theologian
				skill = 2
				culture = surani
			}
		}
		else_if = {
			limit = { event_target:advisor_candidate_culture_1 = { province_id = 3 } }
			define_advisor = {
				type = theologian
				skill = 2
				culture = brasanni
			}
		}
		else_if = {
			limit = { event_target:advisor_candidate_culture_1 = { province_id = 4 } }
			define_advisor = {
				type = philosopher
				skill = 2
				culture = bahari
			}
		}
		else_if = {
			limit = { event_target:advisor_candidate_culture_1 = { province_id = 5 } }
			define_advisor = {
				type = inquisitor
				skill = 2
				culture = desert_elf
			}
		}
		jaddempire_change_leaning_west_tiny = yes
	}
	
	option = { #Some eastern wisdom would be well timed
		name = jaddari_missions.102.b
		
		if = {
			limit = { event_target:advisor_candidate_culture_2 = { province_id = 1 } }
			define_advisor = {
				type = philosopher
				skill = 2
				culture = royal_harimari
			}
		}
		else_if = {
			limit = { event_target:advisor_candidate_culture_2 = { province_id = 2 } }
			define_advisor = {
				type = natural_scientist
				skill = 2
				culture = rabhidarubsad
			}
		}
		else_if = {
			limit = { event_target:advisor_candidate_culture_2 = { province_id = 3 } }
			define_advisor = {
				type = philosopher
				skill = 2
				culture = sarniryabsad
			}
		}
		else_if = {
			limit = { event_target:advisor_candidate_culture_2 = { province_id = 4 } }
			define_advisor = {
				type = theologian
				skill = 2
				culture = rasarhid
			}
		}
		else_if = {
			limit = { event_target:advisor_candidate_culture_2 = { province_id = 5 } }
			define_advisor = {
				type = inquisitor
				skill = 2
				culture = pasindesh
			}
		}
		else_if = {
			limit = { event_target:advisor_candidate_culture_2 = { province_id = 6 } }
			define_advisor = {
				type = natural_scientist
				skill = 2
				culture = ghankedhen
			}
		}
		jaddempire_change_leaning_east_tiny = yes
	}
}

#Plans for a new temple
country_event = {
	id = jaddari_missions.103
	title = jaddari_missions.103.t
	desc = jaddari_missions.103.d
	picture = EXPLORERS_eventPicture
	
	is_triggered_only = yes
	trigger = {
		tag = F51
		was_tag = F46
		NOT = {
			has_disaster = jaddari_deioderan
			has_country_flag = had_deioderan
		}
	}
	
	option = { #It shall be decorated in the Surani Style
		name = jaddari_missions.103.a
		
		capital_scope = {
			add_province_modifier = {
				name = jaddari_influx_of_western_architects
				duration = 3650
			}
		}
		
		if = {
			limit = { capital_scope = { continent = asia } }
			random = {
				chance = 50
				add_stability = -1
			}
		}
		
		jaddempire_change_leaning_west_tiny = yes
	}
	
	option = { #It shall be decorated in the Raheni Style
		name = jaddari_missions.103.b
		
		capital_scope = {
			add_province_modifier = {
				name = jaddari_influx_of_eastern_architects
				duration = 3650
			}
		}
		
		if = {
			limit = { capital_scope = { OR = { continent = africa continent = europe } } }
			random = {
				chance = 50
				add_stability = -1
			}
		}
		
		jaddempire_change_leaning_east_tiny = yes
	}
}

#The Scorching Sun
country_event = {
	id = jaddari_missions.104
	title = jaddari_missions.104.t
	desc = jaddari_missions.104.d
	picture = FARMING_eventPicture
	
	is_triggered_only = yes
	trigger = {
		tag = F51
		was_tag = F46
		NOT = {
			has_disaster = jaddari_deioderan
		}
		any_owned_province = {
			continent = asia
			OR = {
				trade_goods = grain
				trade_goods = wine
				trade_goods = cotton
				trade_goods = tea
				trade_goods = coffee
			}
		}
		any_owned_province = {
			OR = {
				continent = africa
				continent = europe
			}
			OR = {
				trade_goods = grain
				trade_goods = wine
				trade_goods = cotton
				trade_goods = tea
				trade_goods = coffee
			}
		}
	}
	
	immediate = {
		hidden_effect = {
			random_owned_province = {
				limit = {
					continent = asia
					OR = {
						trade_goods = grain
						trade_goods = wine
						trade_goods = cotton
						trade_goods = tea
						trade_goods = coffee
					}
					area_for_scope_province = { owned_by = ROOT }
				}
				area = { save_event_target_as = scorching_sun_target_east }
			}
			random_owned_province = {
				limit = {
					OR = {
						continent = africa
						continent = europe
					}
					OR = {
						trade_goods = grain
						trade_goods = wine
						trade_goods = cotton
						trade_goods = tea
						trade_goods = coffee
					}
					area_for_scope_province = { owned_by = ROOT }
				}
				area = { save_event_target_as = scorching_sun_target_west }
			}
		}
	}
	
	option = { #Personally visit [scorching_sun_target_east.GetAreaName].
		name = jaddari_missions.104.a
		goto = scorching_sun_target_east
		
		add_dip_power = -50
		event_target:scorching_sun_target_east = {
			area = {
				add_province_modifier = {
					name = jaddari_burned_out_the_darkness
					duration = 3650
				}
			}
		}
		event_target:scorching_sun_target_west = {
			area = {
				add_province_modifier = {
					name = jaddari_punished_by_the_blazing_sun
					duration = 3650
				}
			}
		}
		jaddempire_change_leaning_east_tiny = yes
	}
	
	option = { #Grace [scorching_sun_target_west.GetAreaName] with our presence.
		name = jaddari_missions.104.b
		goto = scorching_sun_target_west
		
		add_dip_power = -50
		event_target:scorching_sun_target_west = {
			area = {
				add_province_modifier = {
					name = jaddari_burned_out_the_darkness
					duration = 3650
				}
			}
		}
		event_target:scorching_sun_target_east = {
			area = {
				add_province_modifier = {
					name = jaddari_punished_by_the_blazing_sun
					duration = 3650
				}
			}
		}
		jaddempire_change_leaning_west_tiny = yes
	}
	
	option = { #There are other matters to attend to.
		name = jaddari_missions.104.c
		
		event_target:scorching_sun_target_west = {
			add_province_modifier = {
				name = jaddari_punished_by_the_blazing_sun
				duration = 3650
			}
		}
		event_target:scorching_sun_target_east = {
			add_province_modifier = {
				name = jaddari_punished_by_the_blazing_sun
				duration = 3650
			}
		}
	}
}

#The Herald's Obsession
country_event = {
	id = jaddari_missions.105
	title = jaddari_missions.105.t
	desc = jaddari_missions.105.d
	picture = EXPLORERS_eventPicture
	
	is_triggered_only = yes
	trigger = {
		tag = F51
		was_tag = F46
		NOT = {
			has_disaster = jaddari_deioderan
		}
		NOT = {
			has_country_modifier = jaddari_ruler_obsession_law
			has_country_modifier = jaddari_ruler_obsession_poetry
			has_country_modifier = jaddari_ruler_obsession_fashion
			has_country_modifier = jaddari_ruler_obsession_architecture
			has_country_modifier = jaddari_ruler_obsession_philosophy
			has_country_modifier = jaddari_ruler_obsession_strategy
		}
	}
	
	immediate = {
		hidden_effect = {
			if = {
				limit = { check_variable = { which = jaddariLeaning value = 1 } }
				random_list = {
					10 = { 1 = { save_event_target_as = jaddari_herald_obsession } }
					10 = { 3 = { save_event_target_as = jaddari_herald_obsession } }
					10 = { 6 = { save_event_target_as = jaddari_herald_obsession } }
				}
			}
			else_if = {
				limit = { NOT = { check_variable = { which = jaddariLeaning value = 0 } } }
				random_list = {
					10 = { 2 = { save_event_target_as = jaddari_herald_obsession } }
					10 = { 4 = { save_event_target_as = jaddari_herald_obsession } }
					10 = { 5 = { save_event_target_as = jaddari_herald_obsession } }
				}
			}
			else = {
				random_list = {
					10 = { 1 = { save_event_target_as = jaddari_herald_obsession } }
					10 = { 2 = { save_event_target_as = jaddari_herald_obsession } }
					10 = { 3 = { save_event_target_as = jaddari_herald_obsession } }
					10 = { 4 = { save_event_target_as = jaddari_herald_obsession } }
					10 = { 5 = { save_event_target_as = jaddari_herald_obsession } }
					10 = { 6 = { save_event_target_as = jaddari_herald_obsession } }
				}
			}
		}
	}
	
	option = { #[Root.Monarch.GetName]'s attention has been captured by Bulwari law
		name = jaddari_missions.105.a
		trigger = { event_target:jaddari_herald_obsession = { province_id = 1 } }
		
		add_ruler_modifier = {
			name = jaddari_ruler_obsession_law
			duration = 7300
		}
		jaddempire_change_leaning_west_massive = yes
	}
	
	option = { #[Root.Monarch.GetName]'s attention has been captured by Yansheni poetry
		name = jaddari_missions.105.b
		trigger = { event_target:jaddari_herald_obsession = { province_id = 2 } }
		
		add_ruler_modifier = {
			name = jaddari_ruler_obsession_poetry
			duration = 7300
		}
		jaddempire_change_leaning_east_large = yes
	}
	
	option = { #[Root.Monarch.GetName]'s attention has been captured by Sun Elven fashion
		name = jaddari_missions.105.c
		trigger = { event_target:jaddari_herald_obsession = { province_id = 3 } }
		
		add_ruler_modifier = {
			name = jaddari_ruler_obsession_fashion
			duration = 7300
		}
		jaddempire_change_leaning_west_large = yes
	}
	
	option = { #[Root.Monarch.GetName]'s attention has been captured by Raheni architecture
		name = jaddari_missions.105.dd
		trigger = { event_target:jaddari_herald_obsession = { province_id = 4 } }
		
		add_ruler_modifier = {
			name = jaddari_ruler_obsession_architecture
			duration = 7300
		}
		jaddempire_change_leaning_east_large = yes
	}
	
	option = { #[Root.Monarch.GetName]'s attention has been captured by Harimari philosophy
		name = jaddari_missions.105.e
		trigger = { event_target:jaddari_herald_obsession = { province_id = 5 } }
		
		add_ruler_modifier = {
			name = jaddari_ruler_obsession_philosophy
			duration = 7300
		}
		jaddempire_change_leaning_east_massive = yes
	}
	
	option = { #[Root.Monarch.GetName]'s attention has been captured by Cannorian martial culture
		name = jaddari_missions.105.f
		trigger = { event_target:jaddari_herald_obsession = { province_id = 6 } }
		
		add_ruler_modifier = {
			name = jaddari_ruler_obsession_strategy
			duration = 7300
		}
		jaddempire_change_leaning_west_large = yes
	}
}



### Deioderan events ###

#Setup event
country_event = {
	id = jaddari_missions.200
	title = jaddari_missions.200.t
	desc = jaddari_missions.200.d
	picture = EXPLORERS_eventPicture
	
	hidden = yes
	is_triggered_only = yes
	
	option = {
		name = jaddari_missions.200.a
		
		set_country_flag = jaddari_static_court
		set_country_flag = deioderan_started_flag
		
		set_variable = {
			which = jaddari_deioderan_battle_counter
			value = 0
		}
		set_variable = {
			which = jaddari_deioderan_dev_counter
			value = 0
		}
		set_variable = {
			which = jaddari_deioderan_sway_counter
			value = 0
		}
		
		if = {
			limit = {
				check_variable = {
					which = jaddariLeaning
					value = 1
				}
			}
			
			#split off the eastern empire
			every_owned_province = {
				limit = {
					OR = {
						continent = asia
						# region = far_salahad_region
					}
				}
				add_core = F99
			}
			release = F99
			
			#Give vassals in the appropriate regions to the other side
			every_subject_country = {
				limit = { capital_scope = { OR = { continent = asia superregion = east_serpentspine_superregion } } }
				if = {
					limit = { is_subject_of_type = autonomous_vassal }
					F99 = { create_subject = { subject = PREV subject_type = autonomous_vassal } }
				}
				else_if = {
					limit = { is_subject_of_type = personal_union }
					F99 = { create_subject = { subject = PREV subject_type = personal_union } }
				}
				else_if = {
					limit = { is_subject_of_type = march }
					F99 = { create_march = PREV }
				}
				else_if = {
					limit = { is_subject_of_type = client_vassal }
					F99 = { create_subject = { subject = PREV subject_type = client_vassal } }
				}
				else_if = {
					limit = { is_subject_of_type = client_march }
					F99 = { create_subject = { subject = PREV subject_type = client_march } }
				}
				else = {
					F99 = { vassalize = PREV }
				}
			}
			
			F99 = {
				set_country_flag = jaddari_static_court
				
				change_religion = the_jadd
				change_primary_culture = royal_harimari
				change_technology_group = tech_harimari
				change_unit_type = tech_harimari
				add_country_modifier = { name = harimari_administration duration = -1 }
				add_country_modifier = { name = harimari_military duration = -1 }
				
				add_government_reform = jadd_empire
				add_government_reform = jadd_nobility
				add_government_reform = jaddari_mobile_centralization
				
				define_ruler = {
					name = "Zalikar"
					dynasty = "of the Golden Stripe"
					adm = 6
					dip = 4
					mil = 5
					fixed = yes
					female = yes
					culture = desert_elf
					religion = the_jadd
					age = 33
				}
				add_ruler_personality = scholar_personality
				add_ruler_personality = martial_educator_personality
				add_ruler_personality = inspiring_leader_personality
				
				if = {
					limit = { owns_core_province = 4500 ROOT = { has_country_flag = aizt_ralare_founded_flag } }
					set_country_flag = aizt_ralare_founded_flag
					4500 = { move_capital_effect = yes }
					add_country_modifier = {
						name = jaddempire_aizt_ralare_capital
						duration = -1
					}
				}
				else_if = {
					limit = { owns_core_province = 4420 ROOT = { has_country_flag = deal_with_jyntas_struck } }
					4420 = { move_capital_effect = yes }
					add_country_modifier = {
						name = jaddempire_sramaya_capital
						duration = -1
					}
				}
				else_if = {
					limit = { owns_core_province = 4411 }
					4411 = { move_capital_effect = yes }
					add_country_modifier = {
						name = jaddempire_dhenijansar_capital
						duration = -1
					}
				}
				
				#! Add idea groups? Should be handled by the country file
				
				transfer_units_in_province_from_to = {
					province = every_owned_province
					from = F51
					to = F99
				}
			}
			declare_war_with_cb = {
				who = F99
				casus_belli = cb_deioderan
			}
			
			override_country_name = WEST_JADD_EMPIRE
			F99 = { override_country_name = EAST_JADD_EMPIRE }
			
			every_owned_province = {
				limit = {
					OR = {
						continent = europe
						continent = africa
					}
				}
				add_core = F99
			}
		}
		else_if = {
			limit = {
				NOT = {
					check_variable = {
						which = jaddariLeaning
						value = 0
					}
				}
			}
			
			#split off the western empire
			every_owned_province = {
				limit = {
					OR = {
						continent = europe
						continent = africa
					}
				}
				add_core = F99
			}
			
			release = F99
			
			#Give vassals in the appropriate regions to the other side
			every_subject_country = {
				limit = { capital_scope = { OR = { continent = europe continent = africa superregion = west_serpentspine_superregion } } }
				if = {
					limit = { is_subject_of_type = autonomous_vassal }
					F99 = { create_subject = { subject = PREV subject_type = autonomous_vassal } }
				}
				else_if = {
					limit = { is_subject_of_type = personal_union }
					F99 = { create_subject = { subject = PREV subject_type = personal_union } }
				}
				else_if = {
					limit = { is_subject_of_type = march }
					F99 = { create_march = PREV }
				}
				else_if = {
					limit = { is_subject_of_type = client_vassal }
					F99 = { create_subject = { subject = PREV subject_type = client_vassal } }
				}
				else_if = {
					limit = { is_subject_of_type = client_march }
					F99 = { create_subject = { subject = PREV subject_type = client_march } }
				}
				else = {
					F99 = { vassalize = PREV }
				}
			}
			
			F99 = {
				set_country_flag = jaddari_static_court
				
				change_religion = the_jadd
				change_primary_culture = desert_elf
				change_technology_group = tech_east_elven
				change_unit_type = tech_east_elven
				add_country_modifier = { name = elven_administration duration = -1 }
				add_country_modifier = { name = elven_military duration = -1 }
				
				add_government_reform = jadd_empire
				add_government_reform = jadd_nobility
				add_government_reform = jaddari_mobile_centralization
				
				set_ruler = liandiel
				
				if = {
					limit = { ROOT = { has_country_flag = jaddanzar_founded_flag } }
					set_country_flag = jaddanzar_founded_flag
					625 = { move_capital_effect = yes }
					add_country_modifier = {
						name = jaddempire_jaddanzar_capital
						duration = -1
					}
				}
				else_if = {
					limit = { owns_core_province = 643 }
					643 = { move_capital_effect = yes }
					add_country_modifier = {
						name = jaddempire_azka_sur_capital
						duration = -1
					}
				}
				else_if = {
					limit = { owns_core_province = 601 }
					601 = { move_capital_effect = yes }
					add_country_modifier = {
						name = jaddempire_bulwar_capital
						duration = -1
					}
				}
				else_if = {
					limit = { owns_core_province = 565 }
					565 = { move_capital_effect = yes }
					add_country_modifier = {
						name = jaddempire_brasan_capital
						duration = -1
					}
				}
				
				#! Add idea groups? Should be handled by the country file
				
				transfer_units_in_province_from_to = {
					province = every_owned_province
					from = F51
					to = F99
				}
			}
			declare_war_with_cb = {
				who = F99
				casus_belli = cb_deioderan
			}
			
			override_country_name = EAST_JADD_EMPIRE
			F99 = { override_country_name = WEST_JADD_EMPIRE }
			
			every_owned_province = {
				limit = {
					OR = {
						continent = asia
					}
				}
				add_core = F99
			}
		}
		
		F99 = {
			add_adm_power = 400
			add_dip_power = 400
			add_mil_power = 400
			
			add_army_tradition = 80
			add_army_professionalism = 0.8
			add_manpower = 100
			add_treasury = 2000
			add_yearly_manpower = 5
			add_years_of_income = 5
			add_absolutism = 60
			
			add_country_modifier = {
				name = jaddari_the_spirit_of_separation
				duration = 3600
			}
			
			if = {
				limit = {
					variable_arithmetic_trigger = {
						export_to_variable = {
							which = our_total_development
							value = trigger_value:total_development
						}
						export_to_variable = {
							which = from_total_development
							value = trigger_value:total_development
							who = FROM
						}
						multiply_variable = {
							which = our_total_development
							value = 1.5
						}
						
						check_variable = { which = from_total_development which = our_total_development }
					}
				}
				capital_scope = {
					spawn_units_for = { type = infantry who = F99 amount = 20 }
					spawn_units_for = { type = cavalry who = F99 amount = 4 }
					spawn_units_for = { type = artillery who = F99 amount = 20 }
				}
				add_manpower = 100
				add_treasury = 2000
				add_yearly_manpower = 5
				add_years_of_income = 5
			}
		}
		
		set_variable = { which = jaddari_enemy_event_counter value = 7 }
		while = {
			limit = { check_variable = { which = jaddari_enemy_event_counter value = 0 } }
			
			random_known_country = {
				limit = {
					OR = {
						NOT = { has_opinion = { who = ROOT value = -100 } }
						is_rival = ROOT
					}
					NOT = {
						border_distance = {
							who = ROOT
							distance = 200
						}
						truce_with = ROOT
						num_of_loans = 5
						has_country_flag = jaddari_disaster_enemy_flag
					}
				}
				country_event = {
					id = jaddari_missions.217
					days = 7
					random = 60
				}
				set_country_flag = jaddari_disaster_enemy_flag
			}
			
			subtract_variable = { which = jaddari_enemy_event_counter value = 1 }
		}
		every_known_country = {
			limit = { has_country_flag = jaddari_disaster_enemy_flag }
			clr_country_flag = jaddari_disaster_enemy_flag
		}
		country_event = { id = jaddari_missions.201 }
	}
}

#Initial event for players
country_event = {
	id = jaddari_missions.201
	title = jaddari_missions.201.t
	desc = jaddari_missions.201.d
	picture = BATTLE_eventPicture
	
	is_triggered_only = yes
	major = yes
	
	option = {
		name = jaddari_missions.201.a
		
		swap_non_generic_missions = yes
		add_stability = -3
		
		hidden_effect = {
			random_owned_province = {
				create_revolt = 1
			}
			random_owned_province = {
				create_revolt = 1
			}
			random_owned_province = {
				create_revolt = 1
			}
			random_owned_province = {
				create_revolt = 1
			}
			random_owned_province = {
				create_revolt = 1
			}
			random_owned_province = {
				create_revolt = 1
			}
			random_owned_province = {
				create_revolt = 2
			}
			random_owned_province = {
				create_revolt = 2
			}
			random_owned_province = {
				create_revolt = 3
			}
			random_owned_province = {
				create_revolt = 3
			}
		}
	}
}

#Final event
country_event = {
	id = jaddari_missions.202
	title = jaddari_missions.202.t
	picture = WOUNDED_SOLDIERS_eventPicture
	
	desc = {
		trigger = {
			had_country_flag = { flag = deioderan_started_flag days = 3650 }
		}
		desc = jaddari_missions.202.da
	}
	desc = {
		trigger = {
			has_country_flag = jaddari_empire_united_by_diplomacy
		}
		desc = jaddari_missions.202.db
	}
	desc = {
		trigger = {
			NOT = { had_country_flag = { flag = deioderan_started_flag days = 3650 } has_country_flag = jaddari_empire_united_by_diplomacy }
		}
		desc = jaddari_missions.202.dc
	}
	
	is_triggered_only = yes
	
	option = { #The Empire splits up
		name = jaddari_missions.202.a
		trigger = { 
			had_country_flag = {
				flag = deioderan_started_flag
				days = 3650
			}
		}
		
		add_stability_or_adm_power = yes
		
		if = {
			limit = { capital_scope = { continent = asia } }
			override_country_name = POST_EAST_JADD_EMPIRE
			F99 = { override_country_name = POST_WEST_JADD_EMPIRE }
		}
		else = {
			override_country_name = POST_WEST_JADD_EMPIRE
			F99 = { override_country_name = POST_EAST_JADD_EMPIRE }
		}
		
		hidden_effect = {
			set_country_flag = had_deioderan
			clr_country_flag = jaddari_static_court
			clr_country_flag = deioderan_started_flag
			F99 = {
				clr_country_flag = jaddari_static_court
			}
		}
	}
	
	option = { #The Empire reunites through diplomacy
		name = jaddari_missions.202.b
		trigger = { has_country_flag = jaddari_empire_united_by_diplomacy }
		
		restore_country_name = yes
		add_country_modifier = {
			name = jaddari_empire_of_harmony
			duration = 36500
		}
		add_stability = 2
		inherit = F99
		
		hidden_effect = {
			set_country_flag = had_deioderan
			clr_country_flag = jaddari_static_court
			clr_country_flag = deioderan_started_flag
			F99 = {
				clr_country_flag = jaddari_static_court
			}
		}
		country_event = { id = jadd_empire.1 }
	}
	
	option = { #The Empire reunites through war
		name = jaddari_missions.202.c
		trigger = { NOT = { had_country_flag = { flag = deioderan_started_flag days = 3650 } has_country_flag = jaddari_empire_united_by_diplomacy } }
		
		restore_country_name = yes
		add_country_modifier = {
			name = jaddari_one_divine_herald
			duration = 36500
		}
		add_absolutism = 10
		add_stability_or_adm_power = yes
		inherit = F99
		
		hidden_effect = {
			set_country_flag = had_deioderan
			clr_country_flag = jaddari_static_court
			clr_country_flag = deioderan_started_flag
			F99 = {
				clr_country_flag = jaddari_static_court
			}
		}
		country_event = { id = jadd_empire.1 }
	}
}

#Pelar Ten event
country_event = {
	id = jaddari_missions.210
	title = jaddari_missions.210.t
	desc = jaddari_missions.210.d
	picture = SPY_eventPicture
	
	is_triggered_only = yes
	
	option = { #Sabotage their supply lines
		name = jaddari_missions.210.a
		
		F99 = {
			add_country_modifier = {
				name = jaddari_sabotaged_supply_lines
				duration = 3650
			}
		}
	}
	option = { #Spread propaganda among their people
		name = jaddari_missions.210.b
		if = {
			limit = { capital_scope = { continent = asia } }
			jaddempire_change_leaning_west_large = yes
		}
		else = {
			jaddempire_change_leaning_east_large = yes
		}
	}
}
#Kide event
country_event = {
	id = jaddari_missions.211
	title = jaddari_missions.211.t
	desc = jaddari_missions.211.d
	picture = DIPLOMACY_eventPicture
	
	is_triggered_only = yes
	
	option = { # Ceasing hostilities is the first step towards reuniting
		name = jaddari_missions.211.a
		
		add_opinion = {
			who = F99
			modifier = jaddari_ceasing_hostilities
		}
		reverse_add_opinion = {
			who = F99
			modifier = jaddari_ceasing_hostilities
		}
		add_trust = {
			who = F99
			value = 25
			mutual = yes
		}
		
		if = {
			limit = { capital_scope = { continent = asia } }
			jaddempire_change_leaning_west_large = yes
		}
		else = {
			jaddempire_change_leaning_east_large = yes
		}
	}
	option = { # This is merely a short ceasefire
		name = jaddari_missions.211.b
		
		custom_tooltip = jaddari_kide_event_tt
		hidden_effect = {
			clr_country_flag = deioderan_started_flag
			set_country_flag = deioderan_started_flag
		}
	}
}
#Kondranas event
country_event = {
	id = jaddari_missions.212
	title = jaddari_missions.212.t
	desc = jaddari_missions.212.d
	picture = DIPLOMACY_eventPicture
	
	is_triggered_only = yes
	
	option = { # Friendship is the way forward
		name = jaddari_missions.212.a
		
		add_opinion = {
			who = F99
			modifier = jaddari_mending_the_rift
		}
		reverse_add_opinion = {
			who = F99
			modifier = jaddari_mending_the_rift
		}
		add_trust = {
			who = F99
			value = 50
			mutual = yes
		}
		
		every_owned_province = {
			remove_core = F99
		}
		F99 = {
			every_owned_province = {
				remove_core = F51
			}
		}
	}
}

#Violence against opposing pops
country_event = {
	id = jaddari_missions.213
	title = jaddari_missions.213.t
	desc = jaddari_missions.213.d
	picture = ANGRY_MOB_eventPicture
	
	is_triggered_only = yes
	
	trigger = {
		if = {
			limit = { capital_scope = { continent = asia } }
			any_owned_province = {
				OR = {
					has_any_elven_pop_trigger = yes
					has_any_gnollish_pop_trigger = yes
				}
			}
		}
		else = {
			any_owned_province = {
				OR = {
					has_any_harimari_pop_trigger = yes
					has_any_hobgoblin_pop_trigger = yes
				}
			}
		}
	}
	
	option = { # Well, they might be enemies
		name = jaddari_missions.213.a
		
		if = {
			limit = { capital_scope = { continent = asia } }
			if = {
				limit = { any_owned_province = { has_any_elven_pop_trigger = yes } }
				small_decrease_of_elven_tolerance_effect = yes
			}
			else = {
				small_decrease_of_gnollish_tolerance_effect = yes
			}
		}
		else = {
			if = {
				limit = { any_owned_province = { has_any_harimari_pop_trigger = yes } }
				small_decrease_of_harimari_tolerance_effect = yes
			}
			else = {
				small_decrease_of_hobgoblin_tolerance_effect = yes
			}
		}
	}
	option = { # This is not the way forward
		name = jaddari_missions.213.b
		add_dip_power = -50
		if = {
			limit = { capital_scope = { continent = asia } }
			jaddempire_change_leaning_west_large = yes
		}
		else = {
			jaddempire_change_leaning_east_large = yes
		}
	}
}
#Defecting Forces!
country_event = {
	id = jaddari_missions.214
	title = jaddari_missions.214.t
	desc = jaddari_missions.214.d
	picture = LAND_MILITARY_eventPicture
	
	is_triggered_only = yes
	
	trigger = {
		F99 = {
			any_owned_province = {
				infantry_in_province = ROOT
				infantry_in_province = 10
				controlled_by = F99
			}
		}
	}
	
	immediate = {
		hidden_effect = {
			F99 = {
				random_owned_province = {
					limit = {
						infantry_in_province = ROOT
						infantry_in_province = 10
						controlled_by = F99
					}
					save_event_target_as = army_switched_sides_target
					transfer_units_in_province_from_to = {
						province = event_target:army_switched_sides_target
						from = ROOT
						to = F99
					}
				}
			}
		}
	}
	
	option = { # TRAITORS!
		name = jaddari_missions.214.a
		goto = army_switched_sides_target
		
		custom_tooltip = jaddari_army_defected_tt
	}
}
#Enemies Join Our Ranks!
country_event = {
	id = jaddari_missions.215
	title = jaddari_missions.215.t
	desc = jaddari_missions.215.d
	picture = LAND_MILITARY_eventPicture
	
	is_triggered_only = yes
	
	trigger = {
		any_owned_province = {
			infantry_in_province = F99
			infantry_in_province = 10
			controlled_by = ROOT
		}
	}
	
	immediate = {
		hidden_effect = {
			random_owned_province = {
				limit = {
					infantry_in_province = F99
					infantry_in_province = 10
					controlled_by = ROOT
				}
				save_event_target_as = army_switched_sides_target
				transfer_units_in_province_from_to = {
					province = event_target:army_switched_sides_target
					from = F99
					to = ROOT
				}
			}
		}
	}
	
	option = { # Welcome to the fold!
		name = jaddari_missions.215.a
		goto = army_switched_sides_target
		
		custom_tooltip = jaddari_army_joined_us_tt
	}
}
#The Divine-Herald loses authority
country_event = {
	id = jaddari_missions.216
	title = jaddari_missions.216.t
	desc = jaddari_missions.216.d
	picture = STREET_SPEECH_eventPicture
	
	is_triggered_only = yes
	
	trigger = {
		NOT = { has_country_modifier = jaddari_lost_authority }
	}
	
	option = { # B-but I am the voice of Surael!
		name = jaddari_missions.216.a
		
		add_absolutism = -5
		add_ruler_modifier = {
			name = jaddari_lost_authority
			duration = 1825
		}
	}
}
#A Division in the Jadd Empire
country_event = {
	id = jaddari_missions.217
	title = jaddari_missions.217.t
	desc = jaddari_missions.217.d
	picture = REVOLUTION_eventPicture
	
	is_triggered_only = yes
	
	option = { # This is our opportunity!
		name = jaddari_missions.217.a
		ai_chance = {
			factor = 1
			modifier = {
				factor = 2
				army_strength = { who = F51 value = 0.5 }
			}
			modifier = {
				factor = 2
				treasury = 1000
			}
			modifier = {
				factor = 0
				truce_with = F51
			}
		}
		
		join_all_defensive_wars_of = F99
	}
	option = { # We will stay neutral
		name = jaddari_missions.217.b
		ai_chance = {
			factor = 10
			modifier = {
				factor = 1.2
				num_of_loans = 1
			}
			modifier = {
				factor = 1.2
				is_at_war = yes
			}
		}
	}
}



#Attempt to sway province
country_event = {
	id = jaddari_missions.300
	title = jaddari_missions.300.t
	desc = jaddari_missions.300.d
	picture = STREET_SPEECH_eventPicture
	
	is_triggered_only = yes
	
	immediate = {
		hidden_effect = {
			set_country_flag = jaddari_deioderan_sway_menu_open
			if = {
				limit = { tag = F51 }
				F99 = {
					random_owned_province = {
						limit = {
							controlled_by = ROOT
							NOT = { has_province_modifier = jaddari_failed_to_sway_province }
							any_neighbor_province = { owned_by = ROOT }
						}
						set_province_flag = jaddari_sway_target
						set_province_flag = jaddari_sway_target_1
						save_event_target_as = jaddari_sway_1
					}
					random_owned_province = {
						limit = {
							controlled_by = ROOT
							NOT = { has_province_modifier = jaddari_failed_to_sway_province }
							any_neighbor_province = { owned_by = ROOT }
							NOT = { has_province_flag = jaddari_sway_target }
						}
						set_province_flag = jaddari_sway_target
						set_province_flag = jaddari_sway_target_2
						save_event_target_as = jaddari_sway_2
					}
					random_owned_province = {
						limit = {
							controlled_by = ROOT
							NOT = { has_province_modifier = jaddari_failed_to_sway_province }
							any_neighbor_province = { owned_by = ROOT }
							NOT = { has_province_flag = jaddari_sway_target }
						}
						set_province_flag = jaddari_sway_target
						set_province_flag = jaddari_sway_target_3
						save_event_target_as = jaddari_sway_3
					}
					random_owned_province = {
						limit = {
							controlled_by = ROOT
							NOT = { has_province_modifier = jaddari_failed_to_sway_province }
							any_neighbor_province = { owned_by = ROOT }
							NOT = { has_province_flag = jaddari_sway_target }
						}
						set_province_flag = jaddari_sway_target
						set_province_flag = jaddari_sway_target_4
						save_event_target_as = jaddari_sway_4
					}
					every_owned_province = { clr_province_flag = jaddari_sway_target }
				}
			}
			if = {
				limit = { tag = F99 }
				F51 = {
					random_owned_province = {
						limit = {
							controlled_by = ROOT
							NOT = { has_province_modifier = jaddari_failed_to_sway_province }
							any_neighbor_province = { owned_by = ROOT }
						}
						set_province_flag = jaddari_sway_target
						set_province_flag = jaddari_sway_target_1
						save_event_target_as = jaddari_sway_1
					}
					random_owned_province = {
						limit = {
							controlled_by = ROOT
							NOT = { has_province_modifier = jaddari_failed_to_sway_province }
							any_neighbor_province = { owned_by = ROOT }
							NOT = { has_province_flag = jaddari_sway_target }
						}
						set_province_flag = jaddari_sway_target
						set_province_flag = jaddari_sway_target_2
						save_event_target_as = jaddari_sway_2
					}
					random_owned_province = {
						limit = {
							controlled_by = ROOT
							NOT = { has_province_modifier = jaddari_failed_to_sway_province }
							any_neighbor_province = { owned_by = ROOT }
							NOT = { has_province_flag = jaddari_sway_target }
						}
						set_province_flag = jaddari_sway_target
						set_province_flag = jaddari_sway_target_3
						save_event_target_as = jaddari_sway_3
					}
					random_owned_province = {
						limit = {
							controlled_by = ROOT
							NOT = { has_province_modifier = jaddari_failed_to_sway_province }
							any_neighbor_province = { owned_by = ROOT }
							NOT = { has_province_flag = jaddari_sway_target }
						}
						set_province_flag = jaddari_sway_target
						set_province_flag = jaddari_sway_target_4
						save_event_target_as = jaddari_sway_4
					}
					every_owned_province = { clr_province_flag = jaddari_sway_target }
				}
			}
		}
	}
	
	option = {
		name = jaddari_missions.300.a
		trigger = {
			if = {
				limit = { tag = F51 }
				F99 = { any_owned_province = { has_province_flag = jaddari_sway_target_1 } }
			}
			else = { F51 = { any_owned_province = { has_province_flag = jaddari_sway_target_1 } } }
		}
		goto = jaddari_sway_1
		
		event_target:jaddari_sway_1 = {
			jaddari_attempt_to_sway_province = yes
		}
		jaddari_close_sway_menu = yes
	}
	
	option = {
		name = jaddari_missions.300.b
		trigger = {
			if = {
				limit = { tag = F51 }
				F99 = { any_owned_province = { has_province_flag = jaddari_sway_target_2 } }
			}
			else = { F51 = { any_owned_province = { has_province_flag = jaddari_sway_target_2 } } }
		}
		goto = jaddari_sway_2
		
		event_target:jaddari_sway_2 = {
			jaddari_attempt_to_sway_province = yes
		}
		jaddari_close_sway_menu = yes
	}
	
	option = {
		name = jaddari_missions.300.c
		trigger = {
			if = {
				limit = { tag = F51 }
				F99 = { any_owned_province = { has_province_flag = jaddari_sway_target_3 } }
			}
			else = { F51 = { any_owned_province = { has_province_flag = jaddari_sway_target_3 } } }
		}
		goto = jaddari_sway_3
		
		event_target:jaddari_sway_3 = {
			jaddari_attempt_to_sway_province = yes
		}
		jaddari_close_sway_menu = yes
	}
	
	option = {
		name = jaddari_missions.300.dd
		trigger = {
			if = {
				limit = { tag = F51 }
				F99 = { any_owned_province = { has_province_flag = jaddari_sway_target_4 } }
			}
			else = { F51 = { any_owned_province = { has_province_flag = jaddari_sway_target_4 } } }
		}
		goto = jaddari_sway_4
		
		event_target:jaddari_sway_4 = {
			jaddari_attempt_to_sway_province = yes
		}
		jaddari_close_sway_menu = yes
	}
	
	option = {
		name = jaddari_missions.300.e
		
		jaddari_close_sway_menu = yes
	}
}
province_event = {
	id = jaddari_missions.301
	title = jaddari_missions.1.t
	desc = jaddari_missions.1.d
	picture = POPE_PREACHING_eventPicture
	
	is_triggered_only = yes
	hidden = yes
	
	
	option = { #Succesfully sway
		name = jaddari_missions.1.a
		ai_chance = {
			factor = 1
			modifier = {
				factor = 1.6
				owner = { monthly_dip = 4 }
			}
			modifier = {
				factor = 1.6
				owner = { monthly_dip = 5 }
			}
			modifier = {
				factor = 1.6
				owner = { monthly_dip = 6 }
			}
			modifier = {
				factor = 1.6
				owner = { monthly_dip = 7 }
			}
			modifier = {
				factor = 1.6
				owner = { monthly_dip = 8 }
			}
			modifier = {
				factor = 1.6
				owner = { monthly_dip = 9 }
			}
			modifier = {
				factor = 1.6
				owner = { monthly_dip = 10 }
			}
			modifier = {
				factor = 1.6
				owner = { monthly_dip = 11 }
			}
			modifier = {
				factor = 1.6
				owner = { monthly_dip = 12 }
			}
			modifier = {
				factor = 1.6
				owner = { monthly_dip = 13 }
			}
			modifier = {
				factor = 1.6
				owner = { monthly_dip = 14 }
			}
		}
		
		cede_province = FROM if = { limit = { FROM = { tag = F51 } } FROM = { change_variable = { which = jaddari_deioderan_sway_counter value = 1 } } }
	}
	option = { #Fail to sway
		name = jaddari_missions.1.a
		ai_chance = {
			factor = 4
		}
		add_province_modifier = { name = jaddari_failed_to_sway_province duration = 180 }
	}
}



#Jaddari Setup
country_event = {
	id = jaddari_missions.1000
	title = jaddari_missions.1.t
	desc = jaddari_missions.1.d
	picture = POPE_PREACHING_eventPicture
	
	is_triggered_only = yes
	fire_only_once = yes
	hidden = yes
	
	trigger = {
		tag = F46
	}
	
	immediate = {
		set_variable = {
			which = jaddariLeaning
			value = 0
		}
	}
	
	option = {
		name = jaddari_missions.1.a
		ai_chance = {
			factor = 1
		}
		
		#Crutch for AI
		if = {
			limit = { ai = yes }
			add_country_modifier = {
				name = jaddari_ai_boost
				duration = 36500
			}
		}
	}
}

